%TF.GenerationSoftware,KiCad,Pcbnew,(5.99.0-10421-g7afc3f7df9)*%
%TF.CreationDate,2021-06-08T11:31:37+02:00*%
%TF.ProjectId,trop_tray_sensor_vibration,74726f70-5f74-4726-9179-5f73656e736f,rev?*%
%TF.SameCoordinates,Original*%
%TF.FileFunction,Copper,L1,Top*%
%TF.FilePolarity,Positive*%
%FSLAX46Y46*%
G04 Gerber Fmt 4.6, Leading zero omitted, Abs format (unit mm)*
G04 Created by KiCad (PCBNEW (5.99.0-10421-g7afc3f7df9)) date 2021-06-08 11:31:37*
%MOMM*%
%LPD*%
G01*
G04 APERTURE LIST*
%TA.AperFunction,SMDPad,CuDef*%
%ADD10R,2.030000X0.610000*%
%TD*%
%TA.AperFunction,ViaPad*%
%ADD11C,0.800000*%
%TD*%
%TA.AperFunction,ViaPad*%
%ADD12C,0.650000*%
%TD*%
%TA.AperFunction,ViaPad*%
%ADD13C,1.200000*%
%TD*%
%TA.AperFunction,Conductor*%
%ADD14C,0.200000*%
%TD*%
%TA.AperFunction,Conductor*%
%ADD15C,0.300000*%
%TD*%
%TA.AperFunction,Conductor*%
%ADD16C,0.600000*%
%TD*%
%TA.AperFunction,Conductor*%
%ADD17C,0.151000*%
%TD*%
G04 APERTURE END LIST*
D10*
%TO.P,U1,1,Vcore*%
%TO.N,Net-(C1-Pad1)*%
X127550000Y-86095000D03*
%TO.P,U1,2,Vss*%
%TO.N,GND*%
X127550000Y-87365000D03*
%TO.P,U1,3,SCL*%
%TO.N,/Fan driver/SCL*%
X127550000Y-88635000D03*
%TO.P,U1,4,SDA*%
%TO.N,/Fan driver/SDA*%
X127550000Y-89905000D03*
%TO.P,U1,5,AL_H*%
%TO.N,unconnected-(U1-Pad5)*%
X132450000Y-89905000D03*
%TO.P,U1,6,AL-L*%
%TO.N,unconnected-(U1-Pad6)*%
X132450000Y-88635000D03*
%TO.P,U1,7,NC*%
%TO.N,unconnected-(U1-Pad7)*%
X132450000Y-87365000D03*
%TO.P,U1,8,VDD*%
%TO.N,+5V*%
X132450000Y-86095000D03*
%TD*%
D11*
%TO.N,Net-(C1-Pad1)*%
X130600000Y-87300000D03*
D12*
%TO.N,GND*%
X118300000Y-94700000D03*
X164749000Y-116841000D03*
X166351000Y-101622000D03*
X172759000Y-108030000D03*
X168754000Y-119244000D03*
X158341000Y-100821000D03*
X175162000Y-112035000D03*
X134311000Y-102423000D03*
X123000000Y-113350000D03*
X111082000Y-95214000D03*
X155137000Y-110433000D03*
X147928000Y-96015000D03*
X111082000Y-114438000D03*
X143122000Y-107229000D03*
X178366000Y-115239000D03*
X178366000Y-108831000D03*
X116200000Y-105150000D03*
X161545000Y-104025000D03*
X159943000Y-108831000D03*
X138316000Y-112836000D03*
X115888000Y-112836000D03*
X142321000Y-96816000D03*
X176764000Y-99219000D03*
X111082000Y-101622000D03*
X135112000Y-116040000D03*
X131700000Y-93900000D03*
X136714000Y-107229000D03*
X170356000Y-114438000D03*
X155938000Y-117642000D03*
X167953000Y-110433000D03*
X160744000Y-119244000D03*
X111082000Y-108030000D03*
X159943000Y-95214000D03*
X169555000Y-104826000D03*
X152734000Y-114438000D03*
X129500000Y-88000000D03*
X158341000Y-113637000D03*
X166351000Y-95214000D03*
X172759000Y-101622000D03*
X144724000Y-100821000D03*
X123550000Y-118000000D03*
X118750000Y-100450000D03*
X137515000Y-99219000D03*
X164749000Y-107229000D03*
X148729000Y-109632000D03*
X175963000Y-104826000D03*
X139918000Y-103224000D03*
X112684000Y-119244000D03*
X124800000Y-108550000D03*
X127102000Y-96816000D03*
X147928000Y-104025000D03*
X163147000Y-112035000D03*
X179167000Y-95214000D03*
X130700000Y-89100000D03*
X132709000Y-109632000D03*
X163147000Y-98418000D03*
X173560000Y-117642000D03*
X115087000Y-97617000D03*
X131350000Y-105350000D03*
X156000000Y-96015000D03*
X141520000Y-116040000D03*
X156739000Y-105627000D03*
X169555000Y-98418000D03*
X172759000Y-95214000D03*
X117000000Y-119250000D03*
X144724000Y-112035000D03*
D11*
%TO.N,+5V*%
X151500000Y-106300000D03*
X150200000Y-117000000D03*
X145200000Y-97300000D03*
X130200000Y-86100000D03*
X124500000Y-100900000D03*
X147700000Y-106400000D03*
X130800000Y-100900000D03*
D13*
%TO.N,/fan mosfet/PWM_out*%
X112800000Y-110350000D03*
X121900000Y-110350000D03*
D11*
%TO.N,/Fan driver/SCL*%
X127526000Y-94874000D03*
D12*
X151400000Y-99000000D03*
D11*
%TO.N,/Fan driver/SDA*%
X125900000Y-95500000D03*
D12*
X148200000Y-99000000D03*
%TO.N,Net-(JP1-Pad2)*%
X130850000Y-103350000D03*
X120800000Y-94700000D03*
%TO.N,Net-(JP2-Pad2)*%
X121550000Y-100000000D03*
X130850000Y-102500000D03*
D11*
%TO.N,+6V*%
X131400000Y-112150000D03*
X131450000Y-119150000D03*
%TD*%
D14*
%TO.N,Net-(C1-Pad1)*%
X130600000Y-87300000D02*
X129900000Y-87300000D01*
X129900000Y-87300000D02*
X128700000Y-86100000D01*
X128700000Y-86100000D02*
X127555000Y-86100000D01*
%TO.N,+5V*%
X132450000Y-86095000D02*
X130205000Y-86095000D01*
X147700000Y-106400000D02*
X151400000Y-106400000D01*
D15*
X143400000Y-99100000D02*
X145200000Y-97300000D01*
D14*
X151500000Y-106300000D02*
X151400000Y-106400000D01*
D15*
X124500000Y-100900000D02*
X130800000Y-100900000D01*
D14*
X130205000Y-86095000D02*
X130200000Y-86100000D01*
D15*
X130800000Y-100900000D02*
X143550000Y-100900000D01*
X150200000Y-117000000D02*
X150200000Y-108900000D01*
X146300000Y-106400000D02*
X143400000Y-103500000D01*
X150200000Y-108900000D02*
X147700000Y-106400000D01*
X147700000Y-106400000D02*
X146300000Y-106400000D01*
D14*
X148051651Y-106744651D02*
X147707000Y-106400000D01*
D15*
X143400000Y-103500000D02*
X143400000Y-99100000D01*
D16*
%TO.N,/fan mosfet/PWM_out*%
X112800000Y-110350000D02*
X121850000Y-110350000D01*
D17*
%TO.N,/Fan driver/SCL*%
X132400000Y-90500000D02*
X130700000Y-90500000D01*
X128835000Y-88635000D02*
X127550000Y-88635000D01*
X149500000Y-99000000D02*
X145500000Y-95000000D01*
X133100000Y-95000000D02*
X127652000Y-95000000D01*
X133100000Y-91200000D02*
X132400000Y-90500000D01*
X127652000Y-95000000D02*
X127526000Y-94874000D01*
X145500000Y-95000000D02*
X133100000Y-95000000D01*
X133100000Y-95000000D02*
X133100000Y-91200000D01*
X151400000Y-99000000D02*
X149500000Y-99000000D01*
X130700000Y-90500000D02*
X128835000Y-88635000D01*
%TO.N,/Fan driver/SDA*%
X148200000Y-99000000D02*
X148200000Y-98900000D01*
X126900000Y-95500000D02*
X126900000Y-90555000D01*
X126900000Y-90555000D02*
X127550000Y-89905000D01*
X126900000Y-95500000D02*
X125900000Y-95500000D01*
X148200000Y-98900000D02*
X144800000Y-95500000D01*
X144800000Y-95500000D02*
X126900000Y-95500000D01*
%TO.N,Net-(JP1-Pad2)*%
X130850000Y-103350000D02*
X124000000Y-103350000D01*
X120800000Y-100150000D02*
X120800000Y-94700000D01*
X120850000Y-100200000D02*
X120800000Y-100150000D01*
X124000000Y-103350000D02*
X120850000Y-100200000D01*
%TO.N,Net-(JP2-Pad2)*%
X130850000Y-102500000D02*
X124050000Y-102500000D01*
X124050000Y-102500000D02*
X121550000Y-100000000D01*
D14*
%TO.N,+6V*%
X131400000Y-112150000D02*
X131400000Y-119100000D01*
X131400000Y-119100000D02*
X131450000Y-119150000D01*
%TD*%
%TA.AperFunction,Conductor*%
%TO.N,GND*%
G36*
X126535000Y-90366500D02*
G01*
X126617198Y-90366500D01*
X126665086Y-90383930D01*
X126690566Y-90428063D01*
X126686861Y-90466542D01*
X126683409Y-90471858D01*
X126682184Y-90479593D01*
X126682071Y-90480307D01*
X126676548Y-90498952D01*
X126673070Y-90506764D01*
X126673000Y-90507430D01*
X126673000Y-90531716D01*
X126672083Y-90543370D01*
X126668318Y-90567142D01*
X126670463Y-90575146D01*
X126673000Y-90594422D01*
X126673000Y-95198500D01*
X126655570Y-95246388D01*
X126611437Y-95271868D01*
X126598500Y-95273000D01*
X126451466Y-95273000D01*
X126403578Y-95255570D01*
X126383093Y-95228086D01*
X126378030Y-95216385D01*
X126378029Y-95216383D01*
X126376010Y-95211718D01*
X126372810Y-95207766D01*
X126284149Y-95098279D01*
X126284148Y-95098278D01*
X126280950Y-95094329D01*
X126276810Y-95091387D01*
X126276808Y-95091385D01*
X126161962Y-95009769D01*
X126157824Y-95006828D01*
X126064375Y-94973184D01*
X126020478Y-94957380D01*
X126020477Y-94957380D01*
X126015703Y-94955661D01*
X126010643Y-94955289D01*
X126010641Y-94955289D01*
X125870123Y-94944970D01*
X125865057Y-94944598D01*
X125860078Y-94945602D01*
X125860077Y-94945602D01*
X125810192Y-94955661D01*
X125716986Y-94974455D01*
X125712463Y-94976760D01*
X125712459Y-94976761D01*
X125656823Y-95005109D01*
X125582398Y-95043030D01*
X125578659Y-95046469D01*
X125578658Y-95046469D01*
X125505518Y-95113725D01*
X125471209Y-95145274D01*
X125468532Y-95149592D01*
X125468530Y-95149594D01*
X125418225Y-95230729D01*
X125391612Y-95273651D01*
X125349470Y-95418705D01*
X125347888Y-95569748D01*
X125386983Y-95715652D01*
X125389567Y-95720020D01*
X125389568Y-95720024D01*
X125397953Y-95734202D01*
X125463875Y-95845669D01*
X125572898Y-95950218D01*
X125706020Y-96021597D01*
X125710972Y-96022704D01*
X125710975Y-96022705D01*
X125810825Y-96045024D01*
X125853433Y-96054548D01*
X125896119Y-96052311D01*
X125999210Y-96046909D01*
X125999213Y-96046908D01*
X126004278Y-96046643D01*
X126085832Y-96019197D01*
X126142623Y-96000085D01*
X126142624Y-96000084D01*
X126147439Y-95998464D01*
X126272371Y-95913560D01*
X126326776Y-95849181D01*
X126366592Y-95802065D01*
X126366593Y-95802063D01*
X126369868Y-95798188D01*
X126382551Y-95770486D01*
X126418331Y-95734202D01*
X126450288Y-95727000D01*
X126884867Y-95727000D01*
X126892654Y-95727408D01*
X126916464Y-95729911D01*
X126916466Y-95729911D01*
X126924251Y-95730729D01*
X126931697Y-95728310D01*
X126939485Y-95727491D01*
X126939566Y-95728263D01*
X126947527Y-95727000D01*
X144675116Y-95727000D01*
X144723004Y-95744430D01*
X144727795Y-95748821D01*
X147734070Y-98755096D01*
X147755608Y-98801282D01*
X147748829Y-98839435D01*
X147744258Y-98849172D01*
X147739539Y-98859223D01*
X147738722Y-98864468D01*
X147738722Y-98864469D01*
X147722268Y-98970150D01*
X147718536Y-98994118D01*
X147736237Y-99129485D01*
X147791220Y-99254443D01*
X147879065Y-99358947D01*
X147992709Y-99434595D01*
X147997776Y-99436178D01*
X148117946Y-99473722D01*
X148117948Y-99473722D01*
X148123017Y-99475306D01*
X148200183Y-99476720D01*
X148254207Y-99477711D01*
X148254209Y-99477711D01*
X148259514Y-99477808D01*
X148391227Y-99441899D01*
X148413652Y-99428130D01*
X148503045Y-99373243D01*
X148503047Y-99373241D01*
X148507567Y-99370466D01*
X148515333Y-99361887D01*
X148595622Y-99273184D01*
X148599182Y-99269251D01*
X148658707Y-99146392D01*
X148660735Y-99134341D01*
X148680878Y-99014604D01*
X148681356Y-99011764D01*
X148681500Y-99000000D01*
X148662146Y-98864859D01*
X148659584Y-98859223D01*
X148618952Y-98769858D01*
X148605641Y-98740582D01*
X148597960Y-98731668D01*
X148519987Y-98641175D01*
X148519985Y-98641173D01*
X148516526Y-98637159D01*
X148401966Y-98562905D01*
X148271170Y-98523789D01*
X148174629Y-98523199D01*
X148126848Y-98505477D01*
X148122405Y-98501379D01*
X144975205Y-95354179D01*
X144953667Y-95307993D01*
X144966857Y-95258769D01*
X145008602Y-95229539D01*
X145027884Y-95227000D01*
X145375116Y-95227000D01*
X145423004Y-95244430D01*
X145427795Y-95248821D01*
X149334839Y-99155865D01*
X149337524Y-99158694D01*
X149358394Y-99181873D01*
X149358396Y-99181874D01*
X149363634Y-99187692D01*
X149386023Y-99197660D01*
X149396297Y-99203238D01*
X149416858Y-99216591D01*
X149425307Y-99217929D01*
X149443953Y-99223452D01*
X149451764Y-99226930D01*
X149452430Y-99227000D01*
X149476716Y-99227000D01*
X149488370Y-99227917D01*
X149499344Y-99229655D01*
X149512142Y-99231682D01*
X149520146Y-99229537D01*
X149539422Y-99227000D01*
X150933644Y-99227000D01*
X150981532Y-99244430D01*
X150990640Y-99254930D01*
X150991220Y-99254443D01*
X151079065Y-99358947D01*
X151192709Y-99434595D01*
X151197776Y-99436178D01*
X151317946Y-99473722D01*
X151317948Y-99473722D01*
X151323017Y-99475306D01*
X151400183Y-99476720D01*
X151454207Y-99477711D01*
X151454209Y-99477711D01*
X151459514Y-99477808D01*
X151591227Y-99441899D01*
X151613652Y-99428130D01*
X151703045Y-99373243D01*
X151703047Y-99373241D01*
X151707567Y-99370466D01*
X151715333Y-99361887D01*
X151795622Y-99273184D01*
X151799182Y-99269251D01*
X151858707Y-99146392D01*
X151860735Y-99134341D01*
X151880878Y-99014604D01*
X151881356Y-99011764D01*
X151881500Y-99000000D01*
X151862146Y-98864859D01*
X151859584Y-98859223D01*
X151818952Y-98769858D01*
X151805641Y-98740582D01*
X151797960Y-98731668D01*
X151719987Y-98641175D01*
X151719985Y-98641173D01*
X151716526Y-98637159D01*
X151601966Y-98562905D01*
X151471170Y-98523789D01*
X151404293Y-98523380D01*
X151339961Y-98522987D01*
X151339958Y-98522987D01*
X151334653Y-98522955D01*
X151329548Y-98524414D01*
X151208490Y-98559012D01*
X151208489Y-98559012D01*
X151203389Y-98560470D01*
X151198905Y-98563299D01*
X151198903Y-98563300D01*
X151092420Y-98630486D01*
X151087930Y-98633319D01*
X150997559Y-98735646D01*
X150995690Y-98739627D01*
X150955133Y-98769858D01*
X150933724Y-98773000D01*
X149624884Y-98773000D01*
X149576996Y-98755570D01*
X149572205Y-98751179D01*
X148423234Y-97602208D01*
X175398231Y-97602208D01*
X175437435Y-97808704D01*
X175514980Y-98004060D01*
X175628066Y-98181229D01*
X175772614Y-98333818D01*
X175943408Y-98456320D01*
X175946631Y-98457806D01*
X175946633Y-98457807D01*
X176041148Y-98501379D01*
X176134286Y-98544316D01*
X176338359Y-98594630D01*
X176341896Y-98594812D01*
X176341901Y-98594813D01*
X176443312Y-98600039D01*
X176548265Y-98605447D01*
X176551773Y-98604957D01*
X176551776Y-98604957D01*
X176633830Y-98593498D01*
X176756429Y-98576377D01*
X176759783Y-98575232D01*
X176759787Y-98575231D01*
X176854688Y-98542831D01*
X176955341Y-98508468D01*
X177137822Y-98404171D01*
X177297290Y-98267249D01*
X177427989Y-98102643D01*
X177525204Y-97916292D01*
X177585427Y-97714920D01*
X177597134Y-97598660D01*
X177606303Y-97507605D01*
X177606303Y-97507598D01*
X177606485Y-97505794D01*
X177606500Y-97500000D01*
X177586537Y-97290766D01*
X177527370Y-97089081D01*
X177431132Y-96902224D01*
X177424931Y-96894329D01*
X177316005Y-96755661D01*
X177301296Y-96736936D01*
X177142548Y-96599181D01*
X176960615Y-96493930D01*
X176845006Y-96453784D01*
X176765414Y-96426145D01*
X176765411Y-96426144D01*
X176762061Y-96424981D01*
X176554052Y-96394821D01*
X176550508Y-96394985D01*
X176527033Y-96396072D01*
X176344093Y-96404539D01*
X176340643Y-96405370D01*
X176340639Y-96405371D01*
X176261384Y-96424472D01*
X176139759Y-96453784D01*
X175948423Y-96540779D01*
X175776990Y-96662385D01*
X175707855Y-96734605D01*
X175698289Y-96744598D01*
X175631645Y-96814215D01*
X175517632Y-96990789D01*
X175439066Y-97185737D01*
X175432628Y-97218705D01*
X175401190Y-97379691D01*
X175398781Y-97392025D01*
X175398772Y-97395564D01*
X175398242Y-97598188D01*
X175398231Y-97602208D01*
X148423234Y-97602208D01*
X145665161Y-94844135D01*
X145662476Y-94841306D01*
X145641606Y-94818127D01*
X145641604Y-94818126D01*
X145636366Y-94812308D01*
X145613976Y-94802340D01*
X145603703Y-94796762D01*
X145589711Y-94787675D01*
X145589710Y-94787675D01*
X145583142Y-94783409D01*
X145574693Y-94782071D01*
X145556048Y-94776548D01*
X145555026Y-94776093D01*
X145548236Y-94773070D01*
X145547570Y-94773000D01*
X145523284Y-94773000D01*
X145511630Y-94772083D01*
X145495593Y-94769543D01*
X145487858Y-94768318D01*
X145479854Y-94770463D01*
X145460578Y-94773000D01*
X133401500Y-94773000D01*
X133353612Y-94755570D01*
X133328132Y-94711437D01*
X133327000Y-94698500D01*
X133327000Y-91206556D01*
X133327102Y-91202658D01*
X133328733Y-91171527D01*
X133329143Y-91163707D01*
X133325999Y-91155515D01*
X133320361Y-91140829D01*
X133317041Y-91129621D01*
X133311943Y-91105637D01*
X133307205Y-91099115D01*
X133306916Y-91098718D01*
X133297634Y-91081624D01*
X133294571Y-91073644D01*
X133294150Y-91073123D01*
X133276976Y-91055949D01*
X133269384Y-91047060D01*
X133259841Y-91033926D01*
X133255238Y-91027590D01*
X133248061Y-91023447D01*
X133232641Y-91011614D01*
X132714704Y-90493678D01*
X132693168Y-90447493D01*
X132706357Y-90398269D01*
X132748102Y-90369039D01*
X132767384Y-90366500D01*
X133465000Y-90366500D01*
X133466859Y-90366130D01*
X133515736Y-90378657D01*
X133545419Y-90420081D01*
X133548172Y-90440103D01*
X133548709Y-91451441D01*
X133548975Y-91953742D01*
X133546776Y-91971748D01*
X133543686Y-91984184D01*
X133546278Y-92126414D01*
X133546405Y-92133409D01*
X133546089Y-92139657D01*
X133546114Y-92141740D01*
X133545534Y-92146588D01*
X133546230Y-92151427D01*
X133546236Y-92151971D01*
X133546799Y-92158948D01*
X133546879Y-92159480D01*
X133546968Y-92164355D01*
X133548317Y-92169048D01*
X133548626Y-92171100D01*
X133549936Y-92177207D01*
X133581780Y-92398682D01*
X133587480Y-92438329D01*
X133588166Y-92446556D01*
X133588209Y-92446831D01*
X133588325Y-92451708D01*
X133589701Y-92456394D01*
X133590105Y-92458984D01*
X133590811Y-92461499D01*
X133591506Y-92466333D01*
X133593428Y-92470820D01*
X133593500Y-92471078D01*
X133596298Y-92478861D01*
X133616150Y-92546470D01*
X133671361Y-92734502D01*
X133673214Y-92742556D01*
X133673294Y-92742818D01*
X133674104Y-92747633D01*
X133676135Y-92752080D01*
X133676905Y-92754591D01*
X133677960Y-92756975D01*
X133679334Y-92761656D01*
X133681874Y-92765823D01*
X133681983Y-92766070D01*
X133685857Y-92773369D01*
X133741078Y-92894286D01*
X133796544Y-93015740D01*
X133799520Y-93023438D01*
X133799637Y-93023686D01*
X133801124Y-93028338D01*
X133803763Y-93032444D01*
X133804881Y-93034818D01*
X133806270Y-93037036D01*
X133808297Y-93041475D01*
X133811407Y-93045241D01*
X133811552Y-93045473D01*
X133816425Y-93052147D01*
X133960467Y-93276281D01*
X133964514Y-93283486D01*
X133964662Y-93283710D01*
X133966799Y-93288110D01*
X133970000Y-93291804D01*
X133971439Y-93293986D01*
X133973129Y-93295985D01*
X133975769Y-93300092D01*
X133979381Y-93303375D01*
X133979553Y-93303579D01*
X133985331Y-93309497D01*
X134159820Y-93510869D01*
X134164835Y-93517405D01*
X134165018Y-93517612D01*
X134167758Y-93521659D01*
X134171454Y-93524862D01*
X134173194Y-93526822D01*
X134175140Y-93528550D01*
X134178340Y-93532242D01*
X134182383Y-93534979D01*
X134182583Y-93535156D01*
X134189149Y-93540195D01*
X134390513Y-93714677D01*
X134396409Y-93720435D01*
X134396618Y-93720612D01*
X134399908Y-93724231D01*
X134404020Y-93726874D01*
X134406022Y-93728567D01*
X134408201Y-93730004D01*
X134411890Y-93733201D01*
X134416282Y-93735334D01*
X134416516Y-93735489D01*
X134423706Y-93739526D01*
X134647858Y-93883578D01*
X134654527Y-93888448D01*
X134654759Y-93888593D01*
X134658525Y-93891703D01*
X134662964Y-93893730D01*
X134665182Y-93895119D01*
X134667556Y-93896237D01*
X134671662Y-93898876D01*
X134676314Y-93900363D01*
X134676562Y-93900480D01*
X134684260Y-93903456D01*
X134926621Y-94014138D01*
X134933920Y-94018012D01*
X134934172Y-94018124D01*
X134938343Y-94020666D01*
X134943029Y-94022042D01*
X134945425Y-94023102D01*
X134947932Y-94023870D01*
X134952367Y-94025896D01*
X134957179Y-94026705D01*
X134957442Y-94026786D01*
X134965482Y-94028635D01*
X135169409Y-94088513D01*
X135221137Y-94103702D01*
X135228924Y-94106501D01*
X135229182Y-94106573D01*
X135233667Y-94108494D01*
X135238497Y-94109189D01*
X135241017Y-94109896D01*
X135243606Y-94110300D01*
X135248291Y-94111675D01*
X135253177Y-94111791D01*
X135253451Y-94111834D01*
X135261665Y-94112520D01*
X135522793Y-94150064D01*
X135528900Y-94151374D01*
X135530952Y-94151683D01*
X135535645Y-94153032D01*
X135540520Y-94153121D01*
X135541052Y-94153201D01*
X135548029Y-94153764D01*
X135548573Y-94153770D01*
X135553412Y-94154466D01*
X135558260Y-94153886D01*
X135560343Y-94153911D01*
X135566587Y-94153595D01*
X135715816Y-94156314D01*
X135720552Y-94155137D01*
X135720553Y-94155137D01*
X135728337Y-94153203D01*
X135746309Y-94151004D01*
X137100182Y-94151114D01*
X164928106Y-94153372D01*
X173076979Y-94154033D01*
X179447775Y-94154550D01*
X179463999Y-94156914D01*
X179464014Y-94156821D01*
X179468836Y-94157591D01*
X179473517Y-94158984D01*
X179478398Y-94159118D01*
X179478399Y-94159118D01*
X179485911Y-94159324D01*
X179528642Y-94160496D01*
X179536300Y-94161103D01*
X179539861Y-94161572D01*
X179549401Y-94163470D01*
X179619062Y-94182136D01*
X179637021Y-94189575D01*
X179678495Y-94213519D01*
X179698074Y-94224823D01*
X179713502Y-94236663D01*
X179763340Y-94286501D01*
X179775180Y-94301931D01*
X179810423Y-94362975D01*
X179817865Y-94380940D01*
X179836527Y-94450586D01*
X179836530Y-94450599D01*
X179838430Y-94460154D01*
X179838895Y-94463685D01*
X179839504Y-94471359D01*
X179841016Y-94526484D01*
X179842409Y-94531165D01*
X179843179Y-94535989D01*
X179843084Y-94536004D01*
X179845446Y-94552223D01*
X179845446Y-119447777D01*
X179843084Y-119463996D01*
X179843179Y-119464011D01*
X179842409Y-119468835D01*
X179841016Y-119473516D01*
X179839504Y-119528641D01*
X179838895Y-119536315D01*
X179838430Y-119539846D01*
X179836529Y-119549401D01*
X179817864Y-119619060D01*
X179810422Y-119637028D01*
X179775179Y-119698071D01*
X179763339Y-119713500D01*
X179713499Y-119763340D01*
X179698075Y-119775177D01*
X179637022Y-119810425D01*
X179619058Y-119817865D01*
X179605967Y-119821373D01*
X179549401Y-119836530D01*
X179539859Y-119838428D01*
X179536293Y-119838897D01*
X179528632Y-119839504D01*
X179483887Y-119840732D01*
X179478401Y-119840882D01*
X179473517Y-119841016D01*
X179468836Y-119842409D01*
X179464012Y-119843179D01*
X179463997Y-119843084D01*
X179447778Y-119845446D01*
X131558675Y-119845446D01*
X131510787Y-119828016D01*
X131485307Y-119783883D01*
X131494156Y-119733696D01*
X131533194Y-119700939D01*
X131544715Y-119697766D01*
X131549209Y-119696909D01*
X131554278Y-119696643D01*
X131635832Y-119669197D01*
X131692623Y-119650085D01*
X131692624Y-119650084D01*
X131697439Y-119648464D01*
X131822371Y-119563560D01*
X131825651Y-119559679D01*
X131916592Y-119452065D01*
X131916593Y-119452063D01*
X131919868Y-119448188D01*
X131957656Y-119365652D01*
X131980634Y-119315464D01*
X131980635Y-119315462D01*
X131982748Y-119310846D01*
X132006378Y-119161654D01*
X132006500Y-119150000D01*
X131986000Y-119000346D01*
X131926010Y-118861718D01*
X131830950Y-118744329D01*
X131826810Y-118741387D01*
X131826808Y-118741385D01*
X131711962Y-118659769D01*
X131707824Y-118656828D01*
X131703047Y-118655108D01*
X131700762Y-118654285D01*
X131699564Y-118653287D01*
X131698543Y-118652753D01*
X131698658Y-118652532D01*
X131661610Y-118621663D01*
X131651500Y-118584190D01*
X131651500Y-112685149D01*
X131668930Y-112637261D01*
X131684125Y-112623532D01*
X131718430Y-112600218D01*
X131772371Y-112563560D01*
X131826776Y-112499181D01*
X131866592Y-112452065D01*
X131866593Y-112452063D01*
X131869868Y-112448188D01*
X131907656Y-112365652D01*
X131930634Y-112315464D01*
X131930635Y-112315462D01*
X131932748Y-112310846D01*
X131956378Y-112161654D01*
X131956500Y-112150000D01*
X131936000Y-112000346D01*
X131876010Y-111861718D01*
X131780950Y-111744329D01*
X131776810Y-111741387D01*
X131776808Y-111741385D01*
X131661962Y-111659769D01*
X131657824Y-111656828D01*
X131515703Y-111605661D01*
X131510643Y-111605289D01*
X131510641Y-111605289D01*
X131370123Y-111594970D01*
X131365057Y-111594598D01*
X131360078Y-111595602D01*
X131360077Y-111595602D01*
X131310192Y-111605661D01*
X131216986Y-111624455D01*
X131212463Y-111626760D01*
X131212459Y-111626761D01*
X131156823Y-111655109D01*
X131082398Y-111693030D01*
X131078659Y-111696469D01*
X131078658Y-111696469D01*
X131026611Y-111744329D01*
X130971209Y-111795274D01*
X130968532Y-111799592D01*
X130968530Y-111799594D01*
X130930012Y-111861718D01*
X130891612Y-111923651D01*
X130849470Y-112068705D01*
X130847888Y-112219748D01*
X130886983Y-112365652D01*
X130889567Y-112370020D01*
X130889568Y-112370024D01*
X130933064Y-112443571D01*
X130963875Y-112495669D01*
X131072898Y-112600218D01*
X131109206Y-112619686D01*
X131143172Y-112657674D01*
X131148500Y-112685342D01*
X131148500Y-118645521D01*
X131131070Y-118693409D01*
X131124429Y-118700358D01*
X131021209Y-118795274D01*
X131018532Y-118799592D01*
X131018530Y-118799594D01*
X130980012Y-118861718D01*
X130941612Y-118923651D01*
X130899470Y-119068705D01*
X130897888Y-119219748D01*
X130936983Y-119365652D01*
X130939567Y-119370020D01*
X130939568Y-119370024D01*
X130983064Y-119443571D01*
X131013875Y-119495669D01*
X131122898Y-119600218D01*
X131127372Y-119602617D01*
X131191541Y-119637024D01*
X131256020Y-119671597D01*
X131260972Y-119672704D01*
X131260975Y-119672705D01*
X131375213Y-119698240D01*
X131418145Y-119725697D01*
X131433384Y-119774326D01*
X131413800Y-119821373D01*
X131368556Y-119844826D01*
X131358961Y-119845446D01*
X110552223Y-119845446D01*
X110536004Y-119843084D01*
X110535989Y-119843179D01*
X110531165Y-119842409D01*
X110526484Y-119841016D01*
X110521600Y-119840882D01*
X110517767Y-119840777D01*
X110471359Y-119839504D01*
X110463693Y-119838896D01*
X110460150Y-119838429D01*
X110450599Y-119836529D01*
X110380940Y-119817864D01*
X110362972Y-119810422D01*
X110301929Y-119775179D01*
X110286500Y-119763339D01*
X110236660Y-119713499D01*
X110224821Y-119698071D01*
X110189575Y-119637022D01*
X110182135Y-119619058D01*
X110173000Y-119584967D01*
X110163470Y-119549401D01*
X110161572Y-119539859D01*
X110161103Y-119536293D01*
X110160496Y-119528632D01*
X110158984Y-119473517D01*
X110157591Y-119468836D01*
X110156821Y-119464012D01*
X110156916Y-119463997D01*
X110154554Y-119447778D01*
X110154554Y-116602208D01*
X112398231Y-116602208D01*
X112437435Y-116808704D01*
X112514980Y-117004060D01*
X112628066Y-117181229D01*
X112772614Y-117333818D01*
X112943408Y-117456320D01*
X112946631Y-117457806D01*
X112946633Y-117457807D01*
X113052706Y-117506707D01*
X113134286Y-117544316D01*
X113338359Y-117594630D01*
X113341896Y-117594812D01*
X113341901Y-117594813D01*
X113443312Y-117600038D01*
X113548265Y-117605447D01*
X113551773Y-117604957D01*
X113551776Y-117604957D01*
X113633830Y-117593498D01*
X113756429Y-117576377D01*
X113759783Y-117575232D01*
X113759787Y-117575231D01*
X113913639Y-117522705D01*
X113955341Y-117508468D01*
X114137822Y-117404171D01*
X114211045Y-117341301D01*
X114294595Y-117269563D01*
X114297290Y-117267249D01*
X114427989Y-117102643D01*
X114525204Y-116916292D01*
X114585427Y-116714920D01*
X114597134Y-116598660D01*
X114606303Y-116507605D01*
X114606303Y-116507598D01*
X114606485Y-116505794D01*
X114606500Y-116500000D01*
X114586537Y-116290766D01*
X114527370Y-116089081D01*
X114431132Y-115902224D01*
X114301296Y-115736936D01*
X114142548Y-115599181D01*
X113960615Y-115493930D01*
X113845006Y-115453784D01*
X113765414Y-115426145D01*
X113765411Y-115426144D01*
X113762061Y-115424981D01*
X113554052Y-115394821D01*
X113550508Y-115394985D01*
X113527033Y-115396072D01*
X113344093Y-115404539D01*
X113340643Y-115405370D01*
X113340639Y-115405371D01*
X113261384Y-115424472D01*
X113139759Y-115453784D01*
X112948423Y-115540779D01*
X112776990Y-115662385D01*
X112631645Y-115814215D01*
X112517632Y-115990789D01*
X112439066Y-116185737D01*
X112438386Y-116189220D01*
X112419221Y-116287360D01*
X112398781Y-116392025D01*
X112398772Y-116395564D01*
X112398252Y-116594329D01*
X112398231Y-116602208D01*
X110154554Y-116602208D01*
X110154554Y-110431702D01*
X112047925Y-110431702D01*
X112086892Y-110602525D01*
X112164111Y-110759802D01*
X112166861Y-110763144D01*
X112166863Y-110763147D01*
X112198423Y-110801500D01*
X112275442Y-110895097D01*
X112414910Y-111001151D01*
X112418865Y-111002908D01*
X112418867Y-111002909D01*
X112571078Y-111070519D01*
X112575036Y-111072277D01*
X112579290Y-111073077D01*
X112742974Y-111103857D01*
X112742975Y-111103857D01*
X112747229Y-111104657D01*
X112751554Y-111104457D01*
X112751557Y-111104457D01*
X112857624Y-111099547D01*
X112922253Y-111096556D01*
X113090719Y-111048409D01*
X113243591Y-110962797D01*
X113372667Y-110844313D01*
X113379541Y-110834179D01*
X113420847Y-110804333D01*
X113441195Y-110801500D01*
X121263247Y-110801500D01*
X121311135Y-110818930D01*
X121320774Y-110828662D01*
X121375442Y-110895097D01*
X121514910Y-111001151D01*
X121518865Y-111002908D01*
X121518867Y-111002909D01*
X121671078Y-111070519D01*
X121675036Y-111072277D01*
X121679290Y-111073077D01*
X121842974Y-111103857D01*
X121842975Y-111103857D01*
X121847229Y-111104657D01*
X121851554Y-111104457D01*
X121851557Y-111104457D01*
X121957624Y-111099547D01*
X122022253Y-111096556D01*
X122190719Y-111048409D01*
X122343591Y-110962797D01*
X122472667Y-110844313D01*
X122571024Y-110699313D01*
X122633385Y-110535575D01*
X122656407Y-110361883D01*
X122656500Y-110350000D01*
X122636210Y-110175967D01*
X122576428Y-110011270D01*
X122480360Y-109864743D01*
X122353161Y-109744247D01*
X122201654Y-109656244D01*
X122033965Y-109605456D01*
X121859089Y-109594607D01*
X121686409Y-109624279D01*
X121525186Y-109692880D01*
X121384068Y-109796731D01*
X121381266Y-109800029D01*
X121381263Y-109800032D01*
X121319923Y-109872235D01*
X121275635Y-109897446D01*
X121263146Y-109898500D01*
X113442732Y-109898500D01*
X113394844Y-109881070D01*
X113386074Y-109871211D01*
X113385510Y-109871683D01*
X113382732Y-109868360D01*
X113380360Y-109864743D01*
X113253161Y-109744247D01*
X113101654Y-109656244D01*
X112933965Y-109605456D01*
X112759089Y-109594607D01*
X112586409Y-109624279D01*
X112425186Y-109692880D01*
X112284068Y-109796731D01*
X112281266Y-109800029D01*
X112281263Y-109800032D01*
X112228814Y-109861769D01*
X112170627Y-109930260D01*
X112090946Y-110086305D01*
X112049301Y-110256495D01*
X112047925Y-110431702D01*
X110154554Y-110431702D01*
X110154554Y-97602208D01*
X112398231Y-97602208D01*
X112437435Y-97808704D01*
X112514980Y-98004060D01*
X112628066Y-98181229D01*
X112772614Y-98333818D01*
X112943408Y-98456320D01*
X112946631Y-98457806D01*
X112946633Y-98457807D01*
X113041148Y-98501379D01*
X113134286Y-98544316D01*
X113338359Y-98594630D01*
X113341896Y-98594812D01*
X113341901Y-98594813D01*
X113443312Y-98600039D01*
X113548265Y-98605447D01*
X113551773Y-98604957D01*
X113551776Y-98604957D01*
X113633830Y-98593498D01*
X113756429Y-98576377D01*
X113759783Y-98575232D01*
X113759787Y-98575231D01*
X113854688Y-98542831D01*
X113955341Y-98508468D01*
X114137822Y-98404171D01*
X114297290Y-98267249D01*
X114427989Y-98102643D01*
X114525204Y-97916292D01*
X114585427Y-97714920D01*
X114597134Y-97598660D01*
X114606303Y-97507605D01*
X114606303Y-97507598D01*
X114606485Y-97505794D01*
X114606500Y-97500000D01*
X114586537Y-97290766D01*
X114527370Y-97089081D01*
X114431132Y-96902224D01*
X114424931Y-96894329D01*
X114316005Y-96755661D01*
X114301296Y-96736936D01*
X114142548Y-96599181D01*
X113960615Y-96493930D01*
X113845006Y-96453784D01*
X113765414Y-96426145D01*
X113765411Y-96426144D01*
X113762061Y-96424981D01*
X113554052Y-96394821D01*
X113550508Y-96394985D01*
X113527033Y-96396072D01*
X113344093Y-96404539D01*
X113340643Y-96405370D01*
X113340639Y-96405371D01*
X113261384Y-96424472D01*
X113139759Y-96453784D01*
X112948423Y-96540779D01*
X112776990Y-96662385D01*
X112707855Y-96734605D01*
X112698289Y-96744598D01*
X112631645Y-96814215D01*
X112517632Y-96990789D01*
X112439066Y-97185737D01*
X112432628Y-97218705D01*
X112401190Y-97379691D01*
X112398781Y-97392025D01*
X112398772Y-97395564D01*
X112398242Y-97598188D01*
X112398231Y-97602208D01*
X110154554Y-97602208D01*
X110154554Y-94552222D01*
X110156916Y-94536003D01*
X110156821Y-94535988D01*
X110157591Y-94531164D01*
X110158984Y-94526483D01*
X110160496Y-94471368D01*
X110161106Y-94463681D01*
X110161574Y-94460131D01*
X110163471Y-94450596D01*
X110182136Y-94380936D01*
X110189576Y-94362976D01*
X110196629Y-94350761D01*
X110208334Y-94330486D01*
X110224823Y-94301927D01*
X110236663Y-94286498D01*
X110286501Y-94236660D01*
X110301930Y-94224820D01*
X110305161Y-94222955D01*
X110362973Y-94189577D01*
X110380940Y-94182135D01*
X110450602Y-94163470D01*
X110460146Y-94161571D01*
X110463703Y-94161103D01*
X110471360Y-94160496D01*
X110510547Y-94159421D01*
X110521604Y-94159118D01*
X110521605Y-94159118D01*
X110526484Y-94158984D01*
X110531162Y-94157592D01*
X110535989Y-94156821D01*
X110536003Y-94156909D01*
X110552244Y-94154541D01*
X112808650Y-94153960D01*
X113989541Y-94153656D01*
X120517635Y-94151975D01*
X120565527Y-94169392D01*
X120591019Y-94213519D01*
X120582182Y-94263708D01*
X120557409Y-94289481D01*
X120487930Y-94333319D01*
X120397559Y-94435646D01*
X120395306Y-94440446D01*
X120395304Y-94440448D01*
X120342826Y-94552223D01*
X120339539Y-94559223D01*
X120338722Y-94564468D01*
X120338722Y-94564469D01*
X120335414Y-94585718D01*
X120318536Y-94694118D01*
X120336237Y-94829485D01*
X120391220Y-94954443D01*
X120479065Y-95058947D01*
X120532218Y-95094329D01*
X120539782Y-95099364D01*
X120569987Y-95140408D01*
X120573000Y-95161380D01*
X120573000Y-100143431D01*
X120572898Y-100147330D01*
X120570856Y-100186293D01*
X120573663Y-100193605D01*
X120579640Y-100209174D01*
X120582961Y-100220385D01*
X120588057Y-100244363D01*
X120592661Y-100250699D01*
X120593083Y-100251280D01*
X120602363Y-100268372D01*
X120605428Y-100276356D01*
X120605850Y-100276876D01*
X120623018Y-100294044D01*
X120630611Y-100302933D01*
X120644762Y-100322410D01*
X120651541Y-100326324D01*
X120651938Y-100326553D01*
X120667367Y-100338393D01*
X123834839Y-103505865D01*
X123837524Y-103508694D01*
X123863634Y-103537692D01*
X123870786Y-103540877D01*
X123870787Y-103540877D01*
X123886030Y-103547664D01*
X123896303Y-103553242D01*
X123910289Y-103562325D01*
X123910291Y-103562326D01*
X123916859Y-103566591D01*
X123925201Y-103567912D01*
X123925307Y-103567929D01*
X123943953Y-103573452D01*
X123951764Y-103576930D01*
X123952430Y-103577000D01*
X123976717Y-103577000D01*
X123988371Y-103577917D01*
X124012143Y-103581682D01*
X124019704Y-103579656D01*
X124019705Y-103579656D01*
X124020145Y-103579538D01*
X124039426Y-103577000D01*
X130383644Y-103577000D01*
X130431532Y-103594430D01*
X130440640Y-103604930D01*
X130441220Y-103604443D01*
X130529065Y-103708947D01*
X130642709Y-103784595D01*
X130647776Y-103786178D01*
X130767946Y-103823722D01*
X130767948Y-103823722D01*
X130773017Y-103825306D01*
X130850183Y-103826720D01*
X130904207Y-103827711D01*
X130904209Y-103827711D01*
X130909514Y-103827808D01*
X131041227Y-103791899D01*
X131063652Y-103778130D01*
X131153045Y-103723243D01*
X131153047Y-103723241D01*
X131157567Y-103720466D01*
X131165333Y-103711887D01*
X131245622Y-103623184D01*
X131249182Y-103619251D01*
X131308707Y-103496392D01*
X131317054Y-103446780D01*
X131330878Y-103364604D01*
X131331356Y-103361764D01*
X131331500Y-103350000D01*
X131312146Y-103214859D01*
X131255641Y-103090582D01*
X131166526Y-102987159D01*
X131162067Y-102984269D01*
X131158425Y-102981092D01*
X131133794Y-102936478D01*
X131143602Y-102886470D01*
X131157144Y-102870726D01*
X131157567Y-102870466D01*
X131165331Y-102861889D01*
X131245622Y-102773184D01*
X131249182Y-102769251D01*
X131308707Y-102646392D01*
X131331356Y-102511764D01*
X131331500Y-102500000D01*
X131312146Y-102364859D01*
X131255641Y-102240582D01*
X131247960Y-102231668D01*
X131169987Y-102141175D01*
X131169985Y-102141173D01*
X131166526Y-102137159D01*
X131051966Y-102062905D01*
X130921170Y-102023789D01*
X130854293Y-102023380D01*
X130789961Y-102022987D01*
X130789958Y-102022987D01*
X130784653Y-102022955D01*
X130779548Y-102024414D01*
X130658490Y-102059012D01*
X130658489Y-102059012D01*
X130653389Y-102060470D01*
X130648905Y-102063299D01*
X130648903Y-102063300D01*
X130644949Y-102065795D01*
X130537930Y-102133319D01*
X130447559Y-102235646D01*
X130445690Y-102239627D01*
X130405133Y-102269858D01*
X130383724Y-102273000D01*
X124174884Y-102273000D01*
X124126996Y-102255570D01*
X124122205Y-102251179D01*
X122840774Y-100969748D01*
X123947888Y-100969748D01*
X123986983Y-101115652D01*
X123989567Y-101120020D01*
X123989568Y-101120024D01*
X124013552Y-101160578D01*
X124063875Y-101245669D01*
X124172898Y-101350218D01*
X124306020Y-101421597D01*
X124310972Y-101422704D01*
X124310975Y-101422705D01*
X124410825Y-101445024D01*
X124453433Y-101454548D01*
X124496119Y-101452311D01*
X124599210Y-101446909D01*
X124599213Y-101446908D01*
X124604278Y-101446643D01*
X124685832Y-101419197D01*
X124742623Y-101400085D01*
X124742624Y-101400084D01*
X124747439Y-101398464D01*
X124872371Y-101313560D01*
X124875651Y-101309679D01*
X124875654Y-101309676D01*
X124944748Y-101227914D01*
X124988970Y-101202587D01*
X125001651Y-101201500D01*
X130295259Y-101201500D01*
X130343147Y-101218930D01*
X130359382Y-101238073D01*
X130361142Y-101241049D01*
X130363875Y-101245669D01*
X130472898Y-101350218D01*
X130606020Y-101421597D01*
X130610972Y-101422704D01*
X130610975Y-101422705D01*
X130710825Y-101445024D01*
X130753433Y-101454548D01*
X130796119Y-101452311D01*
X130899210Y-101446909D01*
X130899213Y-101446908D01*
X130904278Y-101446643D01*
X130985832Y-101419197D01*
X131042623Y-101400085D01*
X131042624Y-101400084D01*
X131047439Y-101398464D01*
X131172371Y-101313560D01*
X131175651Y-101309679D01*
X131175654Y-101309676D01*
X131244748Y-101227914D01*
X131288970Y-101202587D01*
X131301651Y-101201500D01*
X143024000Y-101201500D01*
X143071888Y-101218930D01*
X143097368Y-101263063D01*
X143098500Y-101276000D01*
X143098500Y-103446780D01*
X143098177Y-103451181D01*
X143096788Y-103455225D01*
X143097046Y-103462095D01*
X143098448Y-103499449D01*
X143098500Y-103502243D01*
X143098500Y-103526846D01*
X143099129Y-103530221D01*
X143099444Y-103533636D01*
X143099346Y-103533645D01*
X143099928Y-103538875D01*
X143100998Y-103567383D01*
X143103712Y-103573700D01*
X143106644Y-103580524D01*
X143111433Y-103596288D01*
X143114050Y-103610339D01*
X143121968Y-103623184D01*
X143129012Y-103634612D01*
X143134042Y-103644294D01*
X143145303Y-103670505D01*
X143150748Y-103677133D01*
X143156246Y-103682631D01*
X143166986Y-103696218D01*
X143172943Y-103705882D01*
X143178419Y-103710046D01*
X143178420Y-103710047D01*
X143196283Y-103723630D01*
X143203868Y-103730253D01*
X146049170Y-106575555D01*
X146052057Y-106578899D01*
X146053936Y-106582743D01*
X146058979Y-106587421D01*
X146086394Y-106612852D01*
X146088407Y-106614792D01*
X146105790Y-106632175D01*
X146108628Y-106634122D01*
X146111261Y-106636310D01*
X146111198Y-106636386D01*
X146115305Y-106639671D01*
X146136221Y-106659073D01*
X146142609Y-106661621D01*
X146142608Y-106661621D01*
X146149503Y-106664372D01*
X146164037Y-106672133D01*
X146170147Y-106676324D01*
X146170149Y-106676325D01*
X146175824Y-106680218D01*
X146182518Y-106681806D01*
X146182519Y-106681807D01*
X146203568Y-106686802D01*
X146213974Y-106690093D01*
X146240467Y-106700663D01*
X146249004Y-106701500D01*
X146256780Y-106701500D01*
X146273983Y-106703513D01*
X146285027Y-106706134D01*
X146314072Y-106702181D01*
X146324118Y-106701500D01*
X147195259Y-106701500D01*
X147243147Y-106718930D01*
X147259382Y-106738073D01*
X147261142Y-106741049D01*
X147263875Y-106745669D01*
X147372898Y-106850218D01*
X147506020Y-106921597D01*
X147510972Y-106922704D01*
X147510975Y-106922705D01*
X147648476Y-106953440D01*
X147653433Y-106954548D01*
X147786339Y-106947583D01*
X147835073Y-106962483D01*
X147842917Y-106969302D01*
X149876679Y-109003065D01*
X149898217Y-109049251D01*
X149898500Y-109055744D01*
X149898500Y-116495521D01*
X149881070Y-116543409D01*
X149874429Y-116550358D01*
X149771209Y-116645274D01*
X149768532Y-116649592D01*
X149768530Y-116649594D01*
X149730012Y-116711718D01*
X149691612Y-116773651D01*
X149649470Y-116918705D01*
X149647888Y-117069748D01*
X149686983Y-117215652D01*
X149689567Y-117220020D01*
X149689568Y-117220024D01*
X149717497Y-117267249D01*
X149763875Y-117345669D01*
X149872898Y-117450218D01*
X149877372Y-117452617D01*
X149957547Y-117495606D01*
X150006020Y-117521597D01*
X150010972Y-117522704D01*
X150010975Y-117522705D01*
X150110825Y-117545024D01*
X150153433Y-117554548D01*
X150196119Y-117552311D01*
X150299210Y-117546909D01*
X150299213Y-117546908D01*
X150304278Y-117546643D01*
X150385832Y-117519197D01*
X150442623Y-117500085D01*
X150442624Y-117500084D01*
X150447439Y-117498464D01*
X150572371Y-117413560D01*
X150578818Y-117405931D01*
X150666592Y-117302065D01*
X150666593Y-117302063D01*
X150669868Y-117298188D01*
X150707656Y-117215652D01*
X150730634Y-117165464D01*
X150730635Y-117165462D01*
X150732748Y-117160846D01*
X150756378Y-117011654D01*
X150756500Y-117000000D01*
X150736000Y-116850346D01*
X150676010Y-116711718D01*
X150590152Y-116605692D01*
X150587331Y-116602208D01*
X175398231Y-116602208D01*
X175437435Y-116808704D01*
X175514980Y-117004060D01*
X175628066Y-117181229D01*
X175772614Y-117333818D01*
X175943408Y-117456320D01*
X175946631Y-117457806D01*
X175946633Y-117457807D01*
X176052706Y-117506707D01*
X176134286Y-117544316D01*
X176338359Y-117594630D01*
X176341896Y-117594812D01*
X176341901Y-117594813D01*
X176443312Y-117600038D01*
X176548265Y-117605447D01*
X176551773Y-117604957D01*
X176551776Y-117604957D01*
X176633830Y-117593498D01*
X176756429Y-117576377D01*
X176759783Y-117575232D01*
X176759787Y-117575231D01*
X176913639Y-117522705D01*
X176955341Y-117508468D01*
X177137822Y-117404171D01*
X177211045Y-117341301D01*
X177294595Y-117269563D01*
X177297290Y-117267249D01*
X177427989Y-117102643D01*
X177525204Y-116916292D01*
X177585427Y-116714920D01*
X177597134Y-116598660D01*
X177606303Y-116507605D01*
X177606303Y-116507598D01*
X177606485Y-116505794D01*
X177606500Y-116500000D01*
X177586537Y-116290766D01*
X177527370Y-116089081D01*
X177431132Y-115902224D01*
X177301296Y-115736936D01*
X177142548Y-115599181D01*
X176960615Y-115493930D01*
X176845006Y-115453784D01*
X176765414Y-115426145D01*
X176765411Y-115426144D01*
X176762061Y-115424981D01*
X176554052Y-115394821D01*
X176550508Y-115394985D01*
X176527033Y-115396072D01*
X176344093Y-115404539D01*
X176340643Y-115405370D01*
X176340639Y-115405371D01*
X176261384Y-115424472D01*
X176139759Y-115453784D01*
X175948423Y-115540779D01*
X175776990Y-115662385D01*
X175631645Y-115814215D01*
X175517632Y-115990789D01*
X175439066Y-116185737D01*
X175438386Y-116189220D01*
X175419221Y-116287360D01*
X175398781Y-116392025D01*
X175398772Y-116395564D01*
X175398252Y-116594329D01*
X175398231Y-116602208D01*
X150587331Y-116602208D01*
X150584149Y-116598279D01*
X150584148Y-116598278D01*
X150580950Y-116594329D01*
X150576810Y-116591387D01*
X150576808Y-116591385D01*
X150532844Y-116560142D01*
X150503906Y-116518194D01*
X150501500Y-116499415D01*
X150501500Y-108953220D01*
X150501823Y-108948819D01*
X150503212Y-108944775D01*
X150501552Y-108900551D01*
X150501500Y-108897757D01*
X150501500Y-108873154D01*
X150500871Y-108869779D01*
X150500556Y-108866364D01*
X150500654Y-108866355D01*
X150500072Y-108861125D01*
X150499260Y-108839488D01*
X150499260Y-108839487D01*
X150499002Y-108832617D01*
X150493355Y-108819474D01*
X150488567Y-108803712D01*
X150487210Y-108796425D01*
X150487210Y-108796424D01*
X150485950Y-108789661D01*
X150470988Y-108765388D01*
X150465958Y-108755706D01*
X150456773Y-108734328D01*
X150454697Y-108729495D01*
X150449252Y-108722867D01*
X150443754Y-108717369D01*
X150433014Y-108703782D01*
X150430668Y-108699976D01*
X150427057Y-108694118D01*
X150403717Y-108676370D01*
X150396132Y-108669747D01*
X148505065Y-106778679D01*
X148483527Y-106732493D01*
X148496717Y-106683269D01*
X148538462Y-106654039D01*
X148557744Y-106651500D01*
X151040007Y-106651500D01*
X151091572Y-106672229D01*
X151172898Y-106750218D01*
X151306020Y-106821597D01*
X151310972Y-106822704D01*
X151310975Y-106822705D01*
X151419258Y-106846909D01*
X151453433Y-106854548D01*
X151496119Y-106852311D01*
X151599210Y-106846909D01*
X151599213Y-106846908D01*
X151604278Y-106846643D01*
X151685832Y-106819197D01*
X151742623Y-106800085D01*
X151742624Y-106800084D01*
X151747439Y-106798464D01*
X151872371Y-106713560D01*
X151875651Y-106709679D01*
X151966592Y-106602065D01*
X151966593Y-106602063D01*
X151969868Y-106598188D01*
X151974798Y-106587421D01*
X152030634Y-106465464D01*
X152030635Y-106465462D01*
X152032748Y-106460846D01*
X152056378Y-106311654D01*
X152056500Y-106300000D01*
X152036000Y-106150346D01*
X151976010Y-106011718D01*
X151922205Y-105945274D01*
X151884149Y-105898279D01*
X151884148Y-105898278D01*
X151880950Y-105894329D01*
X151876810Y-105891387D01*
X151876808Y-105891385D01*
X151761962Y-105809769D01*
X151757824Y-105806828D01*
X151615703Y-105755661D01*
X151610643Y-105755289D01*
X151610641Y-105755289D01*
X151470123Y-105744970D01*
X151465057Y-105744598D01*
X151460078Y-105745602D01*
X151460077Y-105745602D01*
X151410192Y-105755661D01*
X151316986Y-105774455D01*
X151312463Y-105776760D01*
X151312459Y-105776761D01*
X151256823Y-105805109D01*
X151182398Y-105843030D01*
X151178659Y-105846469D01*
X151178658Y-105846469D01*
X151109820Y-105909769D01*
X151071209Y-105945274D01*
X151068532Y-105949592D01*
X151068530Y-105949594D01*
X151030012Y-106011718D01*
X150991612Y-106073651D01*
X150989457Y-106081070D01*
X150985472Y-106094785D01*
X150955374Y-106135908D01*
X150913930Y-106148500D01*
X148239459Y-106148500D01*
X148191571Y-106131070D01*
X148177057Y-106114137D01*
X148176010Y-106111718D01*
X148162298Y-106094785D01*
X148084149Y-105998279D01*
X148084148Y-105998278D01*
X148080950Y-105994329D01*
X148076810Y-105991387D01*
X148076808Y-105991385D01*
X147961962Y-105909769D01*
X147957824Y-105906828D01*
X147815703Y-105855661D01*
X147810643Y-105855289D01*
X147810641Y-105855289D01*
X147670123Y-105844970D01*
X147665057Y-105844598D01*
X147660078Y-105845602D01*
X147660077Y-105845602D01*
X147610192Y-105855661D01*
X147516986Y-105874455D01*
X147512463Y-105876760D01*
X147512459Y-105876761D01*
X147456823Y-105905109D01*
X147382398Y-105943030D01*
X147378659Y-105946469D01*
X147378658Y-105946469D01*
X147326611Y-105994329D01*
X147271209Y-106045274D01*
X147260059Y-106063258D01*
X147220013Y-106094772D01*
X147196742Y-106098500D01*
X146455743Y-106098500D01*
X146407855Y-106081070D01*
X146403064Y-106076679D01*
X143723321Y-103396935D01*
X143701783Y-103350749D01*
X143701500Y-103344256D01*
X143701500Y-101202173D01*
X143718930Y-101154285D01*
X143736907Y-101138754D01*
X143750026Y-101130667D01*
X143750027Y-101130666D01*
X143755882Y-101127057D01*
X143823818Y-101037716D01*
X143855037Y-100929909D01*
X143845353Y-100818091D01*
X143796064Y-100717257D01*
X143725334Y-100651646D01*
X143702079Y-100606300D01*
X143701500Y-100597027D01*
X143701500Y-99255743D01*
X143718930Y-99207855D01*
X143723321Y-99203064D01*
X145057783Y-97868602D01*
X145103969Y-97847064D01*
X145126715Y-97848576D01*
X145148471Y-97853440D01*
X145148479Y-97853441D01*
X145153433Y-97854548D01*
X145196119Y-97852311D01*
X145299210Y-97846909D01*
X145299213Y-97846908D01*
X145304278Y-97846643D01*
X145407215Y-97812001D01*
X145442623Y-97800085D01*
X145442624Y-97800084D01*
X145447439Y-97798464D01*
X145572371Y-97713560D01*
X145669868Y-97598188D01*
X145713001Y-97503978D01*
X145730634Y-97465464D01*
X145730635Y-97465462D01*
X145732748Y-97460846D01*
X145756378Y-97311654D01*
X145756500Y-97300000D01*
X145736000Y-97150346D01*
X145676010Y-97011718D01*
X145589896Y-96905376D01*
X145584149Y-96898279D01*
X145584148Y-96898278D01*
X145580950Y-96894329D01*
X145576810Y-96891387D01*
X145576808Y-96891385D01*
X145505520Y-96840724D01*
X145457824Y-96806828D01*
X145315703Y-96755661D01*
X145310643Y-96755289D01*
X145310641Y-96755289D01*
X145170123Y-96744970D01*
X145165057Y-96744598D01*
X145160078Y-96745602D01*
X145160077Y-96745602D01*
X145110192Y-96755661D01*
X145016986Y-96774455D01*
X145012463Y-96776760D01*
X145012459Y-96776761D01*
X144938951Y-96814215D01*
X144882398Y-96843030D01*
X144878659Y-96846469D01*
X144878658Y-96846469D01*
X144774951Y-96941833D01*
X144771209Y-96945274D01*
X144768532Y-96949592D01*
X144768530Y-96949594D01*
X144730012Y-97011718D01*
X144691612Y-97073651D01*
X144649470Y-97218705D01*
X144647888Y-97369748D01*
X144649202Y-97374653D01*
X144649839Y-97379691D01*
X144647925Y-97379933D01*
X144644139Y-97423129D01*
X144629303Y-97444312D01*
X143224442Y-98849172D01*
X143221099Y-98852058D01*
X143217257Y-98853936D01*
X143202252Y-98870112D01*
X143187161Y-98886380D01*
X143185221Y-98888393D01*
X143167824Y-98905790D01*
X143165880Y-98908623D01*
X143163688Y-98911261D01*
X143163612Y-98911198D01*
X143160331Y-98915302D01*
X143140927Y-98936221D01*
X143138378Y-98942611D01*
X143135631Y-98949496D01*
X143127867Y-98964037D01*
X143119781Y-98975824D01*
X143118192Y-98982518D01*
X143118192Y-98982519D01*
X143113196Y-99003573D01*
X143109906Y-99013975D01*
X143099337Y-99040467D01*
X143098500Y-99049004D01*
X143098500Y-99056780D01*
X143096487Y-99073981D01*
X143093866Y-99085027D01*
X143094794Y-99091843D01*
X143097819Y-99114071D01*
X143098500Y-99124118D01*
X143098500Y-100524000D01*
X143081070Y-100571888D01*
X143036937Y-100597368D01*
X143024000Y-100598500D01*
X131300840Y-100598500D01*
X131252952Y-100581070D01*
X131242943Y-100570884D01*
X131184149Y-100498279D01*
X131184148Y-100498278D01*
X131180950Y-100494329D01*
X131176810Y-100491387D01*
X131176808Y-100491385D01*
X131061962Y-100409769D01*
X131057824Y-100406828D01*
X130915703Y-100355661D01*
X130910643Y-100355289D01*
X130910641Y-100355289D01*
X130770123Y-100344970D01*
X130765057Y-100344598D01*
X130760078Y-100345602D01*
X130760077Y-100345602D01*
X130710192Y-100355661D01*
X130616986Y-100374455D01*
X130612463Y-100376760D01*
X130612459Y-100376761D01*
X130556823Y-100405109D01*
X130482398Y-100443030D01*
X130478659Y-100446469D01*
X130478658Y-100446469D01*
X130426611Y-100494329D01*
X130371209Y-100545274D01*
X130360059Y-100563258D01*
X130320013Y-100594772D01*
X130296742Y-100598500D01*
X125000840Y-100598500D01*
X124952952Y-100581070D01*
X124942943Y-100570884D01*
X124884149Y-100498279D01*
X124884148Y-100498278D01*
X124880950Y-100494329D01*
X124876810Y-100491387D01*
X124876808Y-100491385D01*
X124761962Y-100409769D01*
X124757824Y-100406828D01*
X124615703Y-100355661D01*
X124610643Y-100355289D01*
X124610641Y-100355289D01*
X124470123Y-100344970D01*
X124465057Y-100344598D01*
X124460078Y-100345602D01*
X124460077Y-100345602D01*
X124410192Y-100355661D01*
X124316986Y-100374455D01*
X124312463Y-100376760D01*
X124312459Y-100376761D01*
X124256823Y-100405109D01*
X124182398Y-100443030D01*
X124178659Y-100446469D01*
X124178658Y-100446469D01*
X124126611Y-100494329D01*
X124071209Y-100545274D01*
X124068532Y-100549592D01*
X124068530Y-100549594D01*
X124035603Y-100602701D01*
X123991612Y-100673651D01*
X123949470Y-100818705D01*
X123947888Y-100969748D01*
X122840774Y-100969748D01*
X122037122Y-100166096D01*
X122015584Y-100119910D01*
X122016334Y-100101057D01*
X122030877Y-100014616D01*
X122030878Y-100014606D01*
X122031356Y-100011764D01*
X122031500Y-100000000D01*
X122012146Y-99864859D01*
X122009584Y-99859223D01*
X121986436Y-99808312D01*
X121955641Y-99740582D01*
X121899351Y-99675254D01*
X121869987Y-99641175D01*
X121869985Y-99641173D01*
X121866526Y-99637159D01*
X121751966Y-99562905D01*
X121621170Y-99523789D01*
X121554293Y-99523380D01*
X121489961Y-99522987D01*
X121489958Y-99522987D01*
X121484653Y-99522955D01*
X121479548Y-99524414D01*
X121358490Y-99559012D01*
X121358489Y-99559012D01*
X121353389Y-99560470D01*
X121348905Y-99563299D01*
X121348903Y-99563300D01*
X121344949Y-99565795D01*
X121237930Y-99633319D01*
X121234416Y-99637298D01*
X121157341Y-99724570D01*
X121112577Y-99748926D01*
X121062630Y-99738810D01*
X121030871Y-99698955D01*
X121027000Y-99675254D01*
X121027000Y-95161613D01*
X121044430Y-95113725D01*
X121062517Y-95098126D01*
X121107567Y-95070466D01*
X121199182Y-94969251D01*
X121258707Y-94846392D01*
X121260735Y-94834341D01*
X121280878Y-94714604D01*
X121281356Y-94711764D01*
X121281500Y-94700000D01*
X121262146Y-94564859D01*
X121259584Y-94559223D01*
X121228965Y-94491880D01*
X121205641Y-94440582D01*
X121186266Y-94418096D01*
X121119987Y-94341175D01*
X121119985Y-94341173D01*
X121116526Y-94337159D01*
X121049071Y-94293437D01*
X121041987Y-94288845D01*
X121011282Y-94248173D01*
X121013905Y-94197279D01*
X121048628Y-94159978D01*
X121082489Y-94151829D01*
X124253712Y-94151012D01*
X124271700Y-94153212D01*
X124279445Y-94155137D01*
X124279451Y-94155138D01*
X124284184Y-94156314D01*
X124433413Y-94153595D01*
X124439657Y-94153911D01*
X124441740Y-94153886D01*
X124446588Y-94154466D01*
X124451427Y-94153770D01*
X124451971Y-94153764D01*
X124458948Y-94153201D01*
X124459480Y-94153121D01*
X124464355Y-94153032D01*
X124469048Y-94151683D01*
X124471100Y-94151374D01*
X124477207Y-94150064D01*
X124738334Y-94112520D01*
X124746556Y-94111834D01*
X124746831Y-94111791D01*
X124751708Y-94111675D01*
X124756394Y-94110299D01*
X124758984Y-94109895D01*
X124761499Y-94109189D01*
X124766333Y-94108494D01*
X124770820Y-94106572D01*
X124771078Y-94106500D01*
X124778861Y-94103702D01*
X125034502Y-94028639D01*
X125042556Y-94026786D01*
X125042818Y-94026706D01*
X125047633Y-94025896D01*
X125052080Y-94023865D01*
X125054591Y-94023095D01*
X125056975Y-94022040D01*
X125061656Y-94020666D01*
X125065823Y-94018126D01*
X125066070Y-94018017D01*
X125073369Y-94014143D01*
X125315740Y-93903456D01*
X125323438Y-93900480D01*
X125323686Y-93900363D01*
X125328338Y-93898876D01*
X125332444Y-93896237D01*
X125334818Y-93895119D01*
X125337036Y-93893730D01*
X125341475Y-93891703D01*
X125345241Y-93888593D01*
X125345473Y-93888448D01*
X125352147Y-93883575D01*
X125576281Y-93739533D01*
X125583486Y-93735486D01*
X125583710Y-93735338D01*
X125588110Y-93733201D01*
X125591804Y-93730000D01*
X125593986Y-93728561D01*
X125595985Y-93726871D01*
X125600092Y-93724231D01*
X125603375Y-93720619D01*
X125603579Y-93720447D01*
X125609498Y-93714668D01*
X125810869Y-93540180D01*
X125817405Y-93535165D01*
X125817612Y-93534982D01*
X125821659Y-93532242D01*
X125824862Y-93528546D01*
X125826822Y-93526806D01*
X125828550Y-93524860D01*
X125832242Y-93521660D01*
X125834979Y-93517617D01*
X125835156Y-93517417D01*
X125840195Y-93510851D01*
X126014668Y-93309498D01*
X126014677Y-93309487D01*
X126020435Y-93303591D01*
X126020612Y-93303382D01*
X126024231Y-93300092D01*
X126026874Y-93295980D01*
X126028567Y-93293978D01*
X126030004Y-93291799D01*
X126033201Y-93288110D01*
X126035334Y-93283718D01*
X126035489Y-93283484D01*
X126039526Y-93276294D01*
X126183578Y-93052142D01*
X126188448Y-93045473D01*
X126188593Y-93045241D01*
X126191703Y-93041475D01*
X126193730Y-93037036D01*
X126195119Y-93034818D01*
X126196237Y-93032444D01*
X126198876Y-93028338D01*
X126200363Y-93023686D01*
X126200480Y-93023438D01*
X126203456Y-93015740D01*
X126314138Y-92773379D01*
X126318012Y-92766080D01*
X126318124Y-92765828D01*
X126320666Y-92761657D01*
X126322042Y-92756971D01*
X126323102Y-92754575D01*
X126323870Y-92752068D01*
X126325896Y-92747633D01*
X126326705Y-92742821D01*
X126326786Y-92742558D01*
X126328635Y-92734518D01*
X126403702Y-92478863D01*
X126406501Y-92471076D01*
X126406573Y-92470818D01*
X126408494Y-92466333D01*
X126409189Y-92461503D01*
X126409896Y-92458983D01*
X126410300Y-92456394D01*
X126411675Y-92451709D01*
X126411791Y-92446823D01*
X126411834Y-92446549D01*
X126412520Y-92438330D01*
X126418221Y-92398682D01*
X126450064Y-92177207D01*
X126451374Y-92171100D01*
X126451683Y-92169048D01*
X126453032Y-92164355D01*
X126453121Y-92159480D01*
X126453201Y-92158948D01*
X126453764Y-92151971D01*
X126453770Y-92151427D01*
X126454466Y-92146588D01*
X126453886Y-92141740D01*
X126453911Y-92139657D01*
X126453595Y-92133409D01*
X126453723Y-92126414D01*
X126456314Y-91984184D01*
X126453224Y-91971748D01*
X126451025Y-91953742D01*
X126451291Y-91451441D01*
X126451828Y-90440105D01*
X126469283Y-90392228D01*
X126513430Y-90366771D01*
X126532690Y-90366041D01*
X126535000Y-90366500D01*
G37*
%TD.AperFunction*%
%TA.AperFunction,Conductor*%
G36*
X128836227Y-88957253D02*
G01*
X130534839Y-90655865D01*
X130537524Y-90658694D01*
X130558394Y-90681873D01*
X130558396Y-90681874D01*
X130563634Y-90687692D01*
X130586023Y-90697660D01*
X130596293Y-90703235D01*
X130609819Y-90712020D01*
X130640487Y-90752717D01*
X130637821Y-90803608D01*
X130603066Y-90840879D01*
X130569243Y-90849000D01*
X128546114Y-90849000D01*
X128528541Y-90846898D01*
X128519704Y-90844753D01*
X128514962Y-90843602D01*
X128456953Y-90844976D01*
X128402854Y-90846256D01*
X128396228Y-90846118D01*
X128389605Y-90845684D01*
X128384874Y-90846625D01*
X128384545Y-90846640D01*
X128384218Y-90846698D01*
X128379390Y-90846812D01*
X128374704Y-90848188D01*
X128374701Y-90848188D01*
X128373596Y-90848513D01*
X128373016Y-90848683D01*
X128366575Y-90850265D01*
X128178671Y-90887642D01*
X128173868Y-90888435D01*
X128172733Y-90888585D01*
X128166531Y-90889401D01*
X128163487Y-90890662D01*
X128160254Y-90891305D01*
X128155875Y-90893465D01*
X128155871Y-90893466D01*
X128153623Y-90894575D01*
X128149179Y-90896589D01*
X127967831Y-90971706D01*
X127963289Y-90973416D01*
X127956271Y-90975798D01*
X127953530Y-90977630D01*
X127950487Y-90978890D01*
X127946610Y-90981865D01*
X127946605Y-90981868D01*
X127944622Y-90983390D01*
X127940660Y-90986229D01*
X127777450Y-91095283D01*
X127773333Y-91097844D01*
X127766907Y-91101554D01*
X127764576Y-91103885D01*
X127761837Y-91105715D01*
X127756950Y-91111288D01*
X127753629Y-91114832D01*
X127614847Y-91253614D01*
X127611288Y-91256948D01*
X127609387Y-91258615D01*
X127609383Y-91258619D01*
X127605714Y-91261837D01*
X127603882Y-91264579D01*
X127601554Y-91266907D01*
X127597862Y-91273302D01*
X127595301Y-91277421D01*
X127567925Y-91318393D01*
X127486232Y-91440656D01*
X127483390Y-91444621D01*
X127481862Y-91446612D01*
X127481859Y-91446617D01*
X127478890Y-91450486D01*
X127477629Y-91453531D01*
X127475798Y-91456271D01*
X127474228Y-91460895D01*
X127474228Y-91460896D01*
X127473423Y-91463268D01*
X127471706Y-91467829D01*
X127396585Y-91649187D01*
X127394573Y-91653627D01*
X127393467Y-91655871D01*
X127391305Y-91660255D01*
X127390662Y-91663486D01*
X127389401Y-91666531D01*
X127388433Y-91673888D01*
X127387643Y-91678667D01*
X127372560Y-91754493D01*
X127349346Y-91871195D01*
X127348242Y-91875930D01*
X127346327Y-91883078D01*
X127346327Y-91886372D01*
X127345684Y-91889605D01*
X127346003Y-91894474D01*
X127346003Y-91894475D01*
X127346168Y-91896990D01*
X127346327Y-91901862D01*
X127346327Y-92098138D01*
X127346168Y-92103010D01*
X127345684Y-92110395D01*
X127346327Y-92113628D01*
X127346327Y-92116922D01*
X127347589Y-92121632D01*
X127347589Y-92121633D01*
X127348239Y-92124057D01*
X127349343Y-92128794D01*
X127372561Y-92245509D01*
X127387641Y-92321321D01*
X127388433Y-92326112D01*
X127389401Y-92333469D01*
X127390662Y-92336514D01*
X127391305Y-92339745D01*
X127393464Y-92344123D01*
X127393464Y-92344124D01*
X127394573Y-92346373D01*
X127396581Y-92350804D01*
X127441391Y-92458984D01*
X127471706Y-92532171D01*
X127473421Y-92536727D01*
X127475798Y-92543729D01*
X127477629Y-92546469D01*
X127478890Y-92549514D01*
X127481859Y-92553383D01*
X127481862Y-92553388D01*
X127483390Y-92555379D01*
X127486229Y-92559340D01*
X127543563Y-92645146D01*
X127595296Y-92722571D01*
X127597862Y-92726698D01*
X127601554Y-92733093D01*
X127603882Y-92735421D01*
X127605714Y-92738163D01*
X127609383Y-92741381D01*
X127609387Y-92741385D01*
X127611288Y-92743052D01*
X127614847Y-92746386D01*
X127753629Y-92885168D01*
X127756947Y-92888709D01*
X127761837Y-92894285D01*
X127764576Y-92896115D01*
X127766907Y-92898446D01*
X127773333Y-92902156D01*
X127777450Y-92904717D01*
X127940660Y-93013771D01*
X127944622Y-93016610D01*
X127946605Y-93018132D01*
X127946610Y-93018135D01*
X127950487Y-93021110D01*
X127953530Y-93022370D01*
X127956271Y-93024202D01*
X127963289Y-93026584D01*
X127967827Y-93028292D01*
X128016400Y-93048412D01*
X128149179Y-93103411D01*
X128153623Y-93105425D01*
X128155871Y-93106534D01*
X128155875Y-93106535D01*
X128160254Y-93108695D01*
X128163487Y-93109338D01*
X128166531Y-93110599D01*
X128172733Y-93111415D01*
X128173868Y-93111565D01*
X128178671Y-93112358D01*
X128366575Y-93149735D01*
X128373016Y-93151317D01*
X128373023Y-93151319D01*
X128374701Y-93151812D01*
X128374704Y-93151812D01*
X128379390Y-93153188D01*
X128384218Y-93153302D01*
X128384545Y-93153360D01*
X128384874Y-93153375D01*
X128389605Y-93154316D01*
X128396228Y-93153882D01*
X128402854Y-93153744D01*
X128456953Y-93155024D01*
X128514962Y-93156398D01*
X128528541Y-93153102D01*
X128546114Y-93151000D01*
X131453888Y-93151000D01*
X131471461Y-93153102D01*
X131485040Y-93156398D01*
X131548317Y-93154899D01*
X131597134Y-93153743D01*
X131603760Y-93153881D01*
X131610396Y-93154316D01*
X131615132Y-93153374D01*
X131615466Y-93153359D01*
X131615793Y-93153301D01*
X131620612Y-93153187D01*
X131626985Y-93151316D01*
X131633398Y-93149740D01*
X131821343Y-93112355D01*
X131826128Y-93111565D01*
X131833470Y-93110599D01*
X131836515Y-93109338D01*
X131839746Y-93108695D01*
X131844541Y-93106331D01*
X131846374Y-93105427D01*
X131850805Y-93103419D01*
X132000350Y-93041475D01*
X132032172Y-93028294D01*
X132036728Y-93026579D01*
X132043730Y-93024202D01*
X132046470Y-93022371D01*
X132049515Y-93021110D01*
X132053384Y-93018141D01*
X132053389Y-93018138D01*
X132055380Y-93016610D01*
X132059345Y-93013768D01*
X132222553Y-92904717D01*
X132222580Y-92904699D01*
X132226699Y-92902138D01*
X132233094Y-92898446D01*
X132235422Y-92896118D01*
X132238164Y-92894286D01*
X132241382Y-92890617D01*
X132241386Y-92890613D01*
X132243053Y-92888712D01*
X132246387Y-92885153D01*
X132385169Y-92746371D01*
X132388711Y-92743052D01*
X132394286Y-92738163D01*
X132396116Y-92735424D01*
X132398447Y-92733093D01*
X132402157Y-92726667D01*
X132404718Y-92722550D01*
X132513772Y-92559340D01*
X132516611Y-92555378D01*
X132518133Y-92553395D01*
X132518137Y-92553388D01*
X132521111Y-92549513D01*
X132522371Y-92546470D01*
X132524203Y-92543729D01*
X132526585Y-92536711D01*
X132528295Y-92532169D01*
X132558643Y-92458904D01*
X132603413Y-92350818D01*
X132605426Y-92346377D01*
X132606535Y-92344129D01*
X132606537Y-92344124D01*
X132608696Y-92339746D01*
X132609339Y-92336513D01*
X132610600Y-92333469D01*
X132611566Y-92326131D01*
X132612361Y-92321321D01*
X132648721Y-92138529D01*
X132650656Y-92128800D01*
X132651762Y-92124057D01*
X132652412Y-92121633D01*
X132652412Y-92121632D01*
X132653674Y-92116922D01*
X132653674Y-92113628D01*
X132654317Y-92110395D01*
X132653833Y-92103010D01*
X132653674Y-92098138D01*
X132653674Y-91901862D01*
X132653833Y-91896990D01*
X132653998Y-91894475D01*
X132653998Y-91894474D01*
X132654317Y-91889605D01*
X132653674Y-91886372D01*
X132653674Y-91883078D01*
X132651759Y-91875930D01*
X132650655Y-91871194D01*
X132612361Y-91678679D01*
X132611566Y-91673869D01*
X132611237Y-91671369D01*
X132611237Y-91671368D01*
X132610600Y-91666531D01*
X132609339Y-91663487D01*
X132608696Y-91660254D01*
X132606536Y-91655875D01*
X132606535Y-91655871D01*
X132605426Y-91653623D01*
X132603412Y-91649179D01*
X132528295Y-91467831D01*
X132526585Y-91463289D01*
X132524203Y-91456271D01*
X132522371Y-91453530D01*
X132521111Y-91450487D01*
X132518136Y-91446610D01*
X132518133Y-91446605D01*
X132516611Y-91444622D01*
X132513772Y-91440660D01*
X132404718Y-91277450D01*
X132402157Y-91273333D01*
X132398447Y-91266907D01*
X132396116Y-91264576D01*
X132394286Y-91261837D01*
X132388710Y-91256947D01*
X132385169Y-91253629D01*
X132246387Y-91114847D01*
X132243053Y-91111288D01*
X132241386Y-91109387D01*
X132241382Y-91109383D01*
X132238164Y-91105714D01*
X132235422Y-91103882D01*
X132233094Y-91101554D01*
X132226699Y-91097862D01*
X132222580Y-91095301D01*
X132059345Y-90986232D01*
X132055380Y-90983390D01*
X132053389Y-90981862D01*
X132053384Y-90981859D01*
X132049515Y-90978890D01*
X132046470Y-90977629D01*
X132043730Y-90975798D01*
X132036728Y-90973421D01*
X132032172Y-90971706D01*
X131970363Y-90946104D01*
X131850805Y-90896581D01*
X131846374Y-90894573D01*
X131844125Y-90893464D01*
X131844124Y-90893464D01*
X131839746Y-90891305D01*
X131836515Y-90890662D01*
X131833470Y-90889401D01*
X131826128Y-90888435D01*
X131821343Y-90887645D01*
X131755599Y-90874567D01*
X131712035Y-90848131D01*
X131695654Y-90799875D01*
X131714124Y-90752379D01*
X131758803Y-90727867D01*
X131770136Y-90727000D01*
X132275115Y-90727000D01*
X132323003Y-90744430D01*
X132327795Y-90748821D01*
X132851180Y-91272207D01*
X132872717Y-91318393D01*
X132873000Y-91324886D01*
X132873000Y-94698500D01*
X132855570Y-94746388D01*
X132811437Y-94771868D01*
X132798500Y-94773000D01*
X128131418Y-94773000D01*
X128083530Y-94755570D01*
X128063100Y-94723870D01*
X128062000Y-94724346D01*
X128004027Y-94590379D01*
X128002010Y-94585718D01*
X127961752Y-94536004D01*
X127910149Y-94472279D01*
X127910148Y-94472278D01*
X127906950Y-94468329D01*
X127902810Y-94465387D01*
X127902808Y-94465385D01*
X127787962Y-94383769D01*
X127783824Y-94380828D01*
X127673684Y-94341175D01*
X127646478Y-94331380D01*
X127646477Y-94331380D01*
X127641703Y-94329661D01*
X127636643Y-94329289D01*
X127636641Y-94329289D01*
X127496123Y-94318970D01*
X127491057Y-94318598D01*
X127486078Y-94319602D01*
X127486077Y-94319602D01*
X127436192Y-94329661D01*
X127342986Y-94348455D01*
X127338463Y-94350760D01*
X127338459Y-94350761D01*
X127273677Y-94383769D01*
X127235321Y-94403312D01*
X127184741Y-94409523D01*
X127142001Y-94381767D01*
X127127000Y-94336932D01*
X127127000Y-90679884D01*
X127144430Y-90631996D01*
X127148821Y-90627205D01*
X127387705Y-90388321D01*
X127433891Y-90366783D01*
X127440384Y-90366500D01*
X128565000Y-90366500D01*
X128624890Y-90354587D01*
X128675662Y-90320662D01*
X128709587Y-90269890D01*
X128721500Y-90210000D01*
X128721500Y-89600000D01*
X128709587Y-89540110D01*
X128675662Y-89489338D01*
X128624890Y-89455413D01*
X128565000Y-89443500D01*
X126535000Y-89443500D01*
X126533584Y-89443782D01*
X126484831Y-89431286D01*
X126455149Y-89389862D01*
X126452396Y-89369758D01*
X126452502Y-89170172D01*
X126469957Y-89122294D01*
X126514104Y-89096837D01*
X126533078Y-89096118D01*
X126535000Y-89096500D01*
X128565000Y-89096500D01*
X128624890Y-89084587D01*
X128675662Y-89050662D01*
X128709587Y-88999890D01*
X128711019Y-88992690D01*
X128713826Y-88985914D01*
X128715752Y-88986712D01*
X128736910Y-88951836D01*
X128785165Y-88935450D01*
X128836227Y-88957253D01*
G37*
%TD.AperFunction*%
%TA.AperFunction,Conductor*%
G36*
X128766447Y-86522122D02*
G01*
X129699196Y-87454871D01*
X129708461Y-87466160D01*
X129714550Y-87475273D01*
X129714554Y-87475277D01*
X129718627Y-87481373D01*
X129739936Y-87495611D01*
X129801841Y-87536975D01*
X129850920Y-87546737D01*
X129892805Y-87555069D01*
X129892806Y-87555069D01*
X129900000Y-87556500D01*
X129917937Y-87552932D01*
X129932472Y-87551500D01*
X130065689Y-87551500D01*
X130113577Y-87568930D01*
X130129814Y-87588076D01*
X130138087Y-87602065D01*
X130163875Y-87645669D01*
X130272898Y-87750218D01*
X130406020Y-87821597D01*
X130410972Y-87822704D01*
X130410975Y-87822705D01*
X130510825Y-87845024D01*
X130553433Y-87854548D01*
X130596119Y-87852311D01*
X130699210Y-87846909D01*
X130699213Y-87846908D01*
X130704278Y-87846643D01*
X130786325Y-87819031D01*
X130842623Y-87800085D01*
X130842624Y-87800084D01*
X130847439Y-87798464D01*
X130972371Y-87713560D01*
X131026776Y-87649181D01*
X131066592Y-87602065D01*
X131066593Y-87602063D01*
X131069868Y-87598188D01*
X131074498Y-87588076D01*
X131130634Y-87465464D01*
X131130635Y-87465462D01*
X131132748Y-87460846D01*
X131133200Y-87457992D01*
X131163208Y-87417881D01*
X131212823Y-87406245D01*
X131258309Y-87429223D01*
X131278500Y-87480221D01*
X131278500Y-87670000D01*
X131290413Y-87729890D01*
X131324338Y-87780662D01*
X131375110Y-87814587D01*
X131435000Y-87826500D01*
X133465000Y-87826500D01*
X133465806Y-87826340D01*
X133514382Y-87838785D01*
X133544069Y-87880206D01*
X133546824Y-87900238D01*
X133546930Y-88099692D01*
X133529526Y-88147589D01*
X133485406Y-88173093D01*
X133466592Y-88173817D01*
X133465000Y-88173500D01*
X131435000Y-88173500D01*
X131375110Y-88185413D01*
X131324338Y-88219338D01*
X131290413Y-88270110D01*
X131278500Y-88330000D01*
X131278500Y-88940000D01*
X131290413Y-88999890D01*
X131324338Y-89050662D01*
X131375110Y-89084587D01*
X131435000Y-89096500D01*
X133465000Y-89096500D01*
X133466333Y-89096235D01*
X133515059Y-89108721D01*
X133544744Y-89150144D01*
X133547498Y-89170172D01*
X133547604Y-89369758D01*
X133530200Y-89417655D01*
X133486080Y-89443159D01*
X133466979Y-89443894D01*
X133465000Y-89443500D01*
X131435000Y-89443500D01*
X131375110Y-89455413D01*
X131324338Y-89489338D01*
X131290413Y-89540110D01*
X131278500Y-89600000D01*
X131278500Y-90198500D01*
X131261070Y-90246388D01*
X131216937Y-90271868D01*
X131204000Y-90273000D01*
X130824884Y-90273000D01*
X130776996Y-90255570D01*
X130772205Y-90251179D01*
X129000161Y-88479135D01*
X128997476Y-88476306D01*
X128976606Y-88453127D01*
X128976604Y-88453126D01*
X128971366Y-88447308D01*
X128948976Y-88437340D01*
X128938703Y-88431762D01*
X128924711Y-88422675D01*
X128924710Y-88422675D01*
X128918142Y-88418409D01*
X128909693Y-88417071D01*
X128891048Y-88411548D01*
X128890026Y-88411093D01*
X128883236Y-88408070D01*
X128882570Y-88408000D01*
X128858284Y-88408000D01*
X128846630Y-88407083D01*
X128830593Y-88404543D01*
X128822858Y-88403318D01*
X128815294Y-88405345D01*
X128815292Y-88405345D01*
X128815282Y-88405348D01*
X128815266Y-88405347D01*
X128807477Y-88405755D01*
X128807420Y-88404660D01*
X128764515Y-88400907D01*
X128728480Y-88364872D01*
X128722358Y-88337256D01*
X128721859Y-88337305D01*
X128721500Y-88333661D01*
X128721500Y-88330000D01*
X128709587Y-88270110D01*
X128675662Y-88219338D01*
X128624890Y-88185413D01*
X128565000Y-88173500D01*
X126535000Y-88173500D01*
X126534110Y-88173677D01*
X126485508Y-88161222D01*
X126455824Y-88119800D01*
X126453070Y-88099693D01*
X126453150Y-87948737D01*
X126470605Y-87900858D01*
X126514752Y-87875401D01*
X126534953Y-87874635D01*
X126538658Y-87875000D01*
X127436863Y-87875000D01*
X127446927Y-87871337D01*
X127450000Y-87866014D01*
X127450000Y-87473986D01*
X127650000Y-87473986D01*
X127650000Y-87861863D01*
X127653663Y-87871927D01*
X127658986Y-87875000D01*
X128561340Y-87875000D01*
X128568592Y-87874286D01*
X128636252Y-87860827D01*
X128649551Y-87855319D01*
X128703860Y-87819031D01*
X128714031Y-87808860D01*
X128750319Y-87754551D01*
X128755827Y-87741252D01*
X128769286Y-87673592D01*
X128770000Y-87666340D01*
X128770000Y-87478137D01*
X128766337Y-87468073D01*
X128761014Y-87465000D01*
X127663137Y-87465000D01*
X127653073Y-87468663D01*
X127650000Y-87473986D01*
X127450000Y-87473986D01*
X127450000Y-86868137D01*
X127448489Y-86863986D01*
X127650000Y-86863986D01*
X127650000Y-87251863D01*
X127653663Y-87261927D01*
X127658986Y-87265000D01*
X128756863Y-87265000D01*
X128766927Y-87261337D01*
X128770000Y-87256014D01*
X128770000Y-87063660D01*
X128769286Y-87056408D01*
X128755827Y-86988748D01*
X128750319Y-86975449D01*
X128714031Y-86921140D01*
X128703860Y-86910969D01*
X128649551Y-86874681D01*
X128636252Y-86869173D01*
X128568592Y-86855714D01*
X128561340Y-86855000D01*
X127663137Y-86855000D01*
X127653073Y-86858663D01*
X127650000Y-86863986D01*
X127448489Y-86863986D01*
X127446337Y-86858073D01*
X127441014Y-86855000D01*
X126538660Y-86855000D01*
X126535574Y-86855304D01*
X126486208Y-86842653D01*
X126456524Y-86801230D01*
X126453770Y-86781123D01*
X126453850Y-86630305D01*
X126471305Y-86582427D01*
X126515452Y-86556970D01*
X126533855Y-86556272D01*
X126535000Y-86556500D01*
X128565000Y-86556500D01*
X128624890Y-86544587D01*
X128672379Y-86512856D01*
X128721879Y-86500744D01*
X128766447Y-86522122D01*
G37*
%TD.AperFunction*%
%TD*%
%TA.AperFunction,NonConductor*%
G36*
X133163997Y-84956916D02*
G01*
X133164012Y-84956821D01*
X133168836Y-84957591D01*
X133173517Y-84958984D01*
X133178401Y-84959118D01*
X133183887Y-84959268D01*
X133228632Y-84960496D01*
X133236319Y-84961106D01*
X133239869Y-84961574D01*
X133249404Y-84963471D01*
X133319064Y-84982136D01*
X133337022Y-84989575D01*
X133359084Y-85002312D01*
X133398073Y-85024823D01*
X133413502Y-85036663D01*
X133463340Y-85086501D01*
X133475180Y-85101931D01*
X133510423Y-85162975D01*
X133517866Y-85180943D01*
X133536528Y-85250593D01*
X133538428Y-85260144D01*
X133538895Y-85263689D01*
X133539504Y-85271369D01*
X133541016Y-85326484D01*
X133542409Y-85331165D01*
X133543179Y-85335987D01*
X133543097Y-85336000D01*
X133545472Y-85352263D01*
X133545582Y-85559559D01*
X133528178Y-85607456D01*
X133484058Y-85632960D01*
X133465813Y-85633662D01*
X133465000Y-85633500D01*
X131435000Y-85633500D01*
X131375110Y-85645413D01*
X131324338Y-85679338D01*
X131290413Y-85730110D01*
X131288981Y-85737309D01*
X131279786Y-85783535D01*
X131253349Y-85827102D01*
X131206718Y-85843500D01*
X130736430Y-85843500D01*
X130688542Y-85826070D01*
X130676146Y-85811608D01*
X130676010Y-85811718D01*
X130584149Y-85698279D01*
X130584148Y-85698278D01*
X130580950Y-85694329D01*
X130576810Y-85691387D01*
X130576808Y-85691385D01*
X130461962Y-85609769D01*
X130457824Y-85606828D01*
X130315703Y-85555661D01*
X130310643Y-85555289D01*
X130310641Y-85555289D01*
X130170123Y-85544970D01*
X130165057Y-85544598D01*
X130160078Y-85545602D01*
X130160077Y-85545602D01*
X130110192Y-85555661D01*
X130016986Y-85574455D01*
X130012463Y-85576760D01*
X130012459Y-85576761D01*
X129947677Y-85609769D01*
X129882398Y-85643030D01*
X129878659Y-85646469D01*
X129878658Y-85646469D01*
X129826611Y-85694329D01*
X129771209Y-85745274D01*
X129768532Y-85749592D01*
X129768530Y-85749594D01*
X129716691Y-85833202D01*
X129691612Y-85873651D01*
X129649470Y-86018705D01*
X129647888Y-86169748D01*
X129686983Y-86315652D01*
X129689567Y-86320020D01*
X129689568Y-86320024D01*
X129733064Y-86393570D01*
X129763875Y-86445669D01*
X129872898Y-86550218D01*
X130006020Y-86621597D01*
X130010972Y-86622704D01*
X130010975Y-86622705D01*
X130110825Y-86645024D01*
X130153433Y-86654548D01*
X130196119Y-86652311D01*
X130299210Y-86646909D01*
X130299213Y-86646908D01*
X130304278Y-86646643D01*
X130385832Y-86619197D01*
X130442623Y-86600085D01*
X130442624Y-86600084D01*
X130447439Y-86598464D01*
X130572371Y-86513560D01*
X130579975Y-86504562D01*
X130666592Y-86402065D01*
X130666593Y-86402063D01*
X130669868Y-86398188D01*
X130671981Y-86393574D01*
X130671983Y-86393570D01*
X130673624Y-86389985D01*
X130709407Y-86353701D01*
X130741361Y-86346500D01*
X131206718Y-86346500D01*
X131254606Y-86363930D01*
X131279786Y-86406465D01*
X131290413Y-86459890D01*
X131324338Y-86510662D01*
X131375110Y-86544587D01*
X131435000Y-86556500D01*
X133465000Y-86556500D01*
X133465283Y-86556444D01*
X133513713Y-86568855D01*
X133543397Y-86610279D01*
X133546150Y-86630304D01*
X133546256Y-86829626D01*
X133528852Y-86877523D01*
X133484732Y-86903027D01*
X133466204Y-86903739D01*
X133465000Y-86903500D01*
X131435000Y-86903500D01*
X131375110Y-86915413D01*
X131324338Y-86949338D01*
X131290413Y-87000110D01*
X131278500Y-87060000D01*
X131278500Y-87119896D01*
X131261070Y-87167784D01*
X131216937Y-87193264D01*
X131166750Y-87184415D01*
X131135627Y-87149484D01*
X131078027Y-87016379D01*
X131076010Y-87011718D01*
X130980950Y-86894329D01*
X130976810Y-86891387D01*
X130976808Y-86891385D01*
X130861962Y-86809769D01*
X130857824Y-86806828D01*
X130715703Y-86755661D01*
X130710643Y-86755289D01*
X130710641Y-86755289D01*
X130570123Y-86744970D01*
X130565057Y-86744598D01*
X130560078Y-86745602D01*
X130560077Y-86745602D01*
X130510192Y-86755661D01*
X130416986Y-86774455D01*
X130412463Y-86776760D01*
X130412459Y-86776761D01*
X130364436Y-86801230D01*
X130282398Y-86843030D01*
X130278659Y-86846469D01*
X130278658Y-86846469D01*
X130226611Y-86894329D01*
X130171209Y-86945274D01*
X130168532Y-86949592D01*
X130168530Y-86949594D01*
X130129057Y-87013258D01*
X130089009Y-87044773D01*
X130065740Y-87048500D01*
X130035033Y-87048500D01*
X129987145Y-87031070D01*
X129982354Y-87026679D01*
X128900804Y-85945129D01*
X128891539Y-85933840D01*
X128885450Y-85924727D01*
X128885446Y-85924723D01*
X128881373Y-85918627D01*
X128798158Y-85863025D01*
X128781130Y-85859638D01*
X128737562Y-85833202D01*
X128721521Y-85793874D01*
X128721500Y-85793661D01*
X128721500Y-85790000D01*
X128709587Y-85730110D01*
X128675662Y-85679338D01*
X128624890Y-85645413D01*
X128565000Y-85633500D01*
X126535000Y-85633500D01*
X126535000Y-85633427D01*
X126486857Y-85621089D01*
X126457172Y-85579666D01*
X126454419Y-85559560D01*
X126454528Y-85352266D01*
X126456903Y-85335999D01*
X126456821Y-85335986D01*
X126457591Y-85331164D01*
X126458984Y-85326483D01*
X126460496Y-85271365D01*
X126461104Y-85263694D01*
X126461571Y-85260146D01*
X126461572Y-85260144D01*
X126461572Y-85260139D01*
X126463472Y-85250593D01*
X126482135Y-85180943D01*
X126489576Y-85162976D01*
X126524823Y-85101927D01*
X126536663Y-85086498D01*
X126586501Y-85036660D01*
X126601931Y-85024820D01*
X126662975Y-84989577D01*
X126680940Y-84982135D01*
X126750605Y-84963469D01*
X126760150Y-84961571D01*
X126763693Y-84961104D01*
X126771359Y-84960496D01*
X126817767Y-84959223D01*
X126821600Y-84959118D01*
X126826484Y-84958984D01*
X126831165Y-84957591D01*
X126835989Y-84956821D01*
X126836004Y-84956916D01*
X126852223Y-84954554D01*
X133147778Y-84954554D01*
X133163997Y-84956916D01*
G37*
%TD.AperFunction*%
%TA.AperFunction,NonConductor*%
G36*
X121695024Y-100472561D02*
G01*
X121716513Y-100487539D01*
X123884839Y-102655865D01*
X123887524Y-102658694D01*
X123908394Y-102681873D01*
X123908396Y-102681874D01*
X123913634Y-102687692D01*
X123936023Y-102697660D01*
X123946297Y-102703238D01*
X123966858Y-102716591D01*
X123975307Y-102717929D01*
X123993953Y-102723452D01*
X124001764Y-102726930D01*
X124002430Y-102727000D01*
X124026717Y-102727000D01*
X124038371Y-102727917D01*
X124062143Y-102731682D01*
X124069704Y-102729656D01*
X124069705Y-102729656D01*
X124070145Y-102729538D01*
X124089426Y-102727000D01*
X130383644Y-102727000D01*
X130431532Y-102744430D01*
X130440640Y-102754930D01*
X130441220Y-102754443D01*
X130529065Y-102858947D01*
X130533482Y-102861887D01*
X130533484Y-102861889D01*
X130534468Y-102862544D01*
X130534952Y-102863201D01*
X130537441Y-102865427D01*
X130536974Y-102865949D01*
X130564673Y-102903589D01*
X130561428Y-102954447D01*
X130541763Y-102980901D01*
X130537930Y-102983319D01*
X130447559Y-103085646D01*
X130445690Y-103089627D01*
X130405133Y-103119858D01*
X130383724Y-103123000D01*
X124124885Y-103123000D01*
X124076997Y-103105570D01*
X124072206Y-103101179D01*
X121573727Y-100602701D01*
X121552189Y-100556515D01*
X121565379Y-100507291D01*
X121607124Y-100478061D01*
X121608513Y-100477790D01*
X121609514Y-100477808D01*
X121612282Y-100477053D01*
X121612284Y-100477053D01*
X121628760Y-100472561D01*
X121644239Y-100468341D01*
X121695024Y-100472561D01*
G37*
%TD.AperFunction*%
M02*
