%TF.GenerationSoftware,KiCad,Pcbnew,(5.99.0-10421-g7afc3f7df9)*%
%TF.CreationDate,2021-06-08T10:33:46+02:00*%
%TF.ProjectId,bottom_tray_pcb,626f7474-6f6d-45f7-9472-61795f706362,rev?*%
%TF.SameCoordinates,Original*%
%TF.FileFunction,Legend,Bot*%
%TF.FilePolarity,Positive*%
%FSLAX46Y46*%
G04 Gerber Fmt 4.6, Leading zero omitted, Abs format (unit mm)*
G04 Created by KiCad (PCBNEW (5.99.0-10421-g7afc3f7df9)) date 2021-06-08 10:33:46*
%MOMM*%
%LPD*%
G01*
G04 APERTURE LIST*
%ADD10C,0.150000*%
%ADD11C,0.125000*%
%ADD12C,0.200000*%
%ADD13C,0.120000*%
%ADD14C,0.100000*%
%ADD15C,0.152400*%
G04 APERTURE END LIST*
D10*
%TO.C,U4*%
X306336904Y-51690476D02*
X306984523Y-51690476D01*
X307060714Y-51728571D01*
X307098809Y-51766666D01*
X307136904Y-51842857D01*
X307136904Y-51995238D01*
X307098809Y-52071428D01*
X307060714Y-52109523D01*
X306984523Y-52147619D01*
X306336904Y-52147619D01*
X306603571Y-52871428D02*
X307136904Y-52871428D01*
X306298809Y-52680952D02*
X306870238Y-52490476D01*
X306870238Y-52985714D01*
%TO.C,JP3*%
X393661904Y-206633333D02*
X394233333Y-206633333D01*
X394347619Y-206595238D01*
X394423809Y-206519047D01*
X394461904Y-206404761D01*
X394461904Y-206328571D01*
X394461904Y-207014285D02*
X393661904Y-207014285D01*
X393661904Y-207319047D01*
X393700000Y-207395238D01*
X393738095Y-207433333D01*
X393814285Y-207471428D01*
X393928571Y-207471428D01*
X394004761Y-207433333D01*
X394042857Y-207395238D01*
X394080952Y-207319047D01*
X394080952Y-207014285D01*
X393661904Y-207738095D02*
X393661904Y-208233333D01*
X393966666Y-207966666D01*
X393966666Y-208080952D01*
X394004761Y-208157142D01*
X394042857Y-208195238D01*
X394119047Y-208233333D01*
X394309523Y-208233333D01*
X394385714Y-208195238D01*
X394423809Y-208157142D01*
X394461904Y-208080952D01*
X394461904Y-207852380D01*
X394423809Y-207776190D01*
X394385714Y-207738095D01*
X393171428Y-204761904D02*
X393628571Y-204761904D01*
X393400000Y-204761904D02*
X393400000Y-203961904D01*
X393476190Y-204076190D01*
X393552380Y-204152380D01*
X393628571Y-204190476D01*
X398866666Y-203961904D02*
X398371428Y-203961904D01*
X398638095Y-204266666D01*
X398523809Y-204266666D01*
X398447619Y-204304761D01*
X398409523Y-204342857D01*
X398371428Y-204419047D01*
X398371428Y-204609523D01*
X398409523Y-204685714D01*
X398447619Y-204723809D01*
X398523809Y-204761904D01*
X398752380Y-204761904D01*
X398828571Y-204723809D01*
X398866666Y-204685714D01*
%TO.C,C3*%
X307235714Y-55116666D02*
X307273809Y-55078571D01*
X307311904Y-54964285D01*
X307311904Y-54888095D01*
X307273809Y-54773809D01*
X307197619Y-54697619D01*
X307121428Y-54659523D01*
X306969047Y-54621428D01*
X306854761Y-54621428D01*
X306702380Y-54659523D01*
X306626190Y-54697619D01*
X306550000Y-54773809D01*
X306511904Y-54888095D01*
X306511904Y-54964285D01*
X306550000Y-55078571D01*
X306588095Y-55116666D01*
X306511904Y-55383333D02*
X306511904Y-55878571D01*
X306816666Y-55611904D01*
X306816666Y-55726190D01*
X306854761Y-55802380D01*
X306892857Y-55840476D01*
X306969047Y-55878571D01*
X307159523Y-55878571D01*
X307235714Y-55840476D01*
X307273809Y-55802380D01*
X307311904Y-55726190D01*
X307311904Y-55497619D01*
X307273809Y-55421428D01*
X307235714Y-55383333D01*
%TO.C,R14*%
X306561904Y-212785714D02*
X306180952Y-212519047D01*
X306561904Y-212328571D02*
X305761904Y-212328571D01*
X305761904Y-212633333D01*
X305800000Y-212709523D01*
X305838095Y-212747619D01*
X305914285Y-212785714D01*
X306028571Y-212785714D01*
X306104761Y-212747619D01*
X306142857Y-212709523D01*
X306180952Y-212633333D01*
X306180952Y-212328571D01*
X306561904Y-213547619D02*
X306561904Y-213090476D01*
X306561904Y-213319047D02*
X305761904Y-213319047D01*
X305876190Y-213242857D01*
X305952380Y-213166666D01*
X305990476Y-213090476D01*
X306028571Y-214233333D02*
X306561904Y-214233333D01*
X305723809Y-214042857D02*
X306295238Y-213852380D01*
X306295238Y-214347619D01*
%TO.C,C9*%
X125933333Y-210585714D02*
X125971428Y-210623809D01*
X126085714Y-210661904D01*
X126161904Y-210661904D01*
X126276190Y-210623809D01*
X126352380Y-210547619D01*
X126390476Y-210471428D01*
X126428571Y-210319047D01*
X126428571Y-210204761D01*
X126390476Y-210052380D01*
X126352380Y-209976190D01*
X126276190Y-209900000D01*
X126161904Y-209861904D01*
X126085714Y-209861904D01*
X125971428Y-209900000D01*
X125933333Y-209938095D01*
X125552380Y-210661904D02*
X125400000Y-210661904D01*
X125323809Y-210623809D01*
X125285714Y-210585714D01*
X125209523Y-210471428D01*
X125171428Y-210319047D01*
X125171428Y-210014285D01*
X125209523Y-209938095D01*
X125247619Y-209900000D01*
X125323809Y-209861904D01*
X125476190Y-209861904D01*
X125552380Y-209900000D01*
X125590476Y-209938095D01*
X125628571Y-210014285D01*
X125628571Y-210204761D01*
X125590476Y-210280952D01*
X125552380Y-210319047D01*
X125476190Y-210357142D01*
X125323809Y-210357142D01*
X125247619Y-210319047D01*
X125209523Y-210280952D01*
X125171428Y-210204761D01*
%TO.C,R5*%
X387861904Y-195266666D02*
X387480952Y-195000000D01*
X387861904Y-194809523D02*
X387061904Y-194809523D01*
X387061904Y-195114285D01*
X387100000Y-195190476D01*
X387138095Y-195228571D01*
X387214285Y-195266666D01*
X387328571Y-195266666D01*
X387404761Y-195228571D01*
X387442857Y-195190476D01*
X387480952Y-195114285D01*
X387480952Y-194809523D01*
X387061904Y-195990476D02*
X387061904Y-195609523D01*
X387442857Y-195571428D01*
X387404761Y-195609523D01*
X387366666Y-195685714D01*
X387366666Y-195876190D01*
X387404761Y-195952380D01*
X387442857Y-195990476D01*
X387519047Y-196028571D01*
X387709523Y-196028571D01*
X387785714Y-195990476D01*
X387823809Y-195952380D01*
X387861904Y-195876190D01*
X387861904Y-195685714D01*
X387823809Y-195609523D01*
X387785714Y-195571428D01*
%TO.C,R6*%
X397861904Y-191441666D02*
X397480952Y-191175000D01*
X397861904Y-190984523D02*
X397061904Y-190984523D01*
X397061904Y-191289285D01*
X397100000Y-191365476D01*
X397138095Y-191403571D01*
X397214285Y-191441666D01*
X397328571Y-191441666D01*
X397404761Y-191403571D01*
X397442857Y-191365476D01*
X397480952Y-191289285D01*
X397480952Y-190984523D01*
X397061904Y-192127380D02*
X397061904Y-191975000D01*
X397100000Y-191898809D01*
X397138095Y-191860714D01*
X397252380Y-191784523D01*
X397404761Y-191746428D01*
X397709523Y-191746428D01*
X397785714Y-191784523D01*
X397823809Y-191822619D01*
X397861904Y-191898809D01*
X397861904Y-192051190D01*
X397823809Y-192127380D01*
X397785714Y-192165476D01*
X397709523Y-192203571D01*
X397519047Y-192203571D01*
X397442857Y-192165476D01*
X397404761Y-192127380D01*
X397366666Y-192051190D01*
X397366666Y-191898809D01*
X397404761Y-191822619D01*
X397442857Y-191784523D01*
X397519047Y-191746428D01*
%TO.C,JP11*%
X31485714Y-194771428D02*
X31485714Y-195200000D01*
X31514285Y-195285714D01*
X31571428Y-195342857D01*
X31657142Y-195371428D01*
X31714285Y-195371428D01*
X31200000Y-195371428D02*
X31200000Y-194771428D01*
X30971428Y-194771428D01*
X30914285Y-194800000D01*
X30885714Y-194828571D01*
X30857142Y-194885714D01*
X30857142Y-194971428D01*
X30885714Y-195028571D01*
X30914285Y-195057142D01*
X30971428Y-195085714D01*
X31200000Y-195085714D01*
X30285714Y-195371428D02*
X30628571Y-195371428D01*
X30457142Y-195371428D02*
X30457142Y-194771428D01*
X30514285Y-194857142D01*
X30571428Y-194914285D01*
X30628571Y-194942857D01*
X29714285Y-195371428D02*
X30057142Y-195371428D01*
X29885714Y-195371428D02*
X29885714Y-194771428D01*
X29942857Y-194857142D01*
X30000000Y-194914285D01*
X30057142Y-194942857D01*
%TO.C,C15*%
X34114285Y-197814285D02*
X34142857Y-197785714D01*
X34171428Y-197700000D01*
X34171428Y-197642857D01*
X34142857Y-197557142D01*
X34085714Y-197500000D01*
X34028571Y-197471428D01*
X33914285Y-197442857D01*
X33828571Y-197442857D01*
X33714285Y-197471428D01*
X33657142Y-197500000D01*
X33600000Y-197557142D01*
X33571428Y-197642857D01*
X33571428Y-197700000D01*
X33600000Y-197785714D01*
X33628571Y-197814285D01*
X34171428Y-198385714D02*
X34171428Y-198042857D01*
X34171428Y-198214285D02*
X33571428Y-198214285D01*
X33657142Y-198157142D01*
X33714285Y-198100000D01*
X33742857Y-198042857D01*
X33571428Y-198928571D02*
X33571428Y-198642857D01*
X33857142Y-198614285D01*
X33828571Y-198642857D01*
X33800000Y-198700000D01*
X33800000Y-198842857D01*
X33828571Y-198900000D01*
X33857142Y-198928571D01*
X33914285Y-198957142D01*
X34057142Y-198957142D01*
X34114285Y-198928571D01*
X34142857Y-198900000D01*
X34171428Y-198842857D01*
X34171428Y-198700000D01*
X34142857Y-198642857D01*
X34114285Y-198614285D01*
D11*
%TO.C,C18*%
X33914285Y-205014285D02*
X33942857Y-204985714D01*
X33971428Y-204900000D01*
X33971428Y-204842857D01*
X33942857Y-204757142D01*
X33885714Y-204700000D01*
X33828571Y-204671428D01*
X33714285Y-204642857D01*
X33628571Y-204642857D01*
X33514285Y-204671428D01*
X33457142Y-204700000D01*
X33400000Y-204757142D01*
X33371428Y-204842857D01*
X33371428Y-204900000D01*
X33400000Y-204985714D01*
X33428571Y-205014285D01*
X33971428Y-205585714D02*
X33971428Y-205242857D01*
X33971428Y-205414285D02*
X33371428Y-205414285D01*
X33457142Y-205357142D01*
X33514285Y-205300000D01*
X33542857Y-205242857D01*
X33628571Y-205928571D02*
X33600000Y-205871428D01*
X33571428Y-205842857D01*
X33514285Y-205814285D01*
X33485714Y-205814285D01*
X33428571Y-205842857D01*
X33400000Y-205871428D01*
X33371428Y-205928571D01*
X33371428Y-206042857D01*
X33400000Y-206100000D01*
X33428571Y-206128571D01*
X33485714Y-206157142D01*
X33514285Y-206157142D01*
X33571428Y-206128571D01*
X33600000Y-206100000D01*
X33628571Y-206042857D01*
X33628571Y-205928571D01*
X33657142Y-205871428D01*
X33685714Y-205842857D01*
X33742857Y-205814285D01*
X33857142Y-205814285D01*
X33914285Y-205842857D01*
X33942857Y-205871428D01*
X33971428Y-205928571D01*
X33971428Y-206042857D01*
X33942857Y-206100000D01*
X33914285Y-206128571D01*
X33857142Y-206157142D01*
X33742857Y-206157142D01*
X33685714Y-206128571D01*
X33657142Y-206100000D01*
X33628571Y-206042857D01*
D10*
%TO.C,U3*%
X394198904Y-64190476D02*
X394846523Y-64190476D01*
X394922714Y-64228571D01*
X394960809Y-64266666D01*
X394998904Y-64342857D01*
X394998904Y-64495238D01*
X394960809Y-64571428D01*
X394922714Y-64609523D01*
X394846523Y-64647619D01*
X394198904Y-64647619D01*
X394198904Y-64952380D02*
X394198904Y-65447619D01*
X394503666Y-65180952D01*
X394503666Y-65295238D01*
X394541761Y-65371428D01*
X394579857Y-65409523D01*
X394656047Y-65447619D01*
X394846523Y-65447619D01*
X394922714Y-65409523D01*
X394960809Y-65371428D01*
X394998904Y-65295238D01*
X394998904Y-65066666D01*
X394960809Y-64990476D01*
X394922714Y-64952380D01*
D11*
%TO.C,C17*%
X29585714Y-202678571D02*
X29614285Y-202702380D01*
X29700000Y-202726190D01*
X29757142Y-202726190D01*
X29842857Y-202702380D01*
X29900000Y-202654761D01*
X29928571Y-202607142D01*
X29957142Y-202511904D01*
X29957142Y-202440476D01*
X29928571Y-202345238D01*
X29900000Y-202297619D01*
X29842857Y-202250000D01*
X29757142Y-202226190D01*
X29700000Y-202226190D01*
X29614285Y-202250000D01*
X29585714Y-202273809D01*
X29014285Y-202726190D02*
X29357142Y-202726190D01*
X29185714Y-202726190D02*
X29185714Y-202226190D01*
X29242857Y-202297619D01*
X29300000Y-202345238D01*
X29357142Y-202369047D01*
X28814285Y-202226190D02*
X28414285Y-202226190D01*
X28671428Y-202726190D01*
D10*
%TO.C,JP9*%
X394661904Y-77733333D02*
X395233333Y-77733333D01*
X395347619Y-77695238D01*
X395423809Y-77619047D01*
X395461904Y-77504761D01*
X395461904Y-77428571D01*
X395461904Y-78114285D02*
X394661904Y-78114285D01*
X394661904Y-78419047D01*
X394700000Y-78495238D01*
X394738095Y-78533333D01*
X394814285Y-78571428D01*
X394928571Y-78571428D01*
X395004761Y-78533333D01*
X395042857Y-78495238D01*
X395080952Y-78419047D01*
X395080952Y-78114285D01*
X395461904Y-78952380D02*
X395461904Y-79104761D01*
X395423809Y-79180952D01*
X395385714Y-79219047D01*
X395271428Y-79295238D01*
X395119047Y-79333333D01*
X394814285Y-79333333D01*
X394738095Y-79295238D01*
X394700000Y-79257142D01*
X394661904Y-79180952D01*
X394661904Y-79028571D01*
X394700000Y-78952380D01*
X394738095Y-78914285D01*
X394814285Y-78876190D01*
X395004761Y-78876190D01*
X395080952Y-78914285D01*
X395119047Y-78952380D01*
X395157142Y-79028571D01*
X395157142Y-79180952D01*
X395119047Y-79257142D01*
X395080952Y-79295238D01*
X395004761Y-79333333D01*
X392561904Y-75633333D02*
X392561904Y-76128571D01*
X392866666Y-75861904D01*
X392866666Y-75976190D01*
X392904761Y-76052380D01*
X392942857Y-76090476D01*
X393019047Y-76128571D01*
X393209523Y-76128571D01*
X393285714Y-76090476D01*
X393323809Y-76052380D01*
X393361904Y-75976190D01*
X393361904Y-75747619D01*
X393323809Y-75671428D01*
X393285714Y-75633333D01*
X393361904Y-81328571D02*
X393361904Y-80871428D01*
X393361904Y-81100000D02*
X392561904Y-81100000D01*
X392676190Y-81023809D01*
X392752380Y-80947619D01*
X392790476Y-80871428D01*
%TO.C,Q3*%
X387938095Y-192523809D02*
X387900000Y-192447619D01*
X387823809Y-192371428D01*
X387709523Y-192257142D01*
X387671428Y-192180952D01*
X387671428Y-192104761D01*
X387861904Y-192142857D02*
X387823809Y-192066666D01*
X387747619Y-191990476D01*
X387595238Y-191952380D01*
X387328571Y-191952380D01*
X387176190Y-191990476D01*
X387100000Y-192066666D01*
X387061904Y-192142857D01*
X387061904Y-192295238D01*
X387100000Y-192371428D01*
X387176190Y-192447619D01*
X387328571Y-192485714D01*
X387595238Y-192485714D01*
X387747619Y-192447619D01*
X387823809Y-192371428D01*
X387861904Y-192295238D01*
X387861904Y-192142857D01*
X387061904Y-192752380D02*
X387061904Y-193247619D01*
X387366666Y-192980952D01*
X387366666Y-193095238D01*
X387404761Y-193171428D01*
X387442857Y-193209523D01*
X387519047Y-193247619D01*
X387709523Y-193247619D01*
X387785714Y-193209523D01*
X387823809Y-193171428D01*
X387861904Y-193095238D01*
X387861904Y-192866666D01*
X387823809Y-192790476D01*
X387785714Y-192752380D01*
%TO.C,C10*%
X126314285Y-213085714D02*
X126352380Y-213123809D01*
X126466666Y-213161904D01*
X126542857Y-213161904D01*
X126657142Y-213123809D01*
X126733333Y-213047619D01*
X126771428Y-212971428D01*
X126809523Y-212819047D01*
X126809523Y-212704761D01*
X126771428Y-212552380D01*
X126733333Y-212476190D01*
X126657142Y-212400000D01*
X126542857Y-212361904D01*
X126466666Y-212361904D01*
X126352380Y-212400000D01*
X126314285Y-212438095D01*
X125552380Y-213161904D02*
X126009523Y-213161904D01*
X125780952Y-213161904D02*
X125780952Y-212361904D01*
X125857142Y-212476190D01*
X125933333Y-212552380D01*
X126009523Y-212590476D01*
X125057142Y-212361904D02*
X124980952Y-212361904D01*
X124904761Y-212400000D01*
X124866666Y-212438095D01*
X124828571Y-212514285D01*
X124790476Y-212666666D01*
X124790476Y-212857142D01*
X124828571Y-213009523D01*
X124866666Y-213085714D01*
X124904761Y-213123809D01*
X124980952Y-213161904D01*
X125057142Y-213161904D01*
X125133333Y-213123809D01*
X125171428Y-213085714D01*
X125209523Y-213009523D01*
X125247619Y-212857142D01*
X125247619Y-212666666D01*
X125209523Y-212514285D01*
X125171428Y-212438095D01*
X125133333Y-212400000D01*
X125057142Y-212361904D01*
%TO.C,R26*%
X25771428Y-207314285D02*
X25485714Y-207114285D01*
X25771428Y-206971428D02*
X25171428Y-206971428D01*
X25171428Y-207200000D01*
X25200000Y-207257142D01*
X25228571Y-207285714D01*
X25285714Y-207314285D01*
X25371428Y-207314285D01*
X25428571Y-207285714D01*
X25457142Y-207257142D01*
X25485714Y-207200000D01*
X25485714Y-206971428D01*
X25228571Y-207542857D02*
X25200000Y-207571428D01*
X25171428Y-207628571D01*
X25171428Y-207771428D01*
X25200000Y-207828571D01*
X25228571Y-207857142D01*
X25285714Y-207885714D01*
X25342857Y-207885714D01*
X25428571Y-207857142D01*
X25771428Y-207514285D01*
X25771428Y-207885714D01*
X25171428Y-208400000D02*
X25171428Y-208285714D01*
X25200000Y-208228571D01*
X25228571Y-208200000D01*
X25314285Y-208142857D01*
X25428571Y-208114285D01*
X25657142Y-208114285D01*
X25714285Y-208142857D01*
X25742857Y-208171428D01*
X25771428Y-208228571D01*
X25771428Y-208342857D01*
X25742857Y-208400000D01*
X25714285Y-208428571D01*
X25657142Y-208457142D01*
X25514285Y-208457142D01*
X25457142Y-208428571D01*
X25428571Y-208400000D01*
X25400000Y-208342857D01*
X25400000Y-208228571D01*
X25428571Y-208171428D01*
X25457142Y-208142857D01*
X25514285Y-208114285D01*
%TO.C,R7*%
X387861904Y-190266666D02*
X387480952Y-190000000D01*
X387861904Y-189809523D02*
X387061904Y-189809523D01*
X387061904Y-190114285D01*
X387100000Y-190190476D01*
X387138095Y-190228571D01*
X387214285Y-190266666D01*
X387328571Y-190266666D01*
X387404761Y-190228571D01*
X387442857Y-190190476D01*
X387480952Y-190114285D01*
X387480952Y-189809523D01*
X387061904Y-190533333D02*
X387061904Y-191066666D01*
X387861904Y-190723809D01*
%TO.C,JP1*%
X32616666Y-64161904D02*
X32616666Y-64733333D01*
X32654761Y-64847619D01*
X32730952Y-64923809D01*
X32845238Y-64961904D01*
X32921428Y-64961904D01*
X32235714Y-64961904D02*
X32235714Y-64161904D01*
X31930952Y-64161904D01*
X31854761Y-64200000D01*
X31816666Y-64238095D01*
X31778571Y-64314285D01*
X31778571Y-64428571D01*
X31816666Y-64504761D01*
X31854761Y-64542857D01*
X31930952Y-64580952D01*
X32235714Y-64580952D01*
X31016666Y-64961904D02*
X31473809Y-64961904D01*
X31245238Y-64961904D02*
X31245238Y-64161904D01*
X31321428Y-64276190D01*
X31397619Y-64352380D01*
X31473809Y-64390476D01*
%TO.C,R2*%
X387861904Y-185866666D02*
X387480952Y-185600000D01*
X387861904Y-185409523D02*
X387061904Y-185409523D01*
X387061904Y-185714285D01*
X387100000Y-185790476D01*
X387138095Y-185828571D01*
X387214285Y-185866666D01*
X387328571Y-185866666D01*
X387404761Y-185828571D01*
X387442857Y-185790476D01*
X387480952Y-185714285D01*
X387480952Y-185409523D01*
X387138095Y-186171428D02*
X387100000Y-186209523D01*
X387061904Y-186285714D01*
X387061904Y-186476190D01*
X387100000Y-186552380D01*
X387138095Y-186590476D01*
X387214285Y-186628571D01*
X387290476Y-186628571D01*
X387404761Y-186590476D01*
X387861904Y-186133333D01*
X387861904Y-186628571D01*
%TO.C,R15*%
X298461904Y-212885714D02*
X298080952Y-212619047D01*
X298461904Y-212428571D02*
X297661904Y-212428571D01*
X297661904Y-212733333D01*
X297700000Y-212809523D01*
X297738095Y-212847619D01*
X297814285Y-212885714D01*
X297928571Y-212885714D01*
X298004761Y-212847619D01*
X298042857Y-212809523D01*
X298080952Y-212733333D01*
X298080952Y-212428571D01*
X298461904Y-213647619D02*
X298461904Y-213190476D01*
X298461904Y-213419047D02*
X297661904Y-213419047D01*
X297776190Y-213342857D01*
X297852380Y-213266666D01*
X297890476Y-213190476D01*
X297661904Y-214371428D02*
X297661904Y-213990476D01*
X298042857Y-213952380D01*
X298004761Y-213990476D01*
X297966666Y-214066666D01*
X297966666Y-214257142D01*
X298004761Y-214333333D01*
X298042857Y-214371428D01*
X298119047Y-214409523D01*
X298309523Y-214409523D01*
X298385714Y-214371428D01*
X298423809Y-214333333D01*
X298461904Y-214257142D01*
X298461904Y-214066666D01*
X298423809Y-213990476D01*
X298385714Y-213952380D01*
%TO.C,U2*%
X397261904Y-200190476D02*
X397909523Y-200190476D01*
X397985714Y-200228571D01*
X398023809Y-200266666D01*
X398061904Y-200342857D01*
X398061904Y-200495238D01*
X398023809Y-200571428D01*
X397985714Y-200609523D01*
X397909523Y-200647619D01*
X397261904Y-200647619D01*
X397338095Y-200990476D02*
X397300000Y-201028571D01*
X397261904Y-201104761D01*
X397261904Y-201295238D01*
X397300000Y-201371428D01*
X397338095Y-201409523D01*
X397414285Y-201447619D01*
X397490476Y-201447619D01*
X397604761Y-201409523D01*
X398061904Y-200952380D01*
X398061904Y-201447619D01*
%TO.C,C2*%
X390311714Y-59766666D02*
X390349809Y-59728571D01*
X390387904Y-59614285D01*
X390387904Y-59538095D01*
X390349809Y-59423809D01*
X390273619Y-59347619D01*
X390197428Y-59309523D01*
X390045047Y-59271428D01*
X389930761Y-59271428D01*
X389778380Y-59309523D01*
X389702190Y-59347619D01*
X389626000Y-59423809D01*
X389587904Y-59538095D01*
X389587904Y-59614285D01*
X389626000Y-59728571D01*
X389664095Y-59766666D01*
X389664095Y-60071428D02*
X389626000Y-60109523D01*
X389587904Y-60185714D01*
X389587904Y-60376190D01*
X389626000Y-60452380D01*
X389664095Y-60490476D01*
X389740285Y-60528571D01*
X389816476Y-60528571D01*
X389930761Y-60490476D01*
X390387904Y-60033333D01*
X390387904Y-60528571D01*
%TO.C,R1*%
X397861904Y-186641666D02*
X397480952Y-186375000D01*
X397861904Y-186184523D02*
X397061904Y-186184523D01*
X397061904Y-186489285D01*
X397100000Y-186565476D01*
X397138095Y-186603571D01*
X397214285Y-186641666D01*
X397328571Y-186641666D01*
X397404761Y-186603571D01*
X397442857Y-186565476D01*
X397480952Y-186489285D01*
X397480952Y-186184523D01*
X397861904Y-187403571D02*
X397861904Y-186946428D01*
X397861904Y-187175000D02*
X397061904Y-187175000D01*
X397176190Y-187098809D01*
X397252380Y-187022619D01*
X397290476Y-186946428D01*
%TO.C,C4*%
X302335714Y-52716666D02*
X302373809Y-52678571D01*
X302411904Y-52564285D01*
X302411904Y-52488095D01*
X302373809Y-52373809D01*
X302297619Y-52297619D01*
X302221428Y-52259523D01*
X302069047Y-52221428D01*
X301954761Y-52221428D01*
X301802380Y-52259523D01*
X301726190Y-52297619D01*
X301650000Y-52373809D01*
X301611904Y-52488095D01*
X301611904Y-52564285D01*
X301650000Y-52678571D01*
X301688095Y-52716666D01*
X301878571Y-53402380D02*
X302411904Y-53402380D01*
X301573809Y-53211904D02*
X302145238Y-53021428D01*
X302145238Y-53516666D01*
%TO.C,C13*%
X302285714Y-53785714D02*
X302323809Y-53747619D01*
X302361904Y-53633333D01*
X302361904Y-53557142D01*
X302323809Y-53442857D01*
X302247619Y-53366666D01*
X302171428Y-53328571D01*
X302019047Y-53290476D01*
X301904761Y-53290476D01*
X301752380Y-53328571D01*
X301676190Y-53366666D01*
X301600000Y-53442857D01*
X301561904Y-53557142D01*
X301561904Y-53633333D01*
X301600000Y-53747619D01*
X301638095Y-53785714D01*
X302361904Y-54547619D02*
X302361904Y-54090476D01*
X302361904Y-54319047D02*
X301561904Y-54319047D01*
X301676190Y-54242857D01*
X301752380Y-54166666D01*
X301790476Y-54090476D01*
X301561904Y-54814285D02*
X301561904Y-55309523D01*
X301866666Y-55042857D01*
X301866666Y-55157142D01*
X301904761Y-55233333D01*
X301942857Y-55271428D01*
X302019047Y-55309523D01*
X302209523Y-55309523D01*
X302285714Y-55271428D01*
X302323809Y-55233333D01*
X302361904Y-55157142D01*
X302361904Y-54928571D01*
X302323809Y-54852380D01*
X302285714Y-54814285D01*
%TO.C,JP12*%
X23916666Y-205016666D02*
X23916666Y-205516666D01*
X23950000Y-205616666D01*
X24016666Y-205683333D01*
X24116666Y-205716666D01*
X24183333Y-205716666D01*
X23583333Y-205716666D02*
X23583333Y-205016666D01*
X23316666Y-205016666D01*
X23250000Y-205050000D01*
X23216666Y-205083333D01*
X23183333Y-205150000D01*
X23183333Y-205250000D01*
X23216666Y-205316666D01*
X23250000Y-205350000D01*
X23316666Y-205383333D01*
X23583333Y-205383333D01*
X22516666Y-205716666D02*
X22916666Y-205716666D01*
X22716666Y-205716666D02*
X22716666Y-205016666D01*
X22783333Y-205116666D01*
X22850000Y-205183333D01*
X22916666Y-205216666D01*
X22250000Y-205083333D02*
X22216666Y-205050000D01*
X22150000Y-205016666D01*
X21983333Y-205016666D01*
X21916666Y-205050000D01*
X21883333Y-205083333D01*
X21850000Y-205150000D01*
X21850000Y-205216666D01*
X21883333Y-205316666D01*
X22283333Y-205716666D01*
X21850000Y-205716666D01*
%TO.C,JP2*%
X31166666Y-58211904D02*
X31166666Y-58783333D01*
X31204761Y-58897619D01*
X31280952Y-58973809D01*
X31395238Y-59011904D01*
X31471428Y-59011904D01*
X30785714Y-59011904D02*
X30785714Y-58211904D01*
X30480952Y-58211904D01*
X30404761Y-58250000D01*
X30366666Y-58288095D01*
X30328571Y-58364285D01*
X30328571Y-58478571D01*
X30366666Y-58554761D01*
X30404761Y-58592857D01*
X30480952Y-58630952D01*
X30785714Y-58630952D01*
X30023809Y-58288095D02*
X29985714Y-58250000D01*
X29909523Y-58211904D01*
X29719047Y-58211904D01*
X29642857Y-58250000D01*
X29604761Y-58288095D01*
X29566666Y-58364285D01*
X29566666Y-58440476D01*
X29604761Y-58554761D01*
X30061904Y-59011904D01*
X29566666Y-59011904D01*
%TO.C,C6*%
X125985714Y-55266666D02*
X126023809Y-55228571D01*
X126061904Y-55114285D01*
X126061904Y-55038095D01*
X126023809Y-54923809D01*
X125947619Y-54847619D01*
X125871428Y-54809523D01*
X125719047Y-54771428D01*
X125604761Y-54771428D01*
X125452380Y-54809523D01*
X125376190Y-54847619D01*
X125300000Y-54923809D01*
X125261904Y-55038095D01*
X125261904Y-55114285D01*
X125300000Y-55228571D01*
X125338095Y-55266666D01*
X125261904Y-55952380D02*
X125261904Y-55800000D01*
X125300000Y-55723809D01*
X125338095Y-55685714D01*
X125452380Y-55609523D01*
X125604761Y-55571428D01*
X125909523Y-55571428D01*
X125985714Y-55609523D01*
X126023809Y-55647619D01*
X126061904Y-55723809D01*
X126061904Y-55876190D01*
X126023809Y-55952380D01*
X125985714Y-55990476D01*
X125909523Y-56028571D01*
X125719047Y-56028571D01*
X125642857Y-55990476D01*
X125604761Y-55952380D01*
X125566666Y-55876190D01*
X125566666Y-55723809D01*
X125604761Y-55647619D01*
X125642857Y-55609523D01*
X125719047Y-55571428D01*
%TO.C,C1*%
X390985714Y-200666666D02*
X391023809Y-200628571D01*
X391061904Y-200514285D01*
X391061904Y-200438095D01*
X391023809Y-200323809D01*
X390947619Y-200247619D01*
X390871428Y-200209523D01*
X390719047Y-200171428D01*
X390604761Y-200171428D01*
X390452380Y-200209523D01*
X390376190Y-200247619D01*
X390300000Y-200323809D01*
X390261904Y-200438095D01*
X390261904Y-200514285D01*
X390300000Y-200628571D01*
X390338095Y-200666666D01*
X391061904Y-201428571D02*
X391061904Y-200971428D01*
X391061904Y-201200000D02*
X390261904Y-201200000D01*
X390376190Y-201123809D01*
X390452380Y-201047619D01*
X390490476Y-200971428D01*
%TO.C,R22*%
X289961404Y-51853625D02*
X289580452Y-51586958D01*
X289961404Y-51396482D02*
X289161404Y-51396482D01*
X289161404Y-51701244D01*
X289199500Y-51777434D01*
X289237595Y-51815530D01*
X289313785Y-51853625D01*
X289428071Y-51853625D01*
X289504261Y-51815530D01*
X289542357Y-51777434D01*
X289580452Y-51701244D01*
X289580452Y-51396482D01*
X289237595Y-52158387D02*
X289199500Y-52196482D01*
X289161404Y-52272672D01*
X289161404Y-52463149D01*
X289199500Y-52539339D01*
X289237595Y-52577434D01*
X289313785Y-52615530D01*
X289389976Y-52615530D01*
X289504261Y-52577434D01*
X289961404Y-52120291D01*
X289961404Y-52615530D01*
X289237595Y-52920291D02*
X289199500Y-52958387D01*
X289161404Y-53034577D01*
X289161404Y-53225053D01*
X289199500Y-53301244D01*
X289237595Y-53339339D01*
X289313785Y-53377434D01*
X289389976Y-53377434D01*
X289504261Y-53339339D01*
X289961404Y-52882196D01*
X289961404Y-53377434D01*
%TO.C,R4*%
X397861904Y-196041666D02*
X397480952Y-195775000D01*
X397861904Y-195584523D02*
X397061904Y-195584523D01*
X397061904Y-195889285D01*
X397100000Y-195965476D01*
X397138095Y-196003571D01*
X397214285Y-196041666D01*
X397328571Y-196041666D01*
X397404761Y-196003571D01*
X397442857Y-195965476D01*
X397480952Y-195889285D01*
X397480952Y-195584523D01*
X397328571Y-196727380D02*
X397861904Y-196727380D01*
X397023809Y-196536904D02*
X397595238Y-196346428D01*
X397595238Y-196841666D01*
%TO.C,C11*%
X293785714Y-209985714D02*
X293823809Y-209947619D01*
X293861904Y-209833333D01*
X293861904Y-209757142D01*
X293823809Y-209642857D01*
X293747619Y-209566666D01*
X293671428Y-209528571D01*
X293519047Y-209490476D01*
X293404761Y-209490476D01*
X293252380Y-209528571D01*
X293176190Y-209566666D01*
X293100000Y-209642857D01*
X293061904Y-209757142D01*
X293061904Y-209833333D01*
X293100000Y-209947619D01*
X293138095Y-209985714D01*
X293861904Y-210747619D02*
X293861904Y-210290476D01*
X293861904Y-210519047D02*
X293061904Y-210519047D01*
X293176190Y-210442857D01*
X293252380Y-210366666D01*
X293290476Y-210290476D01*
X293861904Y-211509523D02*
X293861904Y-211052380D01*
X293861904Y-211280952D02*
X293061904Y-211280952D01*
X293176190Y-211204761D01*
X293252380Y-211128571D01*
X293290476Y-211052380D01*
%TO.C,U11*%
X289761904Y-54659523D02*
X290409523Y-54659523D01*
X290485714Y-54697619D01*
X290523809Y-54735714D01*
X290561904Y-54811904D01*
X290561904Y-54964285D01*
X290523809Y-55040476D01*
X290485714Y-55078571D01*
X290409523Y-55116666D01*
X289761904Y-55116666D01*
X290561904Y-55916666D02*
X290561904Y-55459523D01*
X290561904Y-55688095D02*
X289761904Y-55688095D01*
X289876190Y-55611904D01*
X289952380Y-55535714D01*
X289990476Y-55459523D01*
X290561904Y-56678571D02*
X290561904Y-56221428D01*
X290561904Y-56450000D02*
X289761904Y-56450000D01*
X289876190Y-56373809D01*
X289952380Y-56297619D01*
X289990476Y-56221428D01*
X296250000Y-52802380D02*
X296250000Y-53040476D01*
X296488095Y-52945238D02*
X296250000Y-53040476D01*
X296011904Y-52945238D01*
X296392857Y-53230952D02*
X296250000Y-53040476D01*
X296107142Y-53230952D01*
%TO.C,JP10*%
X387861904Y-77452380D02*
X388433333Y-77452380D01*
X388547619Y-77414285D01*
X388623809Y-77338095D01*
X388661904Y-77223809D01*
X388661904Y-77147619D01*
X388661904Y-77833333D02*
X387861904Y-77833333D01*
X387861904Y-78138095D01*
X387900000Y-78214285D01*
X387938095Y-78252380D01*
X388014285Y-78290476D01*
X388128571Y-78290476D01*
X388204761Y-78252380D01*
X388242857Y-78214285D01*
X388280952Y-78138095D01*
X388280952Y-77833333D01*
X388661904Y-79052380D02*
X388661904Y-78595238D01*
X388661904Y-78823809D02*
X387861904Y-78823809D01*
X387976190Y-78747619D01*
X388052380Y-78671428D01*
X388090476Y-78595238D01*
X387861904Y-79547619D02*
X387861904Y-79623809D01*
X387900000Y-79700000D01*
X387938095Y-79738095D01*
X388014285Y-79776190D01*
X388166666Y-79814285D01*
X388357142Y-79814285D01*
X388509523Y-79776190D01*
X388585714Y-79738095D01*
X388623809Y-79700000D01*
X388661904Y-79623809D01*
X388661904Y-79547619D01*
X388623809Y-79471428D01*
X388585714Y-79433333D01*
X388509523Y-79395238D01*
X388357142Y-79357142D01*
X388166666Y-79357142D01*
X388014285Y-79395238D01*
X387938095Y-79433333D01*
X387900000Y-79471428D01*
X387861904Y-79547619D01*
X389761904Y-75633333D02*
X389761904Y-76128571D01*
X390066666Y-75861904D01*
X390066666Y-75976190D01*
X390104761Y-76052380D01*
X390142857Y-76090476D01*
X390219047Y-76128571D01*
X390409523Y-76128571D01*
X390485714Y-76090476D01*
X390523809Y-76052380D01*
X390561904Y-75976190D01*
X390561904Y-75747619D01*
X390523809Y-75671428D01*
X390485714Y-75633333D01*
X390561904Y-81328571D02*
X390561904Y-80871428D01*
X390561904Y-81100000D02*
X389761904Y-81100000D01*
X389876190Y-81023809D01*
X389952380Y-80947619D01*
X389990476Y-80871428D01*
%TO.C,L1*%
X35271428Y-208400000D02*
X35271428Y-208114285D01*
X34671428Y-208114285D01*
X35271428Y-208914285D02*
X35271428Y-208571428D01*
X35271428Y-208742857D02*
X34671428Y-208742857D01*
X34757142Y-208685714D01*
X34814285Y-208628571D01*
X34842857Y-208571428D01*
%TO.C,R25*%
X26446428Y-204114285D02*
X26160714Y-203914285D01*
X26446428Y-203771428D02*
X25846428Y-203771428D01*
X25846428Y-204000000D01*
X25875000Y-204057142D01*
X25903571Y-204085714D01*
X25960714Y-204114285D01*
X26046428Y-204114285D01*
X26103571Y-204085714D01*
X26132142Y-204057142D01*
X26160714Y-204000000D01*
X26160714Y-203771428D01*
X25903571Y-204342857D02*
X25875000Y-204371428D01*
X25846428Y-204428571D01*
X25846428Y-204571428D01*
X25875000Y-204628571D01*
X25903571Y-204657142D01*
X25960714Y-204685714D01*
X26017857Y-204685714D01*
X26103571Y-204657142D01*
X26446428Y-204314285D01*
X26446428Y-204685714D01*
X25846428Y-205228571D02*
X25846428Y-204942857D01*
X26132142Y-204914285D01*
X26103571Y-204942857D01*
X26075000Y-205000000D01*
X26075000Y-205142857D01*
X26103571Y-205200000D01*
X26132142Y-205228571D01*
X26189285Y-205257142D01*
X26332142Y-205257142D01*
X26389285Y-205228571D01*
X26417857Y-205200000D01*
X26446428Y-205142857D01*
X26446428Y-205000000D01*
X26417857Y-204942857D01*
X26389285Y-204914285D01*
%TO.C,U9*%
X305261904Y-209990476D02*
X305909523Y-209990476D01*
X305985714Y-210028571D01*
X306023809Y-210066666D01*
X306061904Y-210142857D01*
X306061904Y-210295238D01*
X306023809Y-210371428D01*
X305985714Y-210409523D01*
X305909523Y-210447619D01*
X305261904Y-210447619D01*
X306061904Y-210866666D02*
X306061904Y-211019047D01*
X306023809Y-211095238D01*
X305985714Y-211133333D01*
X305871428Y-211209523D01*
X305719047Y-211247619D01*
X305414285Y-211247619D01*
X305338095Y-211209523D01*
X305300000Y-211171428D01*
X305261904Y-211095238D01*
X305261904Y-210942857D01*
X305300000Y-210866666D01*
X305338095Y-210828571D01*
X305414285Y-210790476D01*
X305604761Y-210790476D01*
X305680952Y-210828571D01*
X305719047Y-210866666D01*
X305757142Y-210942857D01*
X305757142Y-211095238D01*
X305719047Y-211171428D01*
X305680952Y-211209523D01*
X305604761Y-211247619D01*
X299100000Y-212452380D02*
X299100000Y-212690476D01*
X299338095Y-212595238D02*
X299100000Y-212690476D01*
X298861904Y-212595238D01*
X299242857Y-212880952D02*
X299100000Y-212690476D01*
X298957142Y-212880952D01*
%TO.C,R3*%
X388661904Y-64366666D02*
X388280952Y-64100000D01*
X388661904Y-63909523D02*
X387861904Y-63909523D01*
X387861904Y-64214285D01*
X387900000Y-64290476D01*
X387938095Y-64328571D01*
X388014285Y-64366666D01*
X388128571Y-64366666D01*
X388204761Y-64328571D01*
X388242857Y-64290476D01*
X388280952Y-64214285D01*
X388280952Y-63909523D01*
X387861904Y-64633333D02*
X387861904Y-65128571D01*
X388166666Y-64861904D01*
X388166666Y-64976190D01*
X388204761Y-65052380D01*
X388242857Y-65090476D01*
X388319047Y-65128571D01*
X388509523Y-65128571D01*
X388585714Y-65090476D01*
X388623809Y-65052380D01*
X388661904Y-64976190D01*
X388661904Y-64747619D01*
X388623809Y-64671428D01*
X388585714Y-64633333D01*
%TO.C,JP4*%
X389561904Y-206533333D02*
X390133333Y-206533333D01*
X390247619Y-206495238D01*
X390323809Y-206419047D01*
X390361904Y-206304761D01*
X390361904Y-206228571D01*
X390361904Y-206914285D02*
X389561904Y-206914285D01*
X389561904Y-207219047D01*
X389600000Y-207295238D01*
X389638095Y-207333333D01*
X389714285Y-207371428D01*
X389828571Y-207371428D01*
X389904761Y-207333333D01*
X389942857Y-207295238D01*
X389980952Y-207219047D01*
X389980952Y-206914285D01*
X389828571Y-208057142D02*
X390361904Y-208057142D01*
X389523809Y-207866666D02*
X390095238Y-207676190D01*
X390095238Y-208171428D01*
X392071428Y-204761904D02*
X392528571Y-204761904D01*
X392300000Y-204761904D02*
X392300000Y-203961904D01*
X392376190Y-204076190D01*
X392452380Y-204152380D01*
X392528571Y-204190476D01*
X387366666Y-203961904D02*
X386871428Y-203961904D01*
X387138095Y-204266666D01*
X387023809Y-204266666D01*
X386947619Y-204304761D01*
X386909523Y-204342857D01*
X386871428Y-204419047D01*
X386871428Y-204609523D01*
X386909523Y-204685714D01*
X386947619Y-204723809D01*
X387023809Y-204761904D01*
X387252380Y-204761904D01*
X387328571Y-204723809D01*
X387366666Y-204685714D01*
%TO.C,J2*%
X21133333Y-201452380D02*
X21133333Y-202166666D01*
X21180952Y-202309523D01*
X21276190Y-202404761D01*
X21419047Y-202452380D01*
X21514285Y-202452380D01*
X20704761Y-201547619D02*
X20657142Y-201500000D01*
X20561904Y-201452380D01*
X20323809Y-201452380D01*
X20228571Y-201500000D01*
X20180952Y-201547619D01*
X20133333Y-201642857D01*
X20133333Y-201738095D01*
X20180952Y-201880952D01*
X20752380Y-202452380D01*
X20133333Y-202452380D01*
%TO.C,C20*%
X28585714Y-211914285D02*
X28614285Y-211942857D01*
X28700000Y-211971428D01*
X28757142Y-211971428D01*
X28842857Y-211942857D01*
X28900000Y-211885714D01*
X28928571Y-211828571D01*
X28957142Y-211714285D01*
X28957142Y-211628571D01*
X28928571Y-211514285D01*
X28900000Y-211457142D01*
X28842857Y-211400000D01*
X28757142Y-211371428D01*
X28700000Y-211371428D01*
X28614285Y-211400000D01*
X28585714Y-211428571D01*
X28357142Y-211428571D02*
X28328571Y-211400000D01*
X28271428Y-211371428D01*
X28128571Y-211371428D01*
X28071428Y-211400000D01*
X28042857Y-211428571D01*
X28014285Y-211485714D01*
X28014285Y-211542857D01*
X28042857Y-211628571D01*
X28385714Y-211971428D01*
X28014285Y-211971428D01*
X27642857Y-211371428D02*
X27585714Y-211371428D01*
X27528571Y-211400000D01*
X27500000Y-211428571D01*
X27471428Y-211485714D01*
X27442857Y-211600000D01*
X27442857Y-211742857D01*
X27471428Y-211857142D01*
X27500000Y-211914285D01*
X27528571Y-211942857D01*
X27585714Y-211971428D01*
X27642857Y-211971428D01*
X27700000Y-211942857D01*
X27728571Y-211914285D01*
X27757142Y-211857142D01*
X27785714Y-211742857D01*
X27785714Y-211600000D01*
X27757142Y-211485714D01*
X27728571Y-211428571D01*
X27700000Y-211400000D01*
X27642857Y-211371428D01*
%TO.C,U6*%
X288411904Y-211490476D02*
X289059523Y-211490476D01*
X289135714Y-211528571D01*
X289173809Y-211566666D01*
X289211904Y-211642857D01*
X289211904Y-211795238D01*
X289173809Y-211871428D01*
X289135714Y-211909523D01*
X289059523Y-211947619D01*
X288411904Y-211947619D01*
X288411904Y-212671428D02*
X288411904Y-212519047D01*
X288450000Y-212442857D01*
X288488095Y-212404761D01*
X288602380Y-212328571D01*
X288754761Y-212290476D01*
X289059523Y-212290476D01*
X289135714Y-212328571D01*
X289173809Y-212366666D01*
X289211904Y-212442857D01*
X289211904Y-212595238D01*
X289173809Y-212671428D01*
X289135714Y-212709523D01*
X289059523Y-212747619D01*
X288869047Y-212747619D01*
X288792857Y-212709523D01*
X288754761Y-212671428D01*
X288716666Y-212595238D01*
X288716666Y-212442857D01*
X288754761Y-212366666D01*
X288792857Y-212328571D01*
X288869047Y-212290476D01*
%TO.C,C7*%
X289185714Y-209016666D02*
X289223809Y-208978571D01*
X289261904Y-208864285D01*
X289261904Y-208788095D01*
X289223809Y-208673809D01*
X289147619Y-208597619D01*
X289071428Y-208559523D01*
X288919047Y-208521428D01*
X288804761Y-208521428D01*
X288652380Y-208559523D01*
X288576190Y-208597619D01*
X288500000Y-208673809D01*
X288461904Y-208788095D01*
X288461904Y-208864285D01*
X288500000Y-208978571D01*
X288538095Y-209016666D01*
X288461904Y-209283333D02*
X288461904Y-209816666D01*
X289261904Y-209473809D01*
%TO.C,C19*%
X26714285Y-207314285D02*
X26742857Y-207285714D01*
X26771428Y-207200000D01*
X26771428Y-207142857D01*
X26742857Y-207057142D01*
X26685714Y-207000000D01*
X26628571Y-206971428D01*
X26514285Y-206942857D01*
X26428571Y-206942857D01*
X26314285Y-206971428D01*
X26257142Y-207000000D01*
X26200000Y-207057142D01*
X26171428Y-207142857D01*
X26171428Y-207200000D01*
X26200000Y-207285714D01*
X26228571Y-207314285D01*
X26771428Y-207885714D02*
X26771428Y-207542857D01*
X26771428Y-207714285D02*
X26171428Y-207714285D01*
X26257142Y-207657142D01*
X26314285Y-207600000D01*
X26342857Y-207542857D01*
X26771428Y-208171428D02*
X26771428Y-208285714D01*
X26742857Y-208342857D01*
X26714285Y-208371428D01*
X26628571Y-208428571D01*
X26514285Y-208457142D01*
X26285714Y-208457142D01*
X26228571Y-208428571D01*
X26200000Y-208400000D01*
X26171428Y-208342857D01*
X26171428Y-208228571D01*
X26200000Y-208171428D01*
X26228571Y-208142857D01*
X26285714Y-208114285D01*
X26428571Y-208114285D01*
X26485714Y-208142857D01*
X26514285Y-208171428D01*
X26542857Y-208228571D01*
X26542857Y-208342857D01*
X26514285Y-208400000D01*
X26485714Y-208428571D01*
X26428571Y-208457142D01*
%TO.C,Q2*%
X387938095Y-197523809D02*
X387900000Y-197447619D01*
X387823809Y-197371428D01*
X387709523Y-197257142D01*
X387671428Y-197180952D01*
X387671428Y-197104761D01*
X387861904Y-197142857D02*
X387823809Y-197066666D01*
X387747619Y-196990476D01*
X387595238Y-196952380D01*
X387328571Y-196952380D01*
X387176190Y-196990476D01*
X387100000Y-197066666D01*
X387061904Y-197142857D01*
X387061904Y-197295238D01*
X387100000Y-197371428D01*
X387176190Y-197447619D01*
X387328571Y-197485714D01*
X387595238Y-197485714D01*
X387747619Y-197447619D01*
X387823809Y-197371428D01*
X387861904Y-197295238D01*
X387861904Y-197142857D01*
X387138095Y-197790476D02*
X387100000Y-197828571D01*
X387061904Y-197904761D01*
X387061904Y-198095238D01*
X387100000Y-198171428D01*
X387138095Y-198209523D01*
X387214285Y-198247619D01*
X387290476Y-198247619D01*
X387404761Y-198209523D01*
X387861904Y-197752380D01*
X387861904Y-198247619D01*
%TO.C,C16*%
X34114285Y-199914285D02*
X34142857Y-199885714D01*
X34171428Y-199800000D01*
X34171428Y-199742857D01*
X34142857Y-199657142D01*
X34085714Y-199600000D01*
X34028571Y-199571428D01*
X33914285Y-199542857D01*
X33828571Y-199542857D01*
X33714285Y-199571428D01*
X33657142Y-199600000D01*
X33600000Y-199657142D01*
X33571428Y-199742857D01*
X33571428Y-199800000D01*
X33600000Y-199885714D01*
X33628571Y-199914285D01*
X34171428Y-200485714D02*
X34171428Y-200142857D01*
X34171428Y-200314285D02*
X33571428Y-200314285D01*
X33657142Y-200257142D01*
X33714285Y-200200000D01*
X33742857Y-200142857D01*
X33571428Y-201000000D02*
X33571428Y-200885714D01*
X33600000Y-200828571D01*
X33628571Y-200800000D01*
X33714285Y-200742857D01*
X33828571Y-200714285D01*
X34057142Y-200714285D01*
X34114285Y-200742857D01*
X34142857Y-200771428D01*
X34171428Y-200828571D01*
X34171428Y-200942857D01*
X34142857Y-201000000D01*
X34114285Y-201028571D01*
X34057142Y-201057142D01*
X33914285Y-201057142D01*
X33857142Y-201028571D01*
X33828571Y-201000000D01*
X33800000Y-200942857D01*
X33800000Y-200828571D01*
X33828571Y-200771428D01*
X33857142Y-200742857D01*
X33914285Y-200714285D01*
%TO.C,C8*%
X293785714Y-213016666D02*
X293823809Y-212978571D01*
X293861904Y-212864285D01*
X293861904Y-212788095D01*
X293823809Y-212673809D01*
X293747619Y-212597619D01*
X293671428Y-212559523D01*
X293519047Y-212521428D01*
X293404761Y-212521428D01*
X293252380Y-212559523D01*
X293176190Y-212597619D01*
X293100000Y-212673809D01*
X293061904Y-212788095D01*
X293061904Y-212864285D01*
X293100000Y-212978571D01*
X293138095Y-213016666D01*
X293404761Y-213473809D02*
X293366666Y-213397619D01*
X293328571Y-213359523D01*
X293252380Y-213321428D01*
X293214285Y-213321428D01*
X293138095Y-213359523D01*
X293100000Y-213397619D01*
X293061904Y-213473809D01*
X293061904Y-213626190D01*
X293100000Y-213702380D01*
X293138095Y-213740476D01*
X293214285Y-213778571D01*
X293252380Y-213778571D01*
X293328571Y-213740476D01*
X293366666Y-213702380D01*
X293404761Y-213626190D01*
X293404761Y-213473809D01*
X293442857Y-213397619D01*
X293480952Y-213359523D01*
X293557142Y-213321428D01*
X293709523Y-213321428D01*
X293785714Y-213359523D01*
X293823809Y-213397619D01*
X293861904Y-213473809D01*
X293861904Y-213626190D01*
X293823809Y-213702380D01*
X293785714Y-213740476D01*
X293709523Y-213778571D01*
X293557142Y-213778571D01*
X293480952Y-213740476D01*
X293442857Y-213702380D01*
X293404761Y-213626190D01*
%TO.C,Q1*%
X387938095Y-187723809D02*
X387900000Y-187647619D01*
X387823809Y-187571428D01*
X387709523Y-187457142D01*
X387671428Y-187380952D01*
X387671428Y-187304761D01*
X387861904Y-187342857D02*
X387823809Y-187266666D01*
X387747619Y-187190476D01*
X387595238Y-187152380D01*
X387328571Y-187152380D01*
X387176190Y-187190476D01*
X387100000Y-187266666D01*
X387061904Y-187342857D01*
X387061904Y-187495238D01*
X387100000Y-187571428D01*
X387176190Y-187647619D01*
X387328571Y-187685714D01*
X387595238Y-187685714D01*
X387747619Y-187647619D01*
X387823809Y-187571428D01*
X387861904Y-187495238D01*
X387861904Y-187342857D01*
X387861904Y-188447619D02*
X387861904Y-187990476D01*
X387861904Y-188219047D02*
X387061904Y-188219047D01*
X387176190Y-188142857D01*
X387252380Y-188066666D01*
X387290476Y-187990476D01*
%TO.C,J1*%
X26333333Y-60872380D02*
X26333333Y-61586666D01*
X26380952Y-61729523D01*
X26476190Y-61824761D01*
X26619047Y-61872380D01*
X26714285Y-61872380D01*
X25333333Y-61872380D02*
X25904761Y-61872380D01*
X25619047Y-61872380D02*
X25619047Y-60872380D01*
X25714285Y-61015238D01*
X25809523Y-61110476D01*
X25904761Y-61158095D01*
%TO.C,R23*%
X298211404Y-51903625D02*
X297830452Y-51636958D01*
X298211404Y-51446482D02*
X297411404Y-51446482D01*
X297411404Y-51751244D01*
X297449500Y-51827434D01*
X297487595Y-51865530D01*
X297563785Y-51903625D01*
X297678071Y-51903625D01*
X297754261Y-51865530D01*
X297792357Y-51827434D01*
X297830452Y-51751244D01*
X297830452Y-51446482D01*
X297487595Y-52208387D02*
X297449500Y-52246482D01*
X297411404Y-52322672D01*
X297411404Y-52513149D01*
X297449500Y-52589339D01*
X297487595Y-52627434D01*
X297563785Y-52665530D01*
X297639976Y-52665530D01*
X297754261Y-52627434D01*
X298211404Y-52170291D01*
X298211404Y-52665530D01*
X297411404Y-52932196D02*
X297411404Y-53427434D01*
X297716166Y-53160768D01*
X297716166Y-53275053D01*
X297754261Y-53351244D01*
X297792357Y-53389339D01*
X297868547Y-53427434D01*
X298059023Y-53427434D01*
X298135214Y-53389339D01*
X298173309Y-53351244D01*
X298211404Y-53275053D01*
X298211404Y-53046482D01*
X298173309Y-52970291D01*
X298135214Y-52932196D01*
%TO.C,C5*%
X125885714Y-52766666D02*
X125923809Y-52728571D01*
X125961904Y-52614285D01*
X125961904Y-52538095D01*
X125923809Y-52423809D01*
X125847619Y-52347619D01*
X125771428Y-52309523D01*
X125619047Y-52271428D01*
X125504761Y-52271428D01*
X125352380Y-52309523D01*
X125276190Y-52347619D01*
X125200000Y-52423809D01*
X125161904Y-52538095D01*
X125161904Y-52614285D01*
X125200000Y-52728571D01*
X125238095Y-52766666D01*
X125161904Y-53490476D02*
X125161904Y-53109523D01*
X125542857Y-53071428D01*
X125504761Y-53109523D01*
X125466666Y-53185714D01*
X125466666Y-53376190D01*
X125504761Y-53452380D01*
X125542857Y-53490476D01*
X125619047Y-53528571D01*
X125809523Y-53528571D01*
X125885714Y-53490476D01*
X125923809Y-53452380D01*
X125961904Y-53376190D01*
X125961904Y-53185714D01*
X125923809Y-53109523D01*
X125885714Y-53071428D01*
%TO.C,U12*%
X33411904Y-201809523D02*
X34059523Y-201809523D01*
X34135714Y-201847619D01*
X34173809Y-201885714D01*
X34211904Y-201961904D01*
X34211904Y-202114285D01*
X34173809Y-202190476D01*
X34135714Y-202228571D01*
X34059523Y-202266666D01*
X33411904Y-202266666D01*
X34211904Y-203066666D02*
X34211904Y-202609523D01*
X34211904Y-202838095D02*
X33411904Y-202838095D01*
X33526190Y-202761904D01*
X33602380Y-202685714D01*
X33640476Y-202609523D01*
X33488095Y-203371428D02*
X33450000Y-203409523D01*
X33411904Y-203485714D01*
X33411904Y-203676190D01*
X33450000Y-203752380D01*
X33488095Y-203790476D01*
X33564285Y-203828571D01*
X33640476Y-203828571D01*
X33754761Y-203790476D01*
X34211904Y-203333333D01*
X34211904Y-203828571D01*
D12*
X30452380Y-201400000D02*
X30690476Y-201400000D01*
X30595238Y-201161904D02*
X30690476Y-201400000D01*
X30595238Y-201638095D01*
X30880952Y-201257142D02*
X30690476Y-201400000D01*
X30880952Y-201542857D01*
D10*
%TO.C,U1*%
X394261904Y-69790476D02*
X394909523Y-69790476D01*
X394985714Y-69828571D01*
X395023809Y-69866666D01*
X395061904Y-69942857D01*
X395061904Y-70095238D01*
X395023809Y-70171428D01*
X394985714Y-70209523D01*
X394909523Y-70247619D01*
X394261904Y-70247619D01*
X395061904Y-71047619D02*
X395061904Y-70590476D01*
X395061904Y-70819047D02*
X394261904Y-70819047D01*
X394376190Y-70742857D01*
X394452380Y-70666666D01*
X394490476Y-70590476D01*
D13*
%TO.C,U4*%
X305500000Y-54210000D02*
X304100000Y-54210000D01*
X304100000Y-51890000D02*
X306000000Y-51890000D01*
%TO.C,JP3*%
X394600000Y-205400000D02*
X397400000Y-205400000D01*
X397400000Y-203400000D02*
X394600000Y-203400000D01*
X393950000Y-204100000D02*
X393950000Y-204700000D01*
X398050000Y-204700000D02*
X398050000Y-204100000D01*
X394650000Y-203400000D02*
G75*
G03*
X393950000Y-204100000I0J-700000D01*
G01*
X397350000Y-205400000D02*
G75*
G03*
X398050000Y-204700000I0J700000D01*
G01*
X393950000Y-204700000D02*
G75*
G03*
X394650000Y-205400000I700000J0D01*
G01*
X398050000Y-204100000D02*
G75*
G03*
X397350000Y-203400000I-700000J0D01*
G01*
%TO.C,C3*%
X304709420Y-55760000D02*
X304990580Y-55760000D01*
X304709420Y-54740000D02*
X304990580Y-54740000D01*
%TO.C,R14*%
X304237258Y-212877500D02*
X303762742Y-212877500D01*
X304237258Y-213922500D02*
X303762742Y-213922500D01*
%TO.C,C9*%
X122840580Y-210710000D02*
X122559420Y-210710000D01*
X122840580Y-209690000D02*
X122559420Y-209690000D01*
%TO.C,R5*%
X388577500Y-196437258D02*
X388577500Y-195962742D01*
X389622500Y-196437258D02*
X389622500Y-195962742D01*
%TO.C,R6*%
X395377500Y-191337742D02*
X395377500Y-191812258D01*
X396422500Y-191337742D02*
X396422500Y-191812258D01*
%TO.C,JP11*%
X30850000Y-197100000D02*
X32250000Y-197100000D01*
X32244975Y-195694975D02*
X30844975Y-195694975D01*
X32250000Y-197105025D02*
G75*
G03*
X32950000Y-196405025I0J700000D01*
G01*
X32955025Y-196394975D02*
G75*
G03*
X32255025Y-195694975I-700000J0D01*
G01*
X30150000Y-196400000D02*
G75*
G03*
X30850000Y-197100000I700000J0D01*
G01*
X30844975Y-195694975D02*
G75*
G03*
X30144975Y-196394975I0J-700000D01*
G01*
%TO.C,C15*%
X31861252Y-199135000D02*
X31338748Y-199135000D01*
X31861252Y-197665000D02*
X31338748Y-197665000D01*
%TO.C,C18*%
X31459420Y-204890000D02*
X31740580Y-204890000D01*
X31459420Y-205910000D02*
X31740580Y-205910000D01*
%TO.C,U3*%
X394200000Y-63810000D02*
X395700000Y-63810000D01*
X394200000Y-63810000D02*
X392700000Y-63810000D01*
X394200000Y-60590000D02*
X397125000Y-60590000D01*
X394200000Y-60590000D02*
X392700000Y-60590000D01*
%TO.C,C17*%
X28665000Y-204359420D02*
X28665000Y-204640580D01*
X29685000Y-204359420D02*
X29685000Y-204640580D01*
%TO.C,JP9*%
X393300000Y-76450000D02*
X392700000Y-76450000D01*
X392700000Y-80550000D02*
X393300000Y-80550000D01*
X394000000Y-79900000D02*
X394000000Y-77100000D01*
X392000000Y-77100000D02*
X392000000Y-79900000D01*
X394000000Y-77150000D02*
G75*
G03*
X393300000Y-76450000I-700000J0D01*
G01*
X392700000Y-76450000D02*
G75*
G03*
X392000000Y-77150000I0J-700000D01*
G01*
X392000000Y-79850000D02*
G75*
G03*
X392700000Y-80550000I700000J0D01*
G01*
X393300000Y-80550000D02*
G75*
G03*
X394000000Y-79850000I0J700000D01*
G01*
D14*
%TO.C,Q3*%
X394150000Y-190750000D02*
X393850000Y-190750000D01*
X390850000Y-192400000D02*
X391200000Y-192400000D01*
X391150000Y-190750000D02*
X390850000Y-190750000D01*
X390850000Y-191925000D02*
X390850000Y-192400000D01*
X394150000Y-191125000D02*
X394150000Y-190750000D01*
X391075000Y-190750000D02*
X391200000Y-190750000D01*
X394150000Y-192025000D02*
X393875000Y-192400000D01*
X394150000Y-191750000D02*
X394150000Y-192025000D01*
X390850000Y-190750000D02*
X390850000Y-191200000D01*
X393825000Y-192400000D02*
X393825000Y-193175000D01*
X393875000Y-192400000D02*
X393825000Y-192400000D01*
D13*
%TO.C,C10*%
X122840580Y-212190000D02*
X122559420Y-212190000D01*
X122840580Y-213210000D02*
X122559420Y-213210000D01*
%TO.C,R26*%
X28097500Y-207837258D02*
X28097500Y-207362742D01*
X27052500Y-207837258D02*
X27052500Y-207362742D01*
%TO.C,R7*%
X389622500Y-191837258D02*
X389622500Y-191362742D01*
X388577500Y-191837258D02*
X388577500Y-191362742D01*
%TO.C,JP1*%
X32550000Y-61900000D02*
X31150000Y-61900000D01*
X31155025Y-63305025D02*
X32555025Y-63305025D01*
X33250000Y-62600000D02*
G75*
G03*
X32550000Y-61900000I-700000J0D01*
G01*
X30444975Y-62605025D02*
G75*
G03*
X31144975Y-63305025I700000J0D01*
G01*
X31150000Y-61894975D02*
G75*
G03*
X30450000Y-62594975I0J-700000D01*
G01*
X32555025Y-63305025D02*
G75*
G03*
X33255025Y-62605025I0J700000D01*
G01*
%TO.C,R2*%
X388577500Y-186762742D02*
X388577500Y-187237258D01*
X389622500Y-186762742D02*
X389622500Y-187237258D01*
%TO.C,R15*%
X299862742Y-213922500D02*
X300337258Y-213922500D01*
X299862742Y-212877500D02*
X300337258Y-212877500D01*
D10*
%TO.C,U2*%
X395525000Y-199175000D02*
X392275000Y-199175000D01*
X395525000Y-202425000D02*
X395525000Y-202150000D01*
X395525000Y-202425000D02*
X392275000Y-202425000D01*
X392275000Y-199175000D02*
X392275000Y-199450000D01*
X395525000Y-199350000D02*
X396600000Y-199350000D01*
X392275000Y-202425000D02*
X392275000Y-202150000D01*
X395525000Y-199175000D02*
X395525000Y-199350000D01*
D13*
%TO.C,C2*%
X389553000Y-62340580D02*
X389553000Y-62059420D01*
X390573000Y-62340580D02*
X390573000Y-62059420D01*
%TO.C,R1*%
X395377500Y-186737742D02*
X395377500Y-187212258D01*
X396422500Y-186737742D02*
X396422500Y-187212258D01*
%TO.C,C4*%
X300090580Y-52240000D02*
X299809420Y-52240000D01*
X300090580Y-53260000D02*
X299809420Y-53260000D01*
%TO.C,C13*%
X300090580Y-54040000D02*
X299809420Y-54040000D01*
X300090580Y-55060000D02*
X299809420Y-55060000D01*
%TO.C,JP12*%
X22300000Y-204500000D02*
X23700000Y-204500000D01*
X23694975Y-203094975D02*
X22294975Y-203094975D01*
X21600000Y-203800000D02*
G75*
G03*
X22300000Y-204500000I700000J0D01*
G01*
X23700000Y-204505025D02*
G75*
G03*
X24400000Y-203805025I0J700000D01*
G01*
X24405025Y-203794975D02*
G75*
G03*
X23705025Y-203094975I-700000J0D01*
G01*
X22294975Y-203094975D02*
G75*
G03*
X21594975Y-203794975I0J-700000D01*
G01*
%TO.C,JP2*%
X31000000Y-60050000D02*
X29600000Y-60050000D01*
X29605025Y-61455025D02*
X31005025Y-61455025D01*
X29600000Y-60044975D02*
G75*
G03*
X28900000Y-60744975I0J-700000D01*
G01*
X28894975Y-60755025D02*
G75*
G03*
X29594975Y-61455025I700000J0D01*
G01*
X31005025Y-61455025D02*
G75*
G03*
X31705025Y-60755025I0J700000D01*
G01*
X31700000Y-60750000D02*
G75*
G03*
X31000000Y-60050000I-700000J0D01*
G01*
%TO.C,C6*%
X122840580Y-55810000D02*
X122559420Y-55810000D01*
X122840580Y-54790000D02*
X122559420Y-54790000D01*
%TO.C,C1*%
X389610000Y-200940580D02*
X389610000Y-200659420D01*
X388590000Y-200940580D02*
X388590000Y-200659420D01*
%TO.C,R22*%
X291612242Y-51645411D02*
X292086758Y-51645411D01*
X291612242Y-52690411D02*
X292086758Y-52690411D01*
%TO.C,R4*%
X396422500Y-195937742D02*
X396422500Y-196412258D01*
X395377500Y-195937742D02*
X395377500Y-196412258D01*
%TO.C,C11*%
X295359420Y-211210000D02*
X295640580Y-211210000D01*
X295359420Y-210190000D02*
X295640580Y-210190000D01*
D15*
%TO.C,U11*%
X290740101Y-53774500D02*
X290994101Y-53774500D01*
X290740101Y-53393500D02*
X290740101Y-53774500D01*
X290994101Y-53393500D02*
X290740101Y-53393500D01*
X295776400Y-52923600D02*
X295776400Y-53098860D01*
X292423600Y-53098860D02*
X292423600Y-52923600D01*
X292423600Y-56276400D02*
X292423600Y-56101140D01*
X295776400Y-56276400D02*
X292423600Y-56276400D01*
X295776400Y-56101140D02*
X295776400Y-56276400D01*
X292423600Y-52923600D02*
X295776400Y-52923600D01*
X290994101Y-53774500D02*
X290994101Y-53393500D01*
D13*
%TO.C,JP10*%
X391200000Y-79900000D02*
X391200000Y-77100000D01*
X390500000Y-76450000D02*
X389900000Y-76450000D01*
X389900000Y-80550000D02*
X390500000Y-80550000D01*
X389200000Y-77100000D02*
X389200000Y-79900000D01*
X391200000Y-77150000D02*
G75*
G03*
X390500000Y-76450000I-700000J0D01*
G01*
X389900000Y-76450000D02*
G75*
G03*
X389200000Y-77150000I0J-700000D01*
G01*
X390500000Y-80550000D02*
G75*
G03*
X391200000Y-79850000I0J700000D01*
G01*
X389200000Y-79850000D02*
G75*
G03*
X389900000Y-80550000I700000J0D01*
G01*
%TO.C,L1*%
X34260000Y-208195000D02*
X34260000Y-209335000D01*
X30140000Y-208195000D02*
X30140000Y-209335000D01*
%TO.C,R25*%
X27052500Y-204737258D02*
X27052500Y-204262742D01*
X28097500Y-204737258D02*
X28097500Y-204262742D01*
D15*
%TO.C,U9*%
X304805899Y-211825500D02*
X304805899Y-212206500D01*
X304805899Y-212206500D02*
X305059899Y-212206500D01*
X305059899Y-211825500D02*
X304805899Y-211825500D01*
X303376400Y-212501140D02*
X303376400Y-212676400D01*
X305059899Y-212206500D02*
X305059899Y-211825500D01*
X300023600Y-212676400D02*
X300023600Y-212501140D01*
X303376400Y-209323600D02*
X303376400Y-209498860D01*
X300023600Y-209498860D02*
X300023600Y-209323600D01*
X300023600Y-209323600D02*
X303376400Y-209323600D01*
X303376400Y-212676400D02*
X300023600Y-212676400D01*
D13*
%TO.C,R3*%
X388822500Y-62437258D02*
X388822500Y-61962742D01*
X387777500Y-62437258D02*
X387777500Y-61962742D01*
%TO.C,JP4*%
X388300000Y-205400000D02*
X391100000Y-205400000D01*
X391100000Y-203400000D02*
X388300000Y-203400000D01*
X387650000Y-204100000D02*
X387650000Y-204700000D01*
X391750000Y-204700000D02*
X391750000Y-204100000D01*
X391050000Y-205400000D02*
G75*
G03*
X391750000Y-204700000I0J700000D01*
G01*
X391750000Y-204100000D02*
G75*
G03*
X391050000Y-203400000I-700000J0D01*
G01*
X388350000Y-203400000D02*
G75*
G03*
X387650000Y-204100000I0J-700000D01*
G01*
X387650000Y-204700000D02*
G75*
G03*
X388350000Y-205400000I700000J0D01*
G01*
%TO.C,J2*%
X21860000Y-196715000D02*
X27740000Y-196715000D01*
X20690000Y-198685000D02*
X20690000Y-201185000D01*
X28910000Y-201185000D02*
X27860000Y-201185000D01*
X21740000Y-201185000D02*
X21740000Y-202175000D01*
X28910000Y-198685000D02*
X28910000Y-201185000D01*
X20690000Y-201185000D02*
X21740000Y-201185000D01*
%TO.C,C20*%
X28461252Y-210935000D02*
X27938748Y-210935000D01*
X28461252Y-209465000D02*
X27938748Y-209465000D01*
%TO.C,U6*%
X291800000Y-213760000D02*
X289900000Y-213760000D01*
X290400000Y-211440000D02*
X291800000Y-211440000D01*
%TO.C,C7*%
X291140580Y-209890000D02*
X290859420Y-209890000D01*
X291140580Y-210910000D02*
X290859420Y-210910000D01*
%TO.C,C19*%
X28665000Y-207740580D02*
X28665000Y-207459420D01*
X29685000Y-207740580D02*
X29685000Y-207459420D01*
D14*
%TO.C,Q2*%
X394150000Y-196625000D02*
X393875000Y-197000000D01*
X394150000Y-195725000D02*
X394150000Y-195350000D01*
X391075000Y-195350000D02*
X391200000Y-195350000D01*
X390850000Y-195350000D02*
X390850000Y-195800000D01*
X394150000Y-196350000D02*
X394150000Y-196625000D01*
X390850000Y-197000000D02*
X391200000Y-197000000D01*
X393875000Y-197000000D02*
X393825000Y-197000000D01*
X391150000Y-195350000D02*
X390850000Y-195350000D01*
X393825000Y-197000000D02*
X393825000Y-197775000D01*
X390850000Y-196525000D02*
X390850000Y-197000000D01*
X394150000Y-195350000D02*
X393850000Y-195350000D01*
D13*
%TO.C,C16*%
X31540580Y-200710000D02*
X31259420Y-200710000D01*
X31540580Y-199690000D02*
X31259420Y-199690000D01*
%TO.C,C8*%
X295359420Y-213760000D02*
X295640580Y-213760000D01*
X295359420Y-212740000D02*
X295640580Y-212740000D01*
D14*
%TO.C,Q1*%
X394150000Y-187375000D02*
X393875000Y-187750000D01*
X394150000Y-186100000D02*
X393850000Y-186100000D01*
X391150000Y-186100000D02*
X390850000Y-186100000D01*
X390850000Y-186100000D02*
X390850000Y-186550000D01*
X393825000Y-187750000D02*
X393825000Y-188525000D01*
X394150000Y-186475000D02*
X394150000Y-186100000D01*
X393875000Y-187750000D02*
X393825000Y-187750000D01*
X391075000Y-186100000D02*
X391200000Y-186100000D01*
X390850000Y-187275000D02*
X390850000Y-187750000D01*
X394150000Y-187100000D02*
X394150000Y-187375000D01*
X390850000Y-187750000D02*
X391200000Y-187750000D01*
D13*
%TO.C,J1*%
X21890000Y-63615000D02*
X22940000Y-63615000D01*
X29060000Y-63615000D02*
X29060000Y-62625000D01*
X28940000Y-68085000D02*
X23060000Y-68085000D01*
X30110000Y-63615000D02*
X29060000Y-63615000D01*
X30110000Y-66115000D02*
X30110000Y-63615000D01*
X21890000Y-66115000D02*
X21890000Y-63615000D01*
%TO.C,R23*%
X296036758Y-52690411D02*
X295562242Y-52690411D01*
X296036758Y-51645411D02*
X295562242Y-51645411D01*
%TO.C,C5*%
X122840580Y-53410000D02*
X122559420Y-53410000D01*
X122840580Y-52390000D02*
X122559420Y-52390000D01*
%TO.C,U1*%
X389300000Y-71900000D02*
X389300000Y-68700000D01*
X393500000Y-68700000D02*
X393500000Y-73400000D01*
%TD*%
M02*
