%TF.GenerationSoftware,KiCad,Pcbnew,(5.99.0-10421-g7afc3f7df9)*%
%TF.CreationDate,2021-06-07T18:35:34+02:00*%
%TF.ProjectId,Duct_Fan_Module,44756374-5f46-4616-9e5f-4d6f64756c65,rev?*%
%TF.SameCoordinates,Original*%
%TF.FileFunction,Legend,Bot*%
%TF.FilePolarity,Positive*%
%FSLAX46Y46*%
G04 Gerber Fmt 4.6, Leading zero omitted, Abs format (unit mm)*
G04 Created by KiCad (PCBNEW (5.99.0-10421-g7afc3f7df9)) date 2021-06-07 18:35:34*
%MOMM*%
%LPD*%
G01*
G04 APERTURE LIST*
%ADD10C,0.150000*%
%ADD11C,0.120000*%
G04 APERTURE END LIST*
D10*
%TO.C,J2*%
X148002380Y-78766666D02*
X148716666Y-78766666D01*
X148859523Y-78719047D01*
X148954761Y-78623809D01*
X149002380Y-78480952D01*
X149002380Y-78385714D01*
X148097619Y-79195238D02*
X148050000Y-79242857D01*
X148002380Y-79338095D01*
X148002380Y-79576190D01*
X148050000Y-79671428D01*
X148097619Y-79719047D01*
X148192857Y-79766666D01*
X148288095Y-79766666D01*
X148430952Y-79719047D01*
X149002380Y-79147619D01*
X149002380Y-79766666D01*
D11*
X143655000Y-75280000D02*
X146155000Y-75280000D01*
X143655000Y-83500000D02*
X146155000Y-83500000D01*
X141685000Y-82330000D02*
X141685000Y-76450000D01*
X146155000Y-82450000D02*
X147145000Y-82450000D01*
X146155000Y-75280000D02*
X146155000Y-76330000D01*
X146155000Y-83500000D02*
X146155000Y-82450000D01*
%TD*%
M02*
