(kicad_pcb (version 20210424) (generator pcbnew)

  (general
    (thickness 1.6)
  )

  (paper "A4")
  (layers
    (0 "F.Cu" signal)
    (31 "B.Cu" signal)
    (32 "B.Adhes" user "B.Adhesive")
    (33 "F.Adhes" user "F.Adhesive")
    (34 "B.Paste" user)
    (35 "F.Paste" user)
    (36 "B.SilkS" user "B.Silkscreen")
    (37 "F.SilkS" user "F.Silkscreen")
    (38 "B.Mask" user)
    (39 "F.Mask" user)
    (40 "Dwgs.User" user "User.Drawings")
    (41 "Cmts.User" user "User.Comments")
    (42 "Eco1.User" user "User.Eco1")
    (43 "Eco2.User" user "User.Eco2")
    (44 "Edge.Cuts" user)
    (45 "Margin" user)
    (46 "B.CrtYd" user "B.Courtyard")
    (47 "F.CrtYd" user "F.Courtyard")
    (48 "B.Fab" user)
    (49 "F.Fab" user)
    (50 "User.1" user)
    (51 "User.2" user)
    (52 "User.3" user)
    (53 "User.4" user)
    (54 "User.5" user)
    (55 "User.6" user)
    (56 "User.7" user)
    (57 "User.8" user)
    (58 "User.9" user)
  )

  (setup
    (pad_to_mask_clearance 0)
    (grid_origin 146.953128 86.75)
    (pcbplotparams
      (layerselection 0x00010fc_ffffffff)
      (disableapertmacros false)
      (usegerberextensions false)
      (usegerberattributes true)
      (usegerberadvancedattributes true)
      (creategerberjobfile true)
      (svguseinch false)
      (svgprecision 6)
      (excludeedgelayer true)
      (plotframeref false)
      (viasonmask false)
      (mode 1)
      (useauxorigin false)
      (hpglpennumber 1)
      (hpglpenspeed 20)
      (hpglpendiameter 15.000000)
      (dxfpolygonmode true)
      (dxfimperialunits true)
      (dxfusepcbnewfont true)
      (psnegative false)
      (psa4output false)
      (plotreference true)
      (plotvalue false)
      (plotinvisibletext false)
      (sketchpadsonfab false)
      (subtractmaskfromsilk false)
      (outputformat 1)
      (mirror false)
      (drillshape 0)
      (scaleselection 1)
      (outputdirectory "/home/seb/Documents/duct_sensor_output/")
    )
  )

  (net 0 "")
  (net 1 "/5V")
  (net 2 "GND")
  (net 3 "Net-(C2-Pad1)")
  (net 4 "/I2C_SCL")
  (net 5 "/I2C_SDA")
  (net 6 "unconnected-(U1-Pad5)")
  (net 7 "unconnected-(U1-Pad6)")
  (net 8 "unconnected-(U1-Pad7)")
  (net 9 "Net-(J1-PadS1)")

  (footprint "Capacitor_SMD:C_0603_1608Metric" (layer "F.Cu")
    (tedit 5F68FEEE) (tstamp 4cef8591-818e-4470-a380-bb422ed8d39d)
    (at 147.678128 80.2 180)
    (descr "Capacitor SMD 0603 (1608 Metric), square (rectangular) end terminal, IPC_7351 nominal, (Body size source: IPC-SM-782 page 76, https://www.pcb-3d.com/wordpress/wp-content/uploads/ipc-sm-782a_amendment_1_and_2.pdf), generated with kicad-footprint-generator")
    (tags "capacitor")
    (property "Sheetfile" "Duct_Sensor.kicad_sch")
    (property "Sheetname" "")
    (property "lcsc" "")
    (path "/00000000-0000-0000-0000-000060a6e82b")
    (attr smd)
    (fp_text reference "C2" (at 0.775 1.1) (layer "F.SilkS")
      (effects (font (size 0.5 0.5) (thickness 0.1)))
      (tstamp 3eba1cea-2fe8-4f19-b877-db683970053d)
    )
    (fp_text value "0.1uF" (at 0 1.43) (layer "F.Fab")
      (effects (font (size 1 1) (thickness 0.15)))
      (tstamp ba39aa34-06f0-4f6c-8e8b-da2417da1090)
    )
    (fp_text user "${REFERENCE}" (at 0 0) (layer "F.Fab")
      (effects (font (size 0.4 0.4) (thickness 0.06)))
      (tstamp 39156b7e-22f3-4e3a-ad39-ca69785a4dba)
    )
    (fp_line (start -0.14058 0.51) (end 0.14058 0.51) (layer "F.SilkS") (width 0.12) (tstamp b083e562-712d-4da7-8c3d-4f200805506c))
    (fp_line (start -0.14058 -0.51) (end 0.14058 -0.51) (layer "F.SilkS") (width 0.12) (tstamp d89ec9d2-3046-4619-9489-a1cdde1bae9b))
    (fp_line (start -1.48 -0.73) (end 1.48 -0.73) (layer "F.CrtYd") (width 0.05) (tstamp 03e898f9-8559-4eeb-a213-6f0a12a5d2d0))
    (fp_line (start 1.48 -0.73) (end 1.48 0.73) (layer "F.CrtYd") (width 0.05) (tstamp 6ad3a4d4-7c9e-47b9-9eac-041388175727))
    (fp_line (start -1.48 0.73) (end -1.48 -0.73) (layer "F.CrtYd") (width 0.05) (tstamp ac715216-3de5-431b-b11e-d09ebeee4ae6))
    (fp_line (start 1.48 0.73) (end -1.48 0.73) (layer "F.CrtYd") (width 0.05) (tstamp d61060cd-4e04-40c9-83d6-666bff919a84))
    (fp_line (start -0.8 -0.4) (end 0.8 -0.4) (layer "F.Fab") (width 0.1) (tstamp 0f4f8fd1-cbe0-4f0c-a5c4-2af28ee4a876))
    (fp_line (start 0.8 -0.4) (end 0.8 0.4) (layer "F.Fab") (width 0.1) (tstamp 18eef6a3-94d1-4546-8df2-8a65359f3a1c))
    (fp_line (start 0.8 0.4) (end -0.8 0.4) (layer "F.Fab") (width 0.1) (tstamp 6d013a27-5a4e-49ee-8861-bfc9fa1b1335))
    (fp_line (start -0.8 0.4) (end -0.8 -0.4) (layer "F.Fab") (width 0.1) (tstamp d17b19dc-753f-4b6a-8d07-ac9495e2c4e6))
    (pad "1" smd roundrect locked (at -0.775 0 180) (size 0.9 0.95) (layers "F.Cu" "F.Paste" "F.Mask") (roundrect_rratio 0.25)
      (net 3 "Net-(C2-Pad1)") (pintype "passive") (tstamp 6fdd6a61-75ae-4b6f-94d1-77769e7787fe))
    (pad "2" smd roundrect locked (at 0.775 0 180) (size 0.9 0.95) (layers "F.Cu" "F.Paste" "F.Mask") (roundrect_rratio 0.25)
      (net 2 "GND") (pintype "passive") (tstamp 1dbdbef4-fa66-4772-b10a-1cf1cf4434b6))
    (model "${KISYS3DMOD}/Capacitor_SMD.3dshapes/C_0603_1608Metric.wrl"
      (offset (xyz 0 0 0))
      (scale (xyz 1 1 1))
      (rotate (xyz 0 0 0))
    )
  )

  (footprint "BM04B-SRSS-TB_LF__SN_:CONN_BM04B-SRSS-TB(LF)(SN)" (layer "F.Cu")
    (tedit 60B10188) (tstamp 646a5e61-abaa-48d5-bc1c-4fdcfeb27a7e)
    (at 151.753128 81.45 90)
    (property "LCSC" "C160390")
    (property "MANUFACTURER" "JST")
    (property "PARTREV" "N/A")
    (property "STANDARD" "Manufacturer Recommendations")
    (property "Sheetfile" "Duct_Sensor.kicad_sch")
    (property "Sheetname" "")
    (path "/3c5c5df9-a520-4c20-8585-f6380fc1e9b1")
    (attr through_hole)
    (fp_text reference "J1" (at -2.8 -2.9 90) (layer "F.SilkS")
      (effects (font (size 0.5 0.5) (thickness 0.1)))
      (tstamp 53b9b027-0ddb-4e6e-a11a-5e2a35219546)
    )
    (fp_text value "BM04B-SRSS-TB(LF)(SN)" (at 13.51 3.09 90) (layer "F.Fab")
      (effects (font (size 1 1) (thickness 0.015)))
      (tstamp fd6ea2f1-213c-4cda-8428-4e8d507ef7de)
    )
    (fp_line (start 3 1) (end 2.2 1) (layer "F.SilkS") (width 0.127) (tstamp 1c63ec3a-7c94-469e-84a4-25246b8913f0))
    (fp_line (start -1.7 -1.9) (end 1.7 -1.9) (layer "F.SilkS") (width 0.127) (tstamp 504de5aa-1e15-46b4-b035-399b09d43f71))
    (fp_line (start -3 1) (end -2.2 1) (layer "F.SilkS") (width 0.127) (tstamp 80c313dd-8a1b-403a-91c6-7a24f490225d))
    (fp_line (start 3 0.125) (end 3 1) (layer "F.SilkS") (width 0.127) (tstamp af330a20-18d3-4a33-a82d-94d41157f8a6))
    (fp_line (start -3 0.125) (end -3 1) (layer "F.SilkS") (width 0.127) (tstamp d622fbf3-1eda-4a49-898d-5a78e5d27dd3))
    (fp_circle (center -2.5 1.425) (end -2.4 1.425) (layer "F.SilkS") (width 0.2) (fill none) (tstamp b925a86c-a395-446e-a85c-ac488a9d69cd))
    (fp_line (start -3.65 -2.35) (end 3.65 -2.35) (layer "F.CrtYd") (width 0.05) (tstamp 349149b2-17b2-41a1-aceb-de7d90f8073e))
    (fp_line (start 3.65 2.35) (end -3.65 2.35) (layer "F.CrtYd") (width 0.05) (tstamp 43177b0d-521c-4b16-829a-f41173340dfe))
    (fp_line (start -3.65 2.35) (end -3.65 -2.35) (layer "F.CrtYd") (width 0.05) (tstamp 45aaaf43-fb43-4ed8-94b7-4c6c795d5194))
    (fp_line (start 3.65 -2.35) (end 3.65 2.35) (layer "F.CrtYd") (width 0.05) (tstamp a96f957c-3db3-41c2-a49d-5459a22a206d))
    (fp_line (start -3 1) (end -3 -1.9) (layer "F.Fab") (width 0.127) (tstamp 342e21f0-5d2e-4e44-941d-d200af3791b3))
    (fp_line (start 3 1) (end -3 1) (layer "F.Fab") (width 0.127) (tstamp b72b3117-e7c1-4343-8530-dd0852f7547e))
    (fp_line (start 3 -1.9) (end 3 1) (layer "F.Fab") (width 0.127) (tstamp b9aa638f-53da-42ad-a52a-e76eafba413e))
    (fp_line (start -3 -1.9) (end 3 -1.9) (layer "F.Fab") (width 0.127) (tstamp c31ac195-e93e-4293-b44b-01faf9da09e1))
    (fp_circle (center -2.5 1.425) (end -2.4 1.425) (layer "F.Fab") (width 0.2) (fill none) (tstamp 497dfe29-930e-4f57-bb12-3f81a0efdd72))
    (pad "1" smd rect locked (at -1.5 1.325 90) (size 0.6 1.55) (layers "F.Cu" "F.Paste" "F.Mask")
      (net 2 "GND") (pinfunction "1") (pintype "passive") (tstamp 74ae77c2-e297-455b-ad76-45a65038c16b))
    (pad "2" smd rect locked (at -0.5 1.325 90) (size 0.6 1.55) (layers "F.Cu" "F.Paste" "F.Mask")
      (net 1 "/5V") (pinfunction "2") (pintype "passive") (tstamp 773a83b1-512f-4e4f-9508-4af9b3608488))
    (pad "3" smd rect locked (at 0.5 1.325 90) (size 0.6 1.55) (layers "F.Cu" "F.Paste" "F.Mask")
      (net 4 "/I2C_SCL") (pinfunction "3") (pintype "passive") (tstamp 40571ed1-816e-44a7-aee2-640344558e61))
    (pad "4" smd rect locked (at 1.5 1.325 90) (size 0.6 1.55) (layers "F.Cu" "F.Paste" "F.Mask")
      (net 5 "/I2C_SDA") (pinfunction "4") (pintype "passive") (tstamp b67363b3-853c-4844-a0f1-2f9b6af35ce1))
    (pad "S1" smd rect locked (at -2.8 -1.2 90) (size 1.2 1.8) (layers "F.Cu" "F.Paste" "F.Mask")
      (net 9 "Net-(J1-PadS1)") (pinfunction "SHIELD") (pintype "passive") (tstamp 2844fbd5-d15e-4f90-9ae1-fe4225f94bd5))
    (pad "S2" smd rect locked (at 2.8 -1.2 90) (size 1.2 1.8) (layers "F.Cu" "F.Paste" "F.Mask")
      (net 9 "Net-(J1-PadS1)") (pinfunction "SHIELD") (pintype "passive") (tstamp 712447cf-0725-45d4-8c58-055911ad08b4))
    (model "C:/Users/SEPAN/OneDrive/Documents/WeRoboticsFiles/Electronics_kicad/KiCad-Library/Download/BM04B-SRSS-TB_LF__SN_/BM04B-SRSS-TB-LF--SN---3DModel-STEP-56544.STEP"
      (offset (xyz 0 0.5 0))
      (scale (xyz 1 1 1))
      (rotate (xyz -90 0 0))
    )
  )

  (footprint "Custom:MountingHole_1.9mm" (layer "F.Cu")
    (tedit 60B79812) (tstamp e1558c6c-750f-4e3c-a150-23be96e7715d)
    (at 157.603128 81.45)
    (property "Sheetfile" "Duct_Sensor.kicad_sch")
    (property "Sheetname" "")
    (path "/4f9342d7-9ed0-4348-a35e-9457d90a04c7")
    (fp_text reference "H1" (at -0.25 -4.55 unlocked) (layer "F.SilkS") hide
      (effects (font (size 1 1) (thickness 0.15)))
      (tstamp 2ea3120c-a289-4e65-8ef7-af638358486d)
    )
    (fp_text value "MountingHole" (at 0 5 unlocked) (layer "F.Fab") hide
      (effects (font (size 1 1) (thickness 0.15)))
      (tstamp 2aed4104-6187-4a23-ada2-0b4c74deeca3)
    )
    (fp_text user "${REFERENCE}" (at -5 0) (layer "F.Fab") hide
      (effects (font (size 1 1) (thickness 0.15)))
      (tstamp 95ba09b7-db36-44bd-856c-d928f3bb3bab)
    )
    (fp_text user "${REFERENCE}" (at 0 2.5 unlocked) (layer "F.Fab") hide
      (effects (font (size 1 1) (thickness 0.15)))
      (tstamp 9acc3882-a504-4941-acc4-a5c5f5833215)
    )
    (fp_circle (center 0 0) (end 1.9 0) (layer "Cmts.User") (width 0.15) (fill none) (tstamp e0225039-6a2a-4542-abce-72787d9f89c8))
    (fp_circle (center 0 0) (end 2.6 0) (layer "F.CrtYd") (width 0.05) (fill none) (tstamp e1927b10-2712-43cc-9f8f-a4c201f8e34e))
    (pad "" np_thru_hole circle locked (at 0 0) (size 1.9 1.9) (drill 1.9) (layers F&B.Cu *.Mask) (tstamp 9f4fbb10-6d76-4450-829b-7e3a313a56d6))
  )

  (footprint "Capacitor_SMD:C_0603_1608Metric" (layer "F.Cu")
    (tedit 5F68FEEE) (tstamp fb05ca94-d4f2-470e-967c-d5b6d62890c3)
    (at 147.678128 82.7 180)
    (descr "Capacitor SMD 0603 (1608 Metric), square (rectangular) end terminal, IPC_7351 nominal, (Body size source: IPC-SM-782 page 76, https://www.pcb-3d.com/wordpress/wp-content/uploads/ipc-sm-782a_amendment_1_and_2.pdf), generated with kicad-footprint-generator")
    (tags "capacitor")
    (property "Sheetfile" "Duct_Sensor.kicad_sch")
    (property "Sheetname" "")
    (property "lcsc" "")
    (path "/00000000-0000-0000-0000-000060a6e259")
    (attr smd)
    (fp_text reference "C1" (at 0.725 -1.2) (layer "F.SilkS")
      (effects (font (size 0.5 0.5) (thickness 0.1)))
      (tstamp 7e86a3d3-8a50-4575-b488-49940660b087)
    )
    (fp_text value "0.22uF" (at 0 1.43) (layer "F.Fab")
      (effects (font (size 1 1) (thickness 0.15)))
      (tstamp 19abd20f-5ab6-4f4a-84da-e4cada2e4918)
    )
    (fp_text user "${REFERENCE}" (at 0 0) (layer "F.Fab")
      (effects (font (size 0.4 0.4) (thickness 0.06)))
      (tstamp 11b0f023-d820-43c4-9774-9b40758bc1f4)
    )
    (fp_line (start -0.14058 -0.51) (end 0.14058 -0.51) (layer "F.SilkS") (width 0.12) (tstamp ee68fa73-0d17-4f9e-865a-a46fada51094))
    (fp_line (start -0.14058 0.51) (end 0.14058 0.51) (layer "F.SilkS") (width 0.12) (tstamp f1efe817-2730-46fc-8078-13d9f68df026))
    (fp_line (start -1.48 -0.73) (end 1.48 -0.73) (layer "F.CrtYd") (width 0.05) (tstamp 191bdc57-7f67-4da2-a40e-76bbfac25fdc))
    (fp_line (start -1.48 0.73) (end -1.48 -0.73) (layer "F.CrtYd") (width 0.05) (tstamp 76bdc44e-af47-4ee5-86c1-ce925a182b15))
    (fp_line (start 1.48 0.73) (end -1.48 0.73) (layer "F.CrtYd") (width 0.05) (tstamp ab1e7713-9470-42f1-a5c5-9b96144df1a5))
    (fp_line (start 1.48 -0.73) (end 1.48 0.73) (layer "F.CrtYd") (width 0.05) (tstamp e9e68ec6-0b21-4a6c-b636-cf0de0184f58))
    (fp_line (start -0.8 -0.4) (end 0.8 -0.4) (layer "F.Fab") (width 0.1) (tstamp 1f581885-2cbb-4897-bc73-985009a03aad))
    (fp_line (start 0.8 0.4) (end -0.8 0.4) (layer "F.Fab") (width 0.1) (tstamp 4df2600e-e32c-4e97-bc81-a5da23196809))
    (fp_line (start -0.8 0.4) (end -0.8 -0.4) (layer "F.Fab") (width 0.1) (tstamp bce5c1c9-1596-4903-b8d1-310747cc7d4f))
    (fp_line (start 0.8 -0.4) (end 0.8 0.4) (layer "F.Fab") (width 0.1) (tstamp ed43fd3a-a5d1-4bee-82e2-0cb0ff76ae77))
    (pad "1" smd roundrect locked (at -0.775 0 180) (size 0.9 0.95) (layers "F.Cu" "F.Paste" "F.Mask") (roundrect_rratio 0.25)
      (net 1 "/5V") (pintype "passive") (tstamp cb97debf-eac5-4b1a-a53c-36dd4024d58a))
    (pad "2" smd roundrect locked (at 0.775 0 180) (size 0.9 0.95) (layers "F.Cu" "F.Paste" "F.Mask") (roundrect_rratio 0.25)
      (net 2 "GND") (pintype "passive") (tstamp f6ca574c-5f31-422d-9f08-063938acf87c))
    (model "${KISYS3DMOD}/Capacitor_SMD.3dshapes/C_0603_1608Metric.wrl"
      (offset (xyz 0 0 0))
      (scale (xyz 1 1 1))
      (rotate (xyz 0 0 0))
    )
  )

  (footprint "IC_Honeywell:Honeywell-HIH6030-021-001-MFG" (layer "B.Cu")
    (tedit 60BA2790) (tstamp 12c5c9ef-8421-4e44-89a3-43af2d593245)
    (at 165.853128 81.45 -90)
    (property "Sheetfile" "Duct_Sensor.kicad_sch")
    (property "Sheetname" "")
    (property "automotive" "No")
    (property "category" "IC")
    (property "device class L1" "Sensors")
    (property "device class L2" "Temperature and Humidity Sensors")
    (property "device class L3" "unset")
    (property "digikey description" "SENS HUMI/TEMP 3.3V I2C 4.5% SMD")
    (property "digikey part number" "480-5704-1-ND")
    (property "height" "2.055mm")
    (property "interface" "I2C")
    (property "lead free" "Yes")
    (property "library id" "2a06635c67bbf608")
    (property "manufacturer" "Honeywell")
    (property "max supply voltage" "5.5V")
    (property "min supply voltage" "2.3V")
    (property "mouser description" "Board Mount Humidity Sensors I2C 4.5%RH SOIC-8SMD non-condensing")
    (property "mouser part number" "785-HIH-6030-021-001")
    (property "operating supply current" "0.65mA")
    (property "package" "SOIC8")
    (property "resolution" "14bits")
    (property "rohs" "Yes")
    (property "sensor output" "I2C")
    (property "standoff height" "0.15mm")
    (property "temperature range high" "+100°C")
    (property "temperature range low" "-40°C")
    (path "/4c92374b-c178-4576-b856-05de3c549c7d")
    (attr through_hole)
    (fp_text reference "U1" (at -0.6 2.9 90) (layer "B.SilkS")
      (effects (font (size 0.5 0.5) (thickness 0.1)) (justify left mirror))
      (tstamp 3a45787a-9c61-466c-a486-14eb1aa13c0f)
    )
    (fp_text value "HIH6030-021-001" (at 0.3 -3.7 90) (layer "B.SilkS") hide
      (effects (font (size 0.5 0.5) (thickness 0.1)) (justify mirror))
      (tstamp 3e95dfd6-5182-4db2-9fac-a4b540bbb5b6)
    )
    (fp_line (start -3.4 2.45) (end 1.06 2.45) (layer "B.SilkS") (width 0.15) (tstamp 9357c967-41b9-4042-a8e4-53b8034b08a0))
    (fp_line (start -1.06 -2.45) (end 1.06 -2.45) (layer "B.SilkS") (width 0.15) (tstamp ecebc0b6-76e6-4e85-b07e-a115b2c5ea56))
    (fp_circle (center -2.8 2.9) (end -2.675 2.9) (layer "B.SilkS") (width 0.25) (fill none) (tstamp de641677-486b-4461-83ba-cf9963a57416))
    (fp_line (start -3.489999 2.475) (end -3.489999 -2.475) (layer "B.CrtYd") (width 0.15) (tstamp 2536e91e-818e-4a5e-a227-e957257215ac))
    (fp_line (start 3.489999 2.475) (end -3.489999 2.475) (layer "B.CrtYd") (width 0.15) (tstamp 3724974f-b592-4138-8bf0-ecd958f37f20))
    (fp_line (start 3.489999 -2.475) (end 3.489999 2.475) (layer "B.CrtYd") (width 0.15) (tstamp 4cf4671e-d36c-4be1-882e-892b523b23fc))
    (fp_line (start 3.489999 2.475) (end 3.489999 2.475) (layer "B.CrtYd") (width 0.15) (tstamp e2966147-2510-4804-92cb-4089742e6f1d))
    (fp_line (start -3.489999 -2.475) (end 3.489999 -2.475) (layer "B.CrtYd") (width 0.15) (tstamp f43397db-e59e-4bf8-9dea-39e19fc91038))
    (fp_line (start -1.95 -2.45) (end -1.95 2.45) (layer "B.Fab") (width 0.15) (tstamp 074e3a86-3df5-4347-ac73-70c8947e8434))
    (fp_line (start 1.95 -2.45) (end -1.95 -2.45) (layer "B.Fab") (width 0.15) (tstamp 75e4e871-2372-4f62-bb8b-4b43f76c7d9a))
    (fp_line (start -1.95 2.45) (end 1.95 2.45) (layer "B.Fab") (width 0.15) (tstamp 8d215402-142a-466f-880b-dbcc2614f594))
    (fp_line (start 1.95 2.45) (end 1.95 -2.45) (layer "B.Fab") (width 0.15) (tstamp b4903db2-fe09-429b-a5f3-8e533b6b9df0))
    (pad "1" smd rect locked (at -2.45 1.905 270) (size 2.029999 0.61) (layers "B.Cu" "B.Paste" "B.Mask")
      (net 3 "Net-(C2-Pad1)") (pinfunction "VCORE") (pintype "power_in") (tstamp 994b774e-9afc-4b81-b3e2-b006dee62a5e))
    (pad "2" smd rect locked (at -2.45 0.635 270) (size 2.029999 0.61) (layers "B.Cu" "B.Paste" "B.Mask")
      (net 2 "GND") (pinfunction "VSS") (pintype "power_in") (tstamp 61456edb-cdd5-4198-b3aa-b03f0967a13f))
    (pad "3" smd rect locked (at -2.45 -0.635 270) (size 2.029999 0.61) (layers "B.Cu" "B.Paste" "B.Mask")
      (net 4 "/I2C_SCL") (pinfunction "SCL") (pintype "input") (tstamp 7932588b-b14f-44bd-91d3-0e2ed754deef))
    (pad "4" smd rect locked (at -2.45 -1.905 270) (size 2.029999 0.61) (layers "B.Cu" "B.Paste" "B.Mask")
      (net 5 "/I2C_SDA") (pinfunction "SDA") (pintype "bidirectional") (tstamp 8fcf67d5-e649-49fe-88ff-3aedcade8522))
    (pad "5" smd rect locked (at 2.45 -1.905 270) (size 2.029999 0.61) (layers "B.Cu" "B.Paste" "B.Mask")
      (net 6 "unconnected-(U1-Pad5)") (pinfunction "AL_H") (pintype "passive") (tstamp 95961ce7-5254-4f58-b733-f742f4c96c6f))
    (pad "6" smd rect locked (at 2.45 -0.635 270) (size 2.029999 0.61) (layers "B.Cu" "B.Paste" "B.Mask")
      (net 7 "unconnected-(U1-Pad6)") (pinfunction "AL_L") (pintype "passive") (tstamp f0f1c55a-4530-48b0-80bf-db31789a066e))
    (pad "7" smd rect locked (at 2.45 0.635 270) (size 2.029999 0.61) (layers "B.Cu" "B.Paste" "B.Mask")
      (net 8 "unconnected-(U1-Pad7)") (pinfunction "NC") (pintype "passive") (tstamp a79bf2d5-7611-4e24-9b50-65d1853fa19c))
    (pad "8" smd rect locked (at 2.45 1.905 270) (size 2.029999 0.61) (layers "B.Cu" "B.Paste" "B.Mask")
      (net 1 "/5V") (pinfunction "VDD") (pintype "power_in") (tstamp b7ac740a-e902-4247-acd7-e9950f159587))
    (model "eec.models/Honeywell_-_HIH6030-021-001.step"
      (offset (xyz 0 0 0))
      (scale (xyz 1 1 1))
      (rotate (xyz 0 0 90))
    )
  )

  (gr_arc (start 168.053128 84.65) (end 168.053128 85.15) (angle -90) (layer "Edge.Cuts") (width 0.05) (tstamp 00ac75e2-09dd-4ff4-bd54-05b59584d135))
  (gr_line (start 145.953128 84.65) (end 145.953128 78.25) (layer "Edge.Cuts") (width 0.05) (tstamp 18fa2278-1f95-4b16-9625-9b8be83a8b41))
  (gr_line (start 160.353128 82.95) (end 160.353128 79.95) (layer "Edge.Cuts") (width 0.1) (tstamp 3c6f6842-c08c-44c5-b2f2-75d5c8f7bcf1))
  (gr_line (start 162.353127 79.95) (end 162.353127 82.95) (layer "Edge.Cuts") (width 0.1) (tstamp 51244afd-3b30-4e34-8c80-a4abffd9f97a))
  (gr_line (start 146.453128 77.75) (end 168.053128 77.75) (layer "Edge.Cuts") (width 0.05) (tstamp 68d61f57-86b3-42fd-b578-3357d05acced))
  (gr_line (start 168.053128 85.15) (end 146.453128 85.15) (layer "Edge.Cuts") (width 0.05) (tstamp 9b4d24cc-dda9-4ffb-8844-ef8b8079c919))
  (gr_arc (start 146.453128 78.25) (end 146.453128 77.75) (angle -90) (layer "Edge.Cuts") (width 0.05) (tstamp b788f3c6-d212-4b92-bb24-86cf460d1ae8))
  (gr_arc (start 161.353127 79.95) (end 162.353127 79.95) (angle -180) (layer "Edge.Cuts") (width 0.1) (tstamp c4041918-ec57-41a2-8f2e-507dcced3f9d))
  (gr_arc (start 146.453128 84.65) (end 145.953128 84.65) (angle -90) (layer "Edge.Cuts") (width 0.05) (tstamp d98ce85a-a667-4099-bda1-fb23f2a00a7b))
  (gr_line (start 168.553128 78.25) (end 168.553128 84.65) (layer "Edge.Cuts") (width 0.05) (tstamp ed73b361-ca75-4245-8f4b-371152ef19fb))
  (gr_arc (start 168.053128 78.25) (end 168.553128 78.25) (angle -90) (layer "Edge.Cuts") (width 0.05) (tstamp fb401637-38de-430b-a1a0-97850344d4c1))
  (gr_arc (start 161.353127 82.95) (end 160.353128 82.95) (angle -180) (layer "Edge.Cuts") (width 0.1) (tstamp fd9236ce-ec87-4bd2-8288-db930dfe6177))

  (segment (start 155.253128 83.35) (end 153.853128 81.95) (width 0.25) (layer "F.Cu") (net 1) (tstamp 6e877b76-95eb-4547-979b-006a86802b19))
  (segment (start 149.203128 81.95) (end 148.453128 82.7) (width 0.25) (layer "F.Cu") (net 1) (tstamp b8698ecd-7126-4ecf-8ea9-a7f6d15ede17))
  (segment (start 153.853128 81.95) (end 149.203128 81.95) (width 0.25) (layer "F.Cu") (net 1) (tstamp bd4223c2-9771-419d-8768-0f753f9a55c2))
  (via (at 155.253128 83.35) (size 0.8) (drill 0.4) (layers "F.Cu" "B.Cu") (net 1) (tstamp b287dc77-e7cc-460b-8567-6ca20650ebf8))
  (segment (start 155.253128 83.35) (end 155.253128 84.25) (width 0.25) (layer "B.Cu") (net 1) (tstamp 02d13867-0ee8-43cc-9d0d-b87e0fcd43b6))
  (segment (start 162.998128 84.85) (end 163.948128 83.9) (width 0.25) (layer "B.Cu") (net 1) (tstamp 18c1abff-e42e-4bb5-a148-8e7fc7e09aaf))
  (segment (start 155.253128 84.25) (end 155.853128 84.85) (width 0.25) (layer "B.Cu") (net 1) (tstamp 1ea50af5-d682-4d8f-b95c-b8506160a7ef))
  (segment (start 155.853128 84.85) (end 162.998128 84.85) (width 0.25) (layer "B.Cu") (net 1) (tstamp 782f3a31-19d2-4b22-b3da-233a9d048d6e))
  (segment (start 146.903128 80.2) (end 146.903128 82.7) (width 0.25) (layer "F.Cu") (net 2) (tstamp 30ddf60c-ebb8-41b7-958f-7347c782fea2))
  (via (at 153.953128 84.45) (size 0.65) (drill 0.3) (layers "F.Cu" "B.Cu") (free) (net 2) (tstamp 37f7bc8d-f9e7-42dd-a335-b1636b7a86f5))
  (via (at 155.753128 80.35) (size 0.65) (drill 0.3) (layers "F.Cu" "B.Cu") (free) (net 2) (tstamp 72a33d5f-cff1-444b-94a5-c6b9663217f3))
  (via (at 151.153128 80.65) (size 0.65) (drill 0.3) (layers "F.Cu" "B.Cu") (free) (net 2) (tstamp 96b45b96-f939-4612-8ade-cb923e94fc86))
  (via (at 164.303128 81.25) (size 0.65) (drill 0.3) (layers "F.Cu" "B.Cu") (free) (net 2) (tstamp a69a6ae1-f43c-432d-907f-264e842fe7b7))
  (segment (start 148.453128 80.2) (end 148.453128 78.9) (width 0.25) (layer "F.Cu") (net 3) (tstamp b3bc956c-91cc-4757-99d0-37319d3f740f))
  (via (at 148.453128 78.9) (size 0.8) (drill 0.4) (layers "F.Cu" "B.Cu") (net 3) (tstamp 23fc9802-822c-4ead-a2fd-dd94f7848544))
  (segment (start 163.048128 78.1) (end 163.948128 79) (width 0.25) (layer "B.Cu") (net 3) (tstamp 765d1523-4736-429c-a5a9-2196c4c62574))
  (segment (start 159.803128 78.9) (end 160.603128 78.1) (width 0.25) (layer "B.Cu") (net 3) (tstamp 7a9c475f-df06-49ab-bb13-5ec659e1fe99))
  (segment (start 148.453128 78.9) (end 159.803128 78.9) (width 0.25) (layer "B.Cu") (net 3) (tstamp 7d59739d-255f-4179-aa89-4b6d024de438))
  (segment (start 160.603128 78.1) (end 163.048128 78.1) (width 0.25) (layer "B.Cu") (net 3) (tstamp cc9ca2a3-9891-41bf-8dbf-f9030ef47932))
  (segment (start 154.653128 80.95) (end 153.078128 80.95) (width 0.25) (layer "F.Cu") (net 4) (tstamp 5288a177-0edf-42c1-a8e1-b2bc49740bcf))
  (segment (start 166.253128 81.05) (end 166.253128 81.25) (width 0.25) (layer "F.Cu") (net 4) (tstamp 6e753435-18aa-46c6-9e82-9c05f1f774cc))
  (segment (start 158.553128 84.85) (end 154.653128 80.95) (width 0.25) (layer "F.Cu") (net 4) (tstamp accdc3a6-d3fa-4f57-9184-1a80d70fc496))
  (segment (start 166.253128 81.25) (end 162.653128 84.85) (width 0.25) (layer "F.Cu") (net 4) (tstamp b367c494-023d-4d89-925c-394cab5d1a9e))
  (segment (start 162.653128 84.85) (end 158.553128 84.85) (width 0.25) (layer "F.Cu") (net 4) (tstamp c7da6200-070f-4753-9a28-23d8807f77a4))
  (via (at 166.253128 81.05) (size 0.8) (drill 0.4) (layers "F.Cu" "B.Cu") (net 4) (tstamp d1dd9c5b-0ea5-49a4-b8d7-c59bf68ff4d7))
  (segment (start 166.253128 81.05) (end 166.488128 80.815) (width 0.25) (layer "B.Cu") (net 4) (tstamp 08bb5a82-21fe-4131-bf6d-3ad101739140))
  (segment (start 166.488128 80.815) (end 166.488128 79) (width 0.25) (layer "B.Cu") (net 4) (tstamp 0e8a6da3-6fec-4cdd-acfa-e252f2130f7c))
  (segment (start 153.078128 79.95) (end 154.353128 79.95) (width 0.25) (layer "F.Cu") (net 5) (tstamp 1f5f4517-b16e-4860-8798-5d7368ba1efa))
  (segment (start 167.758128 79.755) (end 167.758128 81.045) (width 0.25) (layer "F.Cu") (net 5) (tstamp 4257adec-be44-4aab-b6e4-2e2bb3d6b856))
  (segment (start 156.203128 78.1) (end 166.103128 78.1) (width 0.25) (layer "F.Cu") (net 5) (tstamp 54c66368-8942-4953-af6d-0196b4efd7d1))
  (segment (start 156.053128 78.25) (end 156.203128 78.1) (width 0.25) (layer "F.Cu") (net 5) (tstamp 84cf3ab3-c9d7-4e45-a0c1-48848f696a99))
  (segment (start 154.353128 79.95) (end 156.053128 78.25) (width 0.25) (layer "F.Cu") (net 5) (tstamp 9664646f-d46d-4a91-91a5-a841074adb5c))
  (segment (start 166.103128 78.1) (end 167.758128 79.755) (width 0.25) (layer "F.Cu") (net 5) (tstamp 9e7313f5-4e1b-4835-966a-1fb10cfec477))
  (via (at 167.758128 81.045) (size 0.8) (drill 0.4) (layers "F.Cu" "B.Cu") (net 5) (tstamp be2c014e-7e1a-4396-aa2e-9315410cbd24))
  (segment (start 167.758128 79) (end 167.758128 81.045) (width 0.25) (layer "B.Cu") (net 5) (tstamp b6a32e31-a651-4119-a219-c152f1e8a2d3))

  (zone (net 2) (net_name "GND") (layers F&B.Cu) (tstamp cf6ef610-6d98-4b38-a5bf-650440901d76) (hatch edge 0.508)
    (connect_pads (clearance 0.151))
    (min_thickness 0.151) (filled_areas_thickness no)
    (fill yes (thermal_gap 0.151) (thermal_bridge_width 0.508))
    (polygon
      (pts
        (xy 170.083128 86.42)
        (xy 144.683128 86.42)
        (xy 144.683128 76.26)
        (xy 170.083128 76.26)
      )
    )
    (filled_polygon
      (layer "F.Cu")
      (pts
        (xy 165.985331 78.44293)
        (xy 165.990122 78.447321)
        (xy 167.410807 79.868006)
        (xy 167.432345 79.914192)
        (xy 167.432628 79.920685)
        (xy 167.432628 80.501339)
        (xy 167.415198 80.549227)
        (xy 167.403481 80.560444)
        (xy 167.329975 80.616847)
        (xy 167.23375 80.74225)
        (xy 167.17326 80.888285)
        (xy 167.152628 81.045)
        (xy 167.17326 81.201715)
        (xy 167.23375 81.34775)
        (xy 167.329975 81.473153)
        (xy 167.455378 81.569378)
        (xy 167.601413 81.629868)
        (xy 167.606251 81.630505)
        (xy 167.679771 81.640184)
        (xy 167.758128 81.6505)
        (xy 167.762966 81.649863)
        (xy 167.788253 81.646534)
        (xy 167.836485 81.640184)
        (xy 167.910005 81.630505)
        (xy 167.914843 81.629868)
        (xy 168.060878 81.569378)
        (xy 168.186281 81.473153)
        (xy 168.268523 81.365973)
        (xy 168.311503 81.338592)
        (xy 168.362028 81.345244)
        (xy 168.396457 81.382816)
        (xy 168.402128 81.411326)
        (xy 168.402128 84.60133)
        (xy 168.399766 84.617549)
        (xy 168.399861 84.617564)
        (xy 168.399091 84.622388)
        (xy 168.397698 84.627069)
        (xy 168.396186 84.68219)
        (xy 168.395578 84.689858)
        (xy 168.395112 84.693399)
        (xy 168.393213 84.702949)
        (xy 168.383038 84.740921)
        (xy 168.374546 84.772613)
        (xy 168.367104 84.79058)
        (xy 168.331861 84.851623)
        (xy 168.320021 84.867052)
        (xy 168.270182 84.916891)
        (xy 168.254753 84.928731)
        (xy 168.193703 84.963978)
        (xy 168.175741 84.971418)
        (xy 168.106076 84.990085)
        (xy 168.09653 84.991983)
        (xy 168.092986 84.99245)
        (xy 168.085318 84.993058)
        (xy 168.039013 84.994328)
        (xy 168.035082 84.994436)
        (xy 168.030198 84.99457)
        (xy 168.025517 84.995963)
        (xy 168.020693 84.996733)
        (xy 168.020678 84.996638)
        (xy 168.004459 84.999)
        (xy 163.144313 84.999)
        (xy 163.096425 84.98157)
        (xy 163.070945 84.937437)
        (xy 163.079794 84.88725)
        (xy 163.091634 84.871821)
        (xy 166.298383 81.665071)
        (xy 166.341338 81.643887)
        (xy 166.409843 81.634868)
        (xy 166.555878 81.574378)
        (xy 166.681281 81.478153)
        (xy 166.777506 81.35275)
        (xy 166.837996 81.206715)
        (xy 166.858628 81.05)
        (xy 166.837996 80.893285)
        (xy 166.777506 80.74725)
        (xy 166.681281 80.621847)
        (xy 166.555878 80.525622)
        (xy 166.409843 80.465132)
        (xy 166.253128 80.4445)
        (xy 166.096413 80.465132)
        (xy 165.950378 80.525622)
        (xy 165.824975 80.621847)
        (xy 165.72875 80.74725)
        (xy 165.66826 80.893285)
        (xy 165.647628 81.05)
        (xy 165.66826 81.206715)
        (xy 165.670128 81.211224)
        (xy 165.698366 81.279397)
        (xy 165.700589 81.330309)
        (xy 165.682216 81.360586)
        (xy 164.107763 82.935038)
        (xy 162.540122 84.502679)
        (xy 162.493936 84.524217)
        (xy 162.487443 84.5245)
        (xy 158.718812 84.5245)
        (xy 158.670924 84.50707)
        (xy 158.666133 84.502679)
        (xy 155.583208 81.419753)
        (xy 156.448024 81.419753)
        (xy 156.461854 81.63076)
        (xy 156.462694 81.634069)
        (xy 156.462695 81.634073)
        (xy 156.48757 81.732016)
        (xy 156.513906 81.835714)
        (xy 156.602436 82.02775)
        (xy 156.724479 82.200437)
        (xy 156.726926 82.20282)
        (xy 156.726927 82.202822)
        (xy 156.873496 82.345604)
        (xy 156.8735 82.345607)
        (xy 156.875948 82.347992)
        (xy 157.051771 82.465473)
        (xy 157.0549 82.466817)
        (xy 157.054905 82.46682)
        (xy 157.141286 82.503932)
        (xy 157.246059 82.548946)
        (xy 157.249387 82.549699)
        (xy 157.24939 82.5497)
        (xy 157.354894 82.573573)
        (xy 157.452305 82.595615)
        (xy 157.455709 82.595749)
        (xy 157.455711 82.595749)
        (xy 157.660189 82.603782)
        (xy 157.66019 82.603782)
        (xy 157.663602 82.603916)
        (xy 157.66698 82.603426)
        (xy 157.666984 82.603426)
        (xy 157.869495 82.574063)
        (xy 157.869496 82.574063)
        (xy 157.872874 82.573573)
        (xy 157.945424 82.548946)
        (xy 158.069874 82.506701)
        (xy 158.073112 82.505602)
        (xy 158.25761 82.402278)
        (xy 158.265989 82.39531)
        (xy 158.41757 82.269241)
        (xy 158.42019 82.267062)
        (xy 158.481945 82.19281)
        (xy 158.553224 82.107106)
        (xy 158.553226 82.107104)
        (xy 158.555406 82.104482)
        (xy 158.65873 81.919984)
        (xy 158.726701 81.719746)
        (xy 158.757044 81.510474)
        (xy 158.758628 81.45)
        (xy 158.758032 81.443507)
        (xy 158.739592 81.242832)
        (xy 158.739592 81.242831)
        (xy 158.739279 81.239427)
        (xy 158.685809 81.049838)
        (xy 158.682806 81.039189)
        (xy 158.682806 81.039188)
        (xy 158.68188 81.035906)
        (xy 158.666533 81.004786)
        (xy 158.589866 80.849318)
        (xy 158.589863 80.849314)
        (xy 158.588354 80.846253)
        (xy 158.573013 80.825708)
        (xy 158.480127 80.70132)
        (xy 158.461832 80.67682)
        (xy 158.306552 80.53328)
        (xy 158.127714 80.420442)
        (xy 157.931308 80.342084)
        (xy 157.894413 80.334745)
        (xy 157.72726 80.301496)
        (xy 157.727258 80.301496)
        (xy 157.723911 80.30083)
        (xy 157.720505 80.300785)
        (xy 157.720501 80.300785)
        (xy 157.61819 80.299446)
        (xy 157.512469 80.298062)
        (xy 157.304063 80.333873)
        (xy 157.105672 80.407063)
        (xy 157.008067 80.465132)
        (xy 156.931323 80.51079)
        (xy 156.923942 80.515181)
        (xy 156.764958 80.654606)
        (xy 156.634044 80.82067)
        (xy 156.535585 81.007809)
        (xy 156.472878 81.209758)
        (xy 156.472477 81.213147)
        (xy 156.472476 81.213151)
        (xy 156.468548 81.24634)
        (xy 156.448024 81.419753)
        (xy 155.583208 81.419753)
        (xy 154.895471 80.732016)
        (xy 154.89108 80.727225)
        (xy 154.890524 80.726562)
        (xy 154.865569 80.696822)
        (xy 154.830985 80.676855)
        (xy 154.82551 80.673366)
        (xy 154.811273 80.663397)
        (xy 154.792803 80.650465)
        (xy 154.786506 80.648778)
        (xy 154.781653 80.646515)
        (xy 154.776833 80.644519)
        (xy 154.77181 80.642691)
        (xy 154.766166 80.639432)
        (xy 154.726842 80.632498)
        (xy 154.720496 80.631091)
        (xy 154.688234 80.622446)
        (xy 154.688232 80.622446)
        (xy 154.681933 80.620758)
        (xy 154.642696 80.624191)
        (xy 154.642409 80.624216)
        (xy 154.635916 80.6245)
        (xy 154.113226 80.6245)
        (xy 154.065338 80.60707)
        (xy 154.044411 80.57853)
        (xy 154.042985 80.571359)
        (xy 153.998438 80.50469)
        (xy 153.993939 80.501684)
        (xy 153.972865 80.456493)
        (xy 153.986055 80.407269)
        (xy 153.993094 80.398881)
        (xy 153.998438 80.39531)
        (xy 154.042985 80.328641)
        (xy 154.04441 80.321475)
        (xy 154.078825 80.283918)
        (xy 154.113226 80.2755)
        (xy 154.335916 80.2755)
        (xy 154.342409 80.275784)
        (xy 154.381933 80.279242)
        (xy 154.388232 80.277554)
        (xy 154.388234 80.277554)
        (xy 154.420496 80.268909)
        (xy 154.426841 80.267502)
        (xy 154.459746 80.2617)
        (xy 154.466166 80.260568)
        (xy 154.47181 80.257309)
        (xy 154.476833 80.255481)
        (xy 154.481653 80.253485)
        (xy 154.486506 80.251222)
        (xy 154.492803 80.249535)
        (xy 154.52551 80.226634)
        (xy 154.530985 80.223145)
        (xy 154.565569 80.203178)
        (xy 154.59108 80.172775)
        (xy 154.595471 80.167984)
        (xy 154.798494 79.964961)
        (xy 160.196729 79.964961)
        (xy 160.19788 79.969703)
        (xy 160.200026 79.978544)
        (xy 160.202128 79.996117)
        (xy 160.202128 82.903887)
        (xy 160.200026 82.92146)
        (xy 160.19673 82.935039)
        (xy 160.197723 82.976965)
        (xy 160.199385 83.047133)
        (xy 160.199247 83.053759)
        (xy 160.198812 83.060395)
        (xy 160.199754 83.065131)
        (xy 160.199769 83.065465)
        (xy 160.199827 83.065792)
        (xy 160.199941 83.070611)
        (xy 160.201811 83.07698)
        (xy 160.203388 83.083397)
        (xy 160.240773 83.271342)
        (xy 160.241563 83.276127)
        (xy 160.242529 83.283469)
        (xy 160.24379 83.286514)
        (xy 160.244433 83.289745)
        (xy 160.246592 83.294123)
        (xy 160.246592 83.294124)
        (xy 160.247701 83.296373)
        (xy 160.249709 83.300804)
        (xy 160.258873 83.322927)
        (xy 160.324834 83.482171)
        (xy 160.326549 83.486727)
        (xy 160.328926 83.493729)
        (xy 160.330757 83.496469)
        (xy 160.332018 83.499514)
        (xy 160.334987 83.503383)
        (xy 160.33499 83.503388)
        (xy 160.336518 83.505379)
        (xy 160.339357 83.50934)
        (xy 160.433343 83.65)
        (xy 160.448424 83.672571)
        (xy 160.45099 83.676698)
        (xy 160.454682 83.683093)
        (xy 160.45701 83.685421)
        (xy 160.458842 83.688163)
        (xy 160.462511 83.691381)
        (xy 160.462515 83.691385)
        (xy 160.464416 83.693052)
        (xy 160.467975 83.696386)
        (xy 160.606756 83.835167)
        (xy 160.610074 83.838708)
        (xy 160.614964 83.844284)
        (xy 160.617703 83.846114)
        (xy 160.620034 83.848445)
        (xy 160.62646 83.852155)
        (xy 160.630577 83.854716)
        (xy 160.793787 83.96377)
        (xy 160.797749 83.966609)
        (xy 160.799732 83.968131)
        (xy 160.799737 83.968134)
        (xy 160.803614 83.971109)
        (xy 160.806657 83.972369)
        (xy 160.809398 83.974201)
        (xy 160.816416 83.976583)
        (xy 160.820958 83.978293)
        (xy 161.002306 84.05341)
        (xy 161.00675 84.055424)
        (xy 161.008998 84.056533)
        (xy 161.009002 84.056534)
        (xy 161.013381 84.058694)
        (xy 161.016614 84.059337)
        (xy 161.019658 84.060598)
        (xy 161.024495 84.061235)
        (xy 161.024496 84.061235)
        (xy 161.026996 84.061564)
        (xy 161.031806 84.062359)
        (xy 161.130706 84.082032)
        (xy 161.224327 84.100654)
        (xy 161.229057 84.101757)
        (xy 161.236205 84.103672)
        (xy 161.239499 84.103672)
        (xy 161.242732 84.104315)
        (xy 161.247601 84.103996)
        (xy 161.247602 84.103996)
        (xy 161.250117 84.103831)
        (xy 161.254989 84.103672)
        (xy 161.451265 84.103672)
        (xy 161.456137 84.103831)
        (xy 161.458652 84.103996)
        (xy 161.458653 84.103996)
        (xy 161.463522 84.104315)
        (xy 161.466755 84.103672)
        (xy 161.470049 84.103672)
        (xy 161.477197 84.101757)
        (xy 161.481921 84.100656)
        (xy 161.67446 84.062356)
        (xy 161.679239 84.061566)
        (xy 161.686596 84.060598)
        (xy 161.689641 84.059337)
        (xy 161.692872 84.058694)
        (xy 161.699504 84.055424)
        (xy 161.703931 84.053418)
        (xy 161.885298 83.978293)
        (xy 161.889854 83.976578)
        (xy 161.896856 83.974201)
        (xy 161.899596 83.97237)
        (xy 161.902641 83.971109)
        (xy 161.90651 83.96814)
        (xy 161.906515 83.968137)
        (xy 161.908506 83.966609)
        (xy 161.912471 83.963767)
        (xy 161.955722 83.934868)
        (xy 162.075706 83.854698)
        (xy 162.079825 83.852137)
        (xy 162.08622 83.848445)
        (xy 162.088548 83.846117)
        (xy 162.09129 83.844285)
        (xy 162.094508 83.840616)
        (xy 162.094512 83.840612)
        (xy 162.096179 83.838711)
        (xy 162.099513 83.835152)
        (xy 162.238294 83.696371)
        (xy 162.241836 83.693052)
        (xy 162.247411 83.688163)
        (xy 162.249241 83.685424)
        (xy 162.251572 83.683093)
        (xy 162.255282 83.676667)
        (xy 162.257843 83.67255)
        (xy 162.366897 83.50934)
        (xy 162.369736 83.505378)
        (xy 162.371258 83.503395)
        (xy 162.371262 83.503388)
        (xy 162.374236 83.499513)
        (xy 162.375496 83.49647)
        (xy 162.377328 83.493729)
        (xy 162.37971 83.486711)
        (xy 162.38142 83.482169)
        (xy 162.390544 83.460143)
        (xy 162.456538 83.300818)
        (xy 162.458551 83.296377)
        (xy 162.45966 83.294129)
        (xy 162.459662 83.294124)
        (xy 162.461821 83.289746)
        (xy 162.462464 83.286513)
        (xy 162.463725 83.283469)
        (xy 162.464691 83.276129)
        (xy 162.465486 83.271318)
        (xy 162.46689 83.264263)
        (xy 162.502861 83.083425)
        (xy 162.504444 83.07698)
        (xy 162.504938 83.075299)
        (xy 162.504938 83.075296)
        (xy 162.506314 83.07061)
        (xy 162.506428 83.065782)
        (xy 162.506486 83.065455)
        (xy 162.506501 83.065126)
        (xy 162.507442 83.060395)
        (xy 162.507008 83.053768)
        (xy 162.50687 83.047146)
        (xy 162.509408 82.939918)
        (xy 162.509524 82.935038)
        (xy 162.506229 82.921463)
        (xy 162.504127 82.90389)
        (xy 162.504127 79.996114)
        (xy 162.506229 79.978541)
        (xy 162.508374 79.969704)
        (xy 162.508374 79.969703)
        (xy 162.509525 79.964962)
        (xy 162.507251 79.868929)
        (xy 162.506871 79.852854)
        (xy 162.507009 79.846223)
        (xy 162.507443 79.839605)
        (xy 162.506502 79.834874)
        (xy 162.506487 79.834545)
        (xy 162.506429 79.834218)
        (xy 162.506315 79.82939)
        (xy 162.504444 79.823016)
        (xy 162.502862 79.816575)
        (xy 162.465485 79.628671)
        (xy 162.464692 79.623868)
        (xy 162.464363 79.621371)
        (xy 162.463726 79.616531)
        (xy 162.462465 79.613487)
        (xy 162.461822 79.610254)
        (xy 162.459662 79.605875)
        (xy 162.459661 79.605871)
        (xy 162.458552 79.603623)
        (xy 162.456538 79.599179)
        (xy 162.447381 79.577073)
        (xy 162.381419 79.417827)
        (xy 162.379711 79.413289)
        (xy 162.377329 79.406271)
        (xy 162.375497 79.40353)
        (xy 162.374237 79.400487)
        (xy 162.371262 79.39661)
        (xy 162.371259 79.396605)
        (xy 162.369737 79.394622)
        (xy 162.366898 79.39066)
        (xy 162.257844 79.22745)
        (xy 162.255283 79.223333)
        (xy 162.251573 79.216907)
        (xy 162.249242 79.214576)
        (xy 162.247412 79.211837)
        (xy 162.241836 79.206947)
        (xy 162.238295 79.203629)
        (xy 162.099513 79.064847)
        (xy 162.096179 79.061288)
        (xy 162.094512 79.059387)
        (xy 162.094508 79.059383)
        (xy 162.09129 79.055714)
        (xy 162.088548 79.053882)
        (xy 162.08622 79.051554)
        (xy 162.079825 79.047862)
        (xy 162.075706 79.045301)
        (xy 161.912471 78.936232)
        (xy 161.908506 78.93339)
        (xy 161.906515 78.931862)
        (xy 161.90651 78.931859)
        (xy 161.902641 78.92889)
        (xy 161.899596 78.927629)
        (xy 161.896856 78.925798)
        (xy 161.889854 78.923421)
        (xy 161.885298 78.921706)
        (xy 161.821215 78.895162)
        (xy 161.703931 78.846581)
        (xy 161.6995 78.844573)
        (xy 161.697251 78.843464)
        (xy 161.69725 78.843464)
        (xy 161.692872 78.841305)
        (xy 161.689641 78.840662)
        (xy 161.686596 78.839401)
        (xy 161.679239 78.838433)
        (xy 161.67446 78.837643)
        (xy 161.481921 78.799343)
        (xy 161.477197 78.798242)
        (xy 161.470049 78.796327)
        (xy 161.466755 78.796327)
        (xy 161.463522 78.795684)
        (xy 161.458653 78.796003)
        (xy 161.458652 78.796003)
        (xy 161.456137 78.796168)
        (xy 161.451265 78.796327)
        (xy 161.254989 78.796327)
        (xy 161.250117 78.796168)
        (xy 161.247602 78.796003)
        (xy 161.247601 78.796003)
        (xy 161.242732 78.795684)
        (xy 161.239499 78.796327)
        (xy 161.236205 78.796327)
        (xy 161.229057 78.798242)
        (xy 161.224327 78.799345)
        (xy 161.130706 78.817967)
        (xy 161.031806 78.83764)
        (xy 161.026996 78.838435)
        (xy 161.024496 78.838764)
        (xy 161.024495 78.838764)
        (xy 161.019658 78.839401)
        (xy 161.016614 78.840662)
        (xy 161.013381 78.841305)
        (xy 161.009002 78.843465)
        (xy 161.008998 78.843466)
        (xy 161.00675 78.844575)
        (xy 161.002315 78.846585)
        (xy 160.861681 78.904838)
        (xy 160.820958 78.921706)
        (xy 160.816416 78.923416)
        (xy 160.809398 78.925798)
        (xy 160.806657 78.92763)
        (xy 160.803614 78.92889)
        (xy 160.799737 78.931865)
        (xy 160.799732 78.931868)
        (xy 160.797749 78.93339)
        (xy 160.793787 78.936229)
        (xy 160.630577 79.045283)
        (xy 160.62646 79.047844)
        (xy 160.620034 79.051554)
        (xy 160.617703 79.053885)
        (xy 160.614964 79.055715)
        (xy 160.610077 79.061288)
        (xy 160.606756 79.064832)
        (xy 160.467974 79.203614)
        (xy 160.464415 79.206948)
        (xy 160.462514 79.208615)
        (xy 160.46251 79.208619)
        (xy 160.458841 79.211837)
        (xy 160.457009 79.214579)
        (xy 160.454681 79.216907)
        (xy 160.450989 79.223302)
        (xy 160.448428 79.227421)
        (xy 160.402451 79.296231)
        (xy 160.339359 79.390656)
        (xy 160.336517 79.394621)
        (xy 160.334989 79.396612)
        (xy 160.334986 79.396617)
        (xy 160.332017 79.400486)
        (xy 160.330756 79.403531)
        (xy 160.328925 79.406271)
        (xy 160.327355 79.410895)
        (xy 160.327355 79.410896)
        (xy 160.32655 79.413268)
        (xy 160.324833 79.417829)
        (xy 160.249767 79.599055)
        (xy 160.249712 79.599187)
        (xy 160.2477 79.603627)
        (xy 160.246594 79.605871)
        (xy 160.244432 79.610255)
        (xy 160.243789 79.613486)
        (xy 160.242528 79.616531)
        (xy 160.241562 79.623868)
        (xy 160.241562 79.623871)
        (xy 160.240772 79.628658)
        (xy 160.203387 79.816603)
        (xy 160.201811 79.823016)
        (xy 160.19994 79.829389)
        (xy 160.199826 79.834208)
        (xy 160.199768 79.834535)
        (xy 160.199753 79.834869)
        (xy 160.198811 79.839605)
        (xy 160.199131 79.844478)
        (xy 160.199246 79.846232)
        (xy 160.199384 79.852867)
        (xy 160.199004 79.868929)
        (xy 160.196729 79.964961)
        (xy 154.798494 79.964961)
        (xy 156.316134 78.447321)
        (xy 156.36232 78.425783)
        (xy 156.368813 78.4255)
        (xy 165.937443 78.4255)
      )
    )
    (filled_polygon
      (layer "F.Cu")
      (pts
        (xy 149.434376 77.91843)
        (xy 149.459856 77.962563)
        (xy 149.459556 77.990034)
        (xy 149.455038 78.01275)
        (xy 149.447628 78.05)
        (xy 149.447628 79.25)
        (xy 149.448342 79.253587)
        (xy 149.448342 79.253592)
        (xy 149.456824 79.296231)
        (xy 149.463271 79.328641)
        (xy 149.507818 79.39531)
        (xy 149.513918 79.399386)
        (xy 149.523431 79.405742)
        (xy 149.574487 79.439857)
        (xy 149.600807 79.445093)
        (xy 149.649536 79.454786)
        (xy 149.649541 79.454786)
        (xy 149.653128 79.4555)
        (xy 151.453128 79.4555)
        (xy 151.456715 79.454786)
        (xy 151.45672 79.454786)
        (xy 151.505449 79.445093)
        (xy 151.531769 79.439857)
        (xy 151.582825 79.405742)
        (xy 151.592338 79.399386)
        (xy 151.598438 79.39531)
        (xy 151.642985 79.328641)
        (xy 151.649432 79.296231)
        (xy 151.657914 79.253592)
        (xy 151.657914 79.253587)
        (xy 151.658628 79.25)
        (xy 151.658628 78.05)
        (xy 151.651218 78.01275)
        (xy 151.6467 77.990034)
        (xy 151.654452 77.939667)
        (xy 151.692766 77.906066)
        (xy 151.719768 77.901)
        (xy 155.761943 77.901)
        (xy 155.809831 77.91843)
        (xy 155.835311 77.962563)
        (xy 155.826462 78.01275)
        (xy 155.814622 78.028179)
        (xy 154.240122 79.602679)
        (xy 154.193936 79.624217)
        (xy 154.187443 79.6245)
        (xy 154.113226 79.6245)
        (xy 154.065338 79.60707)
        (xy 154.044411 79.57853)
        (xy 154.042985 79.571359)
        (xy 153.998438 79.50469)
        (xy 153.931769 79.460143)
        (xy 153.904838 79.454786)
        (xy 153.85672 79.445214)
        (xy 153.856715 79.445214)
        (xy 153.853128 79.4445)
        (xy 152.303128 79.4445)
        (xy 152.299541 79.445214)
        (xy 152.299536 79.445214)
        (xy 152.251418 79.454786)
        (xy 152.224487 79.460143)
        (xy 152.157818 79.50469)
        (xy 152.113271 79.571359)
        (xy 152.109855 79.58853)
        (xy 152.098342 79.646408)
        (xy 152.098342 79.646413)
        (xy 152.097628 79.65)
        (xy 152.097628 80.25)
        (xy 152.098342 80.253587)
        (xy 152.098342 80.253592)
        (xy 152.104375 80.283918)
        (xy 152.113271 80.328641)
        (xy 152.157818 80.39531)
        (xy 152.162317 80.398316)
        (xy 152.183391 80.443507)
        (xy 152.170201 80.492731)
        (xy 152.163162 80.501119)
        (xy 152.157818 80.50469)
        (xy 152.113271 80.571359)
        (xy 152.110949 80.583032)
        (xy 152.098342 80.646408)
        (xy 152.098342 80.646413)
        (xy 152.097628 80.65)
        (xy 152.097628 81.25)
        (xy 152.098342 81.253587)
        (xy 152.098342 81.253592)
        (xy 152.104375 81.283918)
        (xy 152.113271 81.328641)
        (xy 152.157818 81.39531)
        (xy 152.162317 81.398316)
        (xy 152.183391 81.443507)
        (xy 152.170201 81.492731)
        (xy 152.163162 81.501119)
        (xy 152.157818 81.50469)
        (xy 152.113271 81.571359)
        (xy 152.111846 81.578525)
        (xy 152.077431 81.616082)
        (xy 152.04303 81.6245)
        (xy 149.220351 81.6245)
        (xy 149.213858 81.624216)
        (xy 149.180821 81.621326)
        (xy 149.180818 81.621326)
        (xy 149.174322 81.620758)
        (xy 149.135747 81.631094)
        (xy 149.129401 81.6325)
        (xy 149.09009 81.639432)
        (xy 149.084445 81.642691)
        (xy 149.079433 81.644515)
        (xy 149.074559 81.646534)
        (xy 149.069745 81.648779)
        (xy 149.063453 81.650465)
        (xy 149.058116 81.654202)
        (xy 149.030746 81.673366)
        (xy 149.025271 81.676855)
        (xy 148.990687 81.696822)
        (xy 148.974287 81.716367)
        (xy 148.965176 81.727225)
        (xy 148.960785 81.732016)
        (xy 148.690122 82.002679)
        (xy 148.643936 82.024217)
        (xy 148.637443 82.0245)
        (xy 148.196559 82.0245)
        (xy 148.095096 82.04057)
        (xy 147.975086 82.101718)
        (xy 147.879846 82.196958)
        (xy 147.818698 82.316968)
        (xy 147.802628 82.418431)
        (xy 147.802628 82.981569)
        (xy 147.818698 83.083032)
        (xy 147.821361 83.088258)
        (xy 147.874875 83.193285)
        (xy 147.879846 83.203042)
        (xy 147.975086 83.298282)
        (xy 148.095096 83.35943)
        (xy 148.196559 83.3755)
        (xy 148.709697 83.3755)
        (xy 148.81116 83.35943)
        (xy 148.93117 83.298282)
        (xy 149.016466 83.212986)
        (xy 152.147128 83.212986)
        (xy 152.147128 83.246339)
        (xy 152.147843 83.253594)
        (xy 152.157571 83.302502)
        (xy 152.163078 83.315798)
        (xy 152.188746 83.354213)
        (xy 152.198915 83.364382)
        (xy 152.23733 83.39005)
        (xy 152.250626 83.395557)
        (xy 152.299534 83.405285)
        (xy 152.306789 83.406)
        (xy 152.810991 83.406)
        (xy 152.821055 83.402337)
        (xy 152.824128 83.397014)
        (xy 152.824128 83.217137)
        (xy 152.822617 83.212986)
        (xy 153.332128 83.212986)
        (xy 153.332128 83.392863)
        (xy 153.335791 83.402927)
        (xy 153.341114 83.406)
        (xy 153.849467 83.406)
        (xy 153.856722 83.405285)
        (xy 153.90563 83.395557)
        (xy 153.918926 83.39005)
        (xy 153.957341 83.364382)
        (xy 153.96751 83.354213)
        (xy 153.993178 83.315798)
        (xy 153.998685 83.302502)
        (xy 154.008413 83.253594)
        (xy 154.009128 83.246339)
        (xy 154.009128 83.217137)
        (xy 154.005465 83.207073)
        (xy 154.000142 83.204)
        (xy 153.345265 83.204)
        (xy 153.335201 83.207663)
        (xy 153.332128 83.212986)
        (xy 152.822617 83.212986)
        (xy 152.820465 83.207073)
        (xy 152.815142 83.204)
        (xy 152.160265 83.204)
        (xy 152.150201 83.207663)
        (xy 152.147128 83.212986)
        (xy 149.016466 83.212986)
        (xy 149.02641 83.203042)
        (xy 149.031382 83.193285)
        (xy 149.084895 83.088258)
        (xy 149.087558 83.083032)
        (xy 149.103628 82.981569)
        (xy 149.103628 82.540685)
        (xy 149.121058 82.492797)
        (xy 149.125449 82.488006)
        (xy 149.316134 82.297321)
        (xy 149.36232 82.275783)
        (xy 149.368813 82.2755)
        (xy 152.04303 82.2755)
        (xy 152.090918 82.29293)
        (xy 152.111845 82.32147)
        (xy 152.113271 82.328641)
        (xy 152.157818 82.39531)
        (xy 152.191085 82.417538)
        (xy 152.221217 82.458633)
        (xy 152.217885 82.509485)
        (xy 152.202373 82.53216)
        (xy 152.188746 82.545787)
        (xy 152.163078 82.584202)
        (xy 152.157571 82.597498)
        (xy 152.147843 82.646406)
        (xy 152.147128 82.653661)
        (xy 152.147128 82.682863)
        (xy 152.150791 82.692927)
        (xy 152.156114 82.696)
        (xy 153.995991 82.696)
        (xy 154.008493 82.69145)
        (xy 154.043797 82.661827)
        (xy 154.094758 82.661827)
        (xy 154.121956 82.679155)
        (xy 154.638538 83.195737)
        (xy 154.660076 83.241923)
        (xy 154.659722 83.258137)
        (xy 154.647628 83.35)
        (xy 154.66826 83.506715)
        (xy 154.72875 83.65275)
        (xy 154.824975 83.778153)
        (xy 154.950378 83.874378)
        (xy 155.096413 83.934868)
        (xy 155.253128 83.9555)
        (xy 155.257966 83.954863)
        (xy 155.405005 83.935505)
        (xy 155.409843 83.934868)
        (xy 155.555878 83.874378)
        (xy 155.681281 83.778153)
        (xy 155.777506 83.65275)
        (xy 155.837996 83.506715)
        (xy 155.858628 83.35)
        (xy 155.837996 83.193285)
        (xy 155.777506 83.04725)
        (xy 155.681281 82.921847)
        (xy 155.555878 82.825622)
        (xy 155.409843 82.765132)
        (xy 155.381413 82.761389)
        (xy 155.331486 82.754816)
        (xy 155.253128 82.7445)
        (xy 155.161268 82.756594)
        (xy 155.111515 82.745564)
        (xy 155.098865 82.73541)
        (xy 154.095471 81.732016)
        (xy 154.091079 81.727224)
        (xy 154.076057 81.709321)
        (xy 154.058628 81.661434)
        (xy 154.058628 81.65)
        (xy 154.057914 81.646413)
        (xy 154.057914 81.646408)
        (xy 154.044417 81.578559)
        (xy 154.042985 81.571359)
        (xy 153.998438 81.50469)
        (xy 153.993939 81.501684)
        (xy 153.972865 81.456493)
        (xy 153.986055 81.407269)
        (xy 153.993094 81.398881)
        (xy 153.998438 81.39531)
        (xy 154.042985 81.328641)
        (xy 154.04441 81.321475)
        (xy 154.078825 81.283918)
        (xy 154.113226 81.2755)
        (xy 154.487443 81.2755)
        (xy 154.535331 81.29293)
        (xy 154.540122 81.297321)
        (xy 156.33106 83.088258)
        (xy 158.114623 84.871821)
        (xy 158.136161 84.918007)
        (xy 158.122971 84.967231)
        (xy 158.081226 84.996461)
        (xy 158.061944 84.999)
        (xy 151.719768 84.999)
        (xy 151.67188 84.98157)
        (xy 151.6464 84.937437)
        (xy 151.6467 84.909966)
        (xy 151.657913 84.853594)
        (xy 151.658628 84.85)
        (xy 151.658628 83.65)
        (xy 151.657914 83.646413)
        (xy 151.657914 83.646408)
        (xy 151.644417 83.578559)
        (xy 151.642985 83.571359)
        (xy 151.598438 83.50469)
        (xy 151.59231 83.500595)
        (xy 151.579446 83.492)
        (xy 151.531769 83.460143)
        (xy 151.505449 83.454907)
        (xy 151.45672 83.445214)
        (xy 151.456715 83.445214)
        (xy 151.453128 83.4445)
        (xy 149.653128 83.4445)
        (xy 149.649541 83.445214)
        (xy 149.649536 83.445214)
        (xy 149.600807 83.454907)
        (xy 149.574487 83.460143)
        (xy 149.52681 83.492)
        (xy 149.513947 83.500595)
        (xy 149.507818 83.50469)
        (xy 149.463271 83.571359)
        (xy 149.461839 83.578559)
        (xy 149.448342 83.646408)
        (xy 149.448342 83.646413)
        (xy 149.447628 83.65)
        (xy 149.447628 84.85)
        (xy 149.448343 84.853594)
        (xy 149.459556 84.909966)
        (xy 149.451804 84.960333)
        (xy 149.41349 84.993934)
        (xy 149.386488 84.999)
        (xy 146.501798 84.999)
        (xy 146.485579 84.996638)
        (xy 146.485564 84.996733)
        (xy 146.48074 84.995963)
        (xy 146.476059 84.99457)
        (xy 146.471175 84.994436)
        (xy 146.467111 84.994325)
        (xy 146.420938 84.993058)
        (xy 146.41327 84.99245)
        (xy 146.409726 84.991983)
        (xy 146.400179 84.990085)
        (xy 146.34674 84.975766)
        (xy 146.330515 84.971418)
        (xy 146.312548 84.963976)
        (xy 146.251505 84.928733)
        (xy 146.236076 84.916893)
        (xy 146.186237 84.867054)
        (xy 146.174397 84.851625)
        (xy 146.139151 84.790577)
        (xy 146.131709 84.77261)
        (xy 146.123218 84.740921)
        (xy 146.113043 84.702948)
        (xy 146.111144 84.693399)
        (xy 146.110678 84.689858)
        (xy 146.11007 84.68219)
        (xy 146.108558 84.62707)
        (xy 146.107165 84.622389)
        (xy 146.106395 84.617565)
        (xy 146.10649 84.61755)
        (xy 146.104128 84.601331)
        (xy 146.104128 82.962986)
        (xy 146.302128 82.962986)
        (xy 146.302128 82.976965)
        (xy 146.302633 82.983075)
        (xy 146.316658 83.067338)
        (xy 146.320593 83.078832)
        (xy 146.374156 83.178101)
        (xy 146.381599 83.187696)
        (xy 146.464429 83.264263)
        (xy 146.474583 83.270933)
        (xy 146.578416 83.316837)
        (xy 146.588755 83.319709)
        (xy 146.636236 83.325708)
        (xy 146.636712 83.325738)
        (xy 146.646055 83.322337)
        (xy 146.649128 83.317014)
        (xy 146.649128 82.967137)
        (xy 146.647617 82.962986)
        (xy 147.157128 82.962986)
        (xy 147.157128 83.312863)
        (xy 147.160791 83.322927)
        (xy 147.164336 83.324974)
        (xy 147.245466 83.31147)
        (xy 147.25696 83.307535)
        (xy 147.356229 83.253972)
        (xy 147.365824 83.246529)
        (xy 147.442391 83.163699)
        (xy 147.449061 83.153545)
        (xy 147.494965 83.049712)
        (xy 147.497837 83.039373)
        (xy 147.503836 82.991892)
        (xy 147.504128 82.987243)
        (xy 147.504128 82.967137)
        (xy 147.500465 82.957073)
        (xy 147.495142 82.954)
        (xy 147.170265 82.954)
        (xy 147.160201 82.957663)
        (xy 147.157128 82.962986)
        (xy 146.647617 82.962986)
        (xy 146.645465 82.957073)
        (xy 146.640142 82.954)
        (xy 146.315265 82.954)
        (xy 146.305201 82.957663)
        (xy 146.302128 82.962986)
        (xy 146.104128 82.962986)
        (xy 146.104128 82.412757)
        (xy 146.302128 82.412757)
        (xy 146.302128 82.432863)
        (xy 146.305791 82.442927)
        (xy 146.311114 82.446)
        (xy 146.635991 82.446)
        (xy 146.646055 82.442337)
        (xy 146.649128 82.437014)
        (xy 146.649128 82.087137)
        (xy 146.647617 82.082986)
        (xy 147.157128 82.082986)
        (xy 147.157128 82.432863)
        (xy 147.160791 82.442927)
        (xy 147.166114 82.446)
        (xy 147.490991 82.446)
        (xy 147.501055 82.442337)
        (xy 147.504128 82.437014)
        (xy 147.504128 82.423035)
        (xy 147.503623 82.416925)
        (xy 147.489598 82.332662)
        (xy 147.485663 82.321168)
        (xy 147.4321 82.221899)
        (xy 147.424657 82.212304)
        (xy 147.341827 82.135737)
        (xy 147.331673 82.129067)
        (xy 147.22784 82.083163)
        (xy 147.217501 82.080291)
        (xy 147.17002 82.074292)
        (xy 147.169544 82.074262)
        (xy 147.160201 82.077663)
        (xy 147.157128 82.082986)
        (xy 146.647617 82.082986)
        (xy 146.645465 82.077073)
        (xy 146.64192 82.075026)
        (xy 146.56079 82.08853)
        (xy 146.549296 82.092465)
        (xy 146.450027 82.146028)
        (xy 146.440432 82.153471)
        (xy 146.363865 82.236301)
        (xy 146.357195 82.246455)
        (xy 146.311291 82.350288)
        (xy 146.308419 82.360627)
        (xy 146.30242 82.408108)
        (xy 146.302128 82.412757)
        (xy 146.104128 82.412757)
        (xy 146.104128 80.462986)
        (xy 146.302128 80.462986)
        (xy 146.302128 80.476965)
        (xy 146.302633 80.483075)
        (xy 146.316658 80.567338)
        (xy 146.320593 80.578832)
        (xy 146.374156 80.678101)
        (xy 146.381599 80.687696)
        (xy 146.464429 80.764263)
        (xy 146.474583 80.770933)
        (xy 146.578416 80.816837)
        (xy 146.588755 80.819709)
        (xy 146.636236 80.825708)
        (xy 146.636712 80.825738)
        (xy 146.646055 80.822337)
        (xy 146.649128 80.817014)
        (xy 146.649128 80.467137)
        (xy 146.647617 80.462986)
        (xy 147.157128 80.462986)
        (xy 147.157128 80.812863)
        (xy 147.160791 80.822927)
        (xy 147.164336 80.824974)
        (xy 147.245466 80.81147)
        (xy 147.25696 80.807535)
        (xy 147.356229 80.753972)
        (xy 147.365824 80.746529)
        (xy 147.442391 80.663699)
        (xy 147.449061 80.653545)
        (xy 147.494965 80.549712)
        (xy 147.497837 80.539373)
        (xy 147.503836 80.491892)
        (xy 147.504128 80.487243)
        (xy 147.504128 80.467137)
        (xy 147.500465 80.457073)
        (xy 147.495142 80.454)
        (xy 147.170265 80.454)
        (xy 147.160201 80.457663)
        (xy 147.157128 80.462986)
        (xy 146.647617 80.462986)
        (xy 146.645465 80.457073)
        (xy 146.640142 80.454)
        (xy 146.315265 80.454)
        (xy 146.305201 80.457663)
        (xy 146.302128 80.462986)
        (xy 146.104128 80.462986)
        (xy 146.104128 79.912757)
        (xy 146.302128 79.912757)
        (xy 146.302128 79.932863)
        (xy 146.305791 79.942927)
        (xy 146.311114 79.946)
        (xy 146.635991 79.946)
        (xy 146.646055 79.942337)
        (xy 146.649128 79.937014)
        (xy 146.649128 79.587137)
        (xy 146.647617 79.582986)
        (xy 147.157128 79.582986)
        (xy 147.157128 79.932863)
        (xy 147.160791 79.942927)
        (xy 147.166114 79.946)
        (xy 147.490991 79.946)
        (xy 147.501055 79.942337)
        (xy 147.504128 79.937014)
        (xy 147.504128 79.923035)
        (xy 147.503747 79.918431)
        (xy 147.802628 79.918431)
        (xy 147.802628 80.481569)
        (xy 147.818698 80.583032)
        (xy 147.821361 80.588258)
        (xy 147.866505 80.676858)
        (xy 147.879846 80.703042)
        (xy 147.975086 80.798282)
        (xy 148.095096 80.85943)
        (xy 148.196559 80.8755)
        (xy 148.709697 80.8755)
        (xy 148.81116 80.85943)
        (xy 148.93117 80.798282)
        (xy 149.02641 80.703042)
        (xy 149.039752 80.676858)
        (xy 149.084895 80.588258)
        (xy 149.087558 80.583032)
        (xy 149.103628 80.481569)
        (xy 149.103628 79.918431)
        (xy 149.087558 79.816968)
        (xy 149.044618 79.732693)
        (xy 149.029073 79.702184)
        (xy 149.029072 79.702183)
        (xy 149.02641 79.696958)
        (xy 148.93117 79.601718)
        (xy 148.819305 79.54472)
        (xy 148.784551 79.507451)
        (xy 148.778628 79.478341)
        (xy 148.778628 79.443661)
        (xy 148.796058 79.395773)
        (xy 148.807775 79.384556)
        (xy 148.877413 79.331121)
        (xy 148.881281 79.328153)
        (xy 148.977506 79.20275)
        (xy 149.037996 79.056715)
        (xy 149.038676 79.051554)
        (xy 149.055544 78.923423)
        (xy 149.058628 78.9)
        (xy 149.044952 78.796121)
        (xy 149.038633 78.748123)
        (xy 149.037996 78.743285)
        (xy 148.977506 78.59725)
        (xy 148.881281 78.471847)
        (xy 148.755878 78.375622)
        (xy 148.609843 78.315132)
        (xy 148.453128 78.2945)
        (xy 148.296413 78.315132)
        (xy 148.150378 78.375622)
        (xy 148.024975 78.471847)
        (xy 147.92875 78.59725)
        (xy 147.86826 78.743285)
        (xy 147.867623 78.748123)
        (xy 147.861304 78.796121)
        (xy 147.847628 78.9)
        (xy 147.850712 78.923423)
        (xy 147.867581 79.051554)
        (xy 147.86826 79.056715)
        (xy 147.92875 79.20275)
        (xy 148.024975 79.328153)
        (xy 148.028843 79.331121)
        (xy 148.098481 79.384556)
        (xy 148.125862 79.427536)
        (xy 148.127628 79.443661)
        (xy 148.127628 79.478341)
        (xy 148.110198 79.526229)
        (xy 148.086951 79.54472)
        (xy 147.975086 79.601718)
        (xy 147.879846 79.696958)
        (xy 147.877184 79.702183)
        (xy 147.877183 79.702184)
        (xy 147.861638 79.732693)
        (xy 147.818698 79.816968)
        (xy 147.802628 79.918431)
        (xy 147.503747 79.918431)
        (xy 147.503623 79.916925)
        (xy 147.489598 79.832662)
        (xy 147.485663 79.821168)
        (xy 147.4321 79.721899)
        (xy 147.424657 79.712304)
        (xy 147.341827 79.635737)
        (xy 147.331673 79.629067)
        (xy 147.22784 79.583163)
        (xy 147.217501 79.580291)
        (xy 147.17002 79.574292)
        (xy 147.169544 79.574262)
        (xy 147.160201 79.577663)
        (xy 147.157128 79.582986)
        (xy 146.647617 79.582986)
        (xy 146.645465 79.577073)
        (xy 146.64192 79.575026)
        (xy 146.56079 79.58853)
        (xy 146.549296 79.592465)
        (xy 146.450027 79.646028)
        (xy 146.440432 79.653471)
        (xy 146.363865 79.736301)
        (xy 146.357195 79.746455)
        (xy 146.311291 79.850288)
        (xy 146.308419 79.860627)
        (xy 146.30242 79.908108)
        (xy 146.302128 79.912757)
        (xy 146.104128 79.912757)
        (xy 146.104128 78.298669)
        (xy 146.10649 78.28245)
        (xy 146.106395 78.282435)
        (xy 146.107165 78.277611)
        (xy 146.108558 78.27293)
        (xy 146.11007 78.21781)
        (xy 146.110678 78.210142)
        (xy 146.111144 78.206601)
        (xy 146.113043 78.197052)
        (xy 146.13171 78.127387)
        (xy 146.139151 78.109423)
        (xy 146.174397 78.048375)
        (xy 146.186237 78.032946)
        (xy 146.236076 77.983107)
        (xy 146.251505 77.971267)
        (xy 146.312548 77.936024)
        (xy 146.330515 77.928582)
        (xy 146.34674 77.924234)
        (xy 146.400179 77.909915)
        (xy 146.409726 77.908017)
        (xy 146.413271 77.90755)
        (xy 146.420938 77.906942)
        (xy 146.467111 77.905675)
        (xy 146.471175 77.905564)
        (xy 146.476059 77.90543)
        (xy 146.48074 77.904037)
        (xy 146.485564 77.903267)
        (xy 146.485579 77.903362)
        (xy 146.501798 77.901)
        (xy 149.386488 77.901)
      )
    )
    (filled_polygon
      (layer "B.Cu")
      (pts
        (xy 160.209832 77.91843)
        (xy 160.235312 77.962563)
        (xy 160.226463 78.01275)
        (xy 160.214627 78.028175)
        (xy 159.69012 78.552681)
        (xy 159.643936 78.574217)
        (xy 159.637443 78.5745)
        (xy 148.996789 78.5745)
        (xy 148.948901 78.55707)
        (xy 148.937684 78.545353)
        (xy 148.884249 78.475715)
        (xy 148.881281 78.471847)
        (xy 148.755878 78.375622)
        (xy 148.609843 78.315132)
        (xy 148.453128 78.2945)
        (xy 148.296413 78.315132)
        (xy 148.150378 78.375622)
        (xy 148.024975 78.471847)
        (xy 147.92875 78.59725)
        (xy 147.86826 78.743285)
        (xy 147.867623 78.748123)
        (xy 147.861304 78.796121)
        (xy 147.847628 78.9)
        (xy 147.850712 78.923423)
        (xy 147.867581 79.051554)
        (xy 147.86826 79.056715)
        (xy 147.92875 79.20275)
        (xy 148.024975 79.328153)
        (xy 148.150378 79.424378)
        (xy 148.296413 79.484868)
        (xy 148.453128 79.5055)
        (xy 148.457966 79.504863)
        (xy 148.605005 79.485505)
        (xy 148.609843 79.484868)
        (xy 148.755878 79.424378)
        (xy 148.881281 79.328153)
        (xy 148.885877 79.322164)
        (xy 148.937684 79.254647)
        (xy 148.980664 79.227266)
        (xy 148.996789 79.2255)
        (xy 159.785916 79.2255)
        (xy 159.792409 79.225784)
        (xy 159.831933 79.229242)
        (xy 159.838232 79.227554)
        (xy 159.838234 79.227554)
        (xy 159.870496 79.218909)
        (xy 159.876841 79.217502)
        (xy 159.909746 79.2117)
        (xy 159.916166 79.210568)
        (xy 159.92181 79.207309)
        (xy 159.926833 79.205481)
        (xy 159.931653 79.203485)
        (xy 159.936506 79.201222)
        (xy 159.942803 79.199535)
        (xy 159.97551 79.176634)
        (xy 159.980985 79.173145)
        (xy 160.015569 79.153178)
        (xy 160.04108 79.122775)
        (xy 160.045471 79.117984)
        (xy 160.716133 78.447321)
        (xy 160.762319 78.425783)
        (xy 160.768812 78.4255)
        (xy 162.882443 78.4255)
        (xy 162.930331 78.44293)
        (xy 162.935122 78.447321)
        (xy 163.415807 78.928006)
        (xy 163.437345 78.974192)
        (xy 163.437628 78.980685)
        (xy 163.437628 80.014999)
        (xy 163.438342 80.018586)
        (xy 163.438342 80.018591)
        (xy 163.448035 80.06732)
        (xy 163.453271 80.09364)
        (xy 163.497818 80.160309)
        (xy 163.564487 80.204856)
        (xy 163.581997 80.208339)
        (xy 163.639536 80.219785)
        (xy 163.639541 80.219785)
        (xy 163.643128 80.220499)
        (xy 164.253128 80.220499)
        (xy 164.256715 80.219785)
        (xy 164.25672 80.219785)
        (xy 164.314259 80.208339)
        (xy 164.331769 80.204856)
        (xy 164.398438 80.160309)
        (xy 164.442985 80.09364)
        (xy 164.448221 80.06732)
        (xy 164.457914 80.018591)
        (xy 164.457914 80.018586)
        (xy 164.458628 80.014999)
        (xy 164.458628 79.262986)
        (xy 164.757128 79.262986)
        (xy 164.757128 80.011338)
        (xy 164.757843 80.018593)
        (xy 164.767571 80.067501)
        (xy 164.773078 80.080797)
        (xy 164.798746 80.119212)
        (xy 164.808915 80.129381)
        (xy 164.84733 80.155049)
        (xy 164.860626 80.160556)
        (xy 164.909534 80.170284)
        (xy 164.916789 80.170999)
        (xy 164.950991 80.170999)
        (xy 164.961055 80.167336)
        (xy 164.964128 80.162013)
        (xy 164.964128 79.267137)
        (xy 164.962617 79.262986)
        (xy 165.472128 79.262986)
        (xy 165.472128 80.157862)
        (xy 165.475791 80.167926)
        (xy 165.481114 80.170999)
        (xy 165.519467 80.170999)
        (xy 165.526722 80.170284)
        (xy 165.57563 80.160556)
        (xy 165.588926 80.155049)
        (xy 165.627341 80.129381)
        (xy 165.63751 80.119212)
        (xy 165.663178 80.080797)
        (xy 165.668685 80.067501)
        (xy 165.678413 80.018593)
        (xy 165.679128 80.011338)
        (xy 165.679128 79.267137)
        (xy 165.675465 79.257073)
        (xy 165.670142 79.254)
        (xy 165.485265 79.254)
        (xy 165.475201 79.257663)
        (xy 165.472128 79.262986)
        (xy 164.962617 79.262986)
        (xy 164.960465 79.257073)
        (xy 164.955142 79.254)
        (xy 164.770265 79.254)
        (xy 164.760201 79.257663)
        (xy 164.757128 79.262986)
        (xy 164.458628 79.262986)
        (xy 164.458628 77.985001)
        (xy 164.45813 77.982496)
        (xy 164.470702 77.933438)
        (xy 164.512124 77.903754)
        (xy 164.532192 77.901)
        (xy 164.683564 77.901)
        (xy 164.731452 77.91843)
        (xy 164.756932 77.962563)
        (xy 164.757705 77.982804)
        (xy 164.757128 77.988661)
        (xy 164.757128 78.732863)
        (xy 164.760791 78.742927)
        (xy 164.766114 78.746)
        (xy 165.665991 78.746)
        (xy 165.676055 78.742337)
        (xy 165.679128 78.737014)
        (xy 165.679128 77.988661)
        (xy 165.678551 77.982804)
        (xy 165.691202 77.933438)
        (xy 165.732624 77.903754)
        (xy 165.752692 77.901)
        (xy 165.904064 77.901)
        (xy 165.951952 77.91843)
        (xy 165.977432 77.962563)
        (xy 165.978182 77.982214)
        (xy 165.977628 77.985001)
        (xy 165.977628 80.014999)
        (xy 165.978342 80.018586)
        (xy 165.978342 80.018591)
        (xy 165.988035 80.06732)
        (xy 165.993271 80.09364)
        (xy 166.037818 80.160309)
        (xy 166.104487 80.204856)
        (xy 166.111685 80.206288)
        (xy 166.116637 80.208339)
        (xy 166.15421 80.242767)
        (xy 166.162628 80.277168)
        (xy 166.162628 80.39108)
        (xy 166.145198 80.438968)
        (xy 166.10533 80.460833)
        (xy 166.105972 80.46323)
        (xy 166.101251 80.464495)
        (xy 166.096413 80.465132)
        (xy 165.950378 80.525622)
        (xy 165.824975 80.621847)
        (xy 165.72875 80.74725)
        (xy 165.66826 80.893285)
        (xy 165.647628 81.05)
        (xy 165.66826 81.206715)
        (xy 165.72875 81.35275)
        (xy 165.824975 81.478153)
        (xy 165.950378 81.574378)
        (xy 166.096413 81.634868)
        (xy 166.253128 81.6555)
        (xy 166.257966 81.654863)
        (xy 166.291107 81.6505)
        (xy 166.409843 81.634868)
        (xy 166.555878 81.574378)
        (xy 166.681281 81.478153)
        (xy 166.777506 81.35275)
        (xy 166.837996 81.206715)
        (xy 166.858628 81.05)
        (xy 166.837996 80.893285)
        (xy 166.821721 80.853995)
        (xy 166.816336 80.831987)
        (xy 166.81391 80.804259)
        (xy 166.813628 80.797788)
        (xy 166.813628 80.277168)
        (xy 166.831058 80.22928)
        (xy 166.859619 80.208339)
        (xy 166.864571 80.206288)
        (xy 166.871769 80.204856)
        (xy 166.938438 80.160309)
        (xy 166.982985 80.09364)
        (xy 166.988221 80.06732)
        (xy 166.997914 80.018591)
        (xy 166.997914 80.018586)
        (xy 166.998628 80.014999)
        (xy 166.998628 77.985001)
        (xy 166.99813 77.982496)
        (xy 167.010702 77.933438)
        (xy 167.052124 77.903754)
        (xy 167.072192 77.901)
        (xy 167.174064 77.901)
        (xy 167.221952 77.91843)
        (xy 167.247432 77.962563)
        (xy 167.248182 77.982214)
        (xy 167.247628 77.985001)
        (xy 167.247628 80.014999)
        (xy 167.248342 80.018586)
        (xy 167.248342 80.018591)
        (xy 167.258035 80.06732)
        (xy 167.263271 80.09364)
        (xy 167.307818 80.160309)
        (xy 167.374487 80.204856)
        (xy 167.381685 80.206288)
        (xy 167.386637 80.208339)
        (xy 167.42421 80.242767)
        (xy 167.432628 80.277168)
        (xy 167.432628 80.501339)
        (xy 167.415198 80.549227)
        (xy 167.403481 80.560444)
        (xy 167.329975 80.616847)
        (xy 167.23375 80.74225)
        (xy 167.17326 80.888285)
        (xy 167.152628 81.045)
        (xy 167.17326 81.201715)
        (xy 167.23375 81.34775)
        (xy 167.329975 81.473153)
        (xy 167.455378 81.569378)
        (xy 167.601413 81.629868)
        (xy 167.606251 81.630505)
        (xy 167.64423 81.635505)
        (xy 167.758128 81.6505)
        (xy 167.762966 81.649863)
        (xy 167.910005 81.630505)
        (xy 167.914843 81.629868)
        (xy 168.060878 81.569378)
        (xy 168.186281 81.473153)
        (xy 168.268523 81.365973)
        (xy 168.311503 81.338592)
        (xy 168.362028 81.345244)
        (xy 168.396457 81.382816)
        (xy 168.402128 81.411326)
        (xy 168.402128 82.799743)
        (xy 168.384698 82.847631)
        (xy 168.340565 82.873111)
        (xy 168.290378 82.864262)
        (xy 168.257621 82.825224)
        (xy 168.25456 82.814277)
        (xy 168.254418 82.813561)
        (xy 168.254417 82.813558)
        (xy 168.252985 82.80636)
        (xy 168.208438 82.739691)
        (xy 168.141769 82.695144)
        (xy 168.115449 82.689908)
        (xy 168.06672 82.680215)
        (xy 168.066715 82.680215)
        (xy 168.063128 82.679501)
        (xy 167.453128 82.679501)
        (xy 167.449541 82.680215)
        (xy 167.449536 82.680215)
        (xy 167.400807 82.689908)
        (xy 167.374487 82.695144)
        (xy 167.307818 82.739691)
        (xy 167.263271 82.80636)
        (xy 167.258849 82.828592)
        (xy 167.248342 82.881409)
        (xy 167.248342 82.881414)
        (xy 167.247628 82.885001)
        (xy 167.247628 84.914999)
        (xy 167.248126 84.917504)
        (xy 167.235554 84.966562)
        (xy 167.194132 84.996246)
        (xy 167.174064 84.999)
        (xy 167.072192 84.999)
        (xy 167.024304 84.98157)
        (xy 166.998824 84.937437)
        (xy 166.998074 84.917786)
        (xy 166.998628 84.914999)
        (xy 166.998628 82.885001)
        (xy 166.997914 82.881414)
        (xy 166.997914 82.881409)
        (xy 166.987407 82.828592)
        (xy 166.982985 82.80636)
        (xy 166.938438 82.739691)
        (xy 166.871769 82.695144)
        (xy 166.845449 82.689908)
        (xy 166.79672 82.680215)
        (xy 166.796715 82.680215)
        (xy 166.793128 82.679501)
        (xy 166.183128 82.679501)
        (xy 166.179541 82.680215)
        (xy 166.179536 82.680215)
        (xy 166.130807 82.689908)
        (xy 166.104487 82.695144)
        (xy 166.037818 82.739691)
        (xy 165.993271 82.80636)
        (xy 165.988849 82.828592)
        (xy 165.978342 82.881409)
        (xy 165.978342 82.881414)
        (xy 165.977628 82.885001)
        (xy 165.977628 84.914999)
        (xy 165.978126 84.917504)
        (xy 165.965554 84.966562)
        (xy 165.924132 84.996246)
        (xy 165.904064 84.999)
        (xy 165.802192 84.999)
        (xy 165.754304 84.98157)
        (xy 165.728824 84.937437)
        (xy 165.728074 84.917786)
        (xy 165.728628 84.914999)
        (xy 165.728628 82.885001)
        (xy 165.727914 82.881414)
        (xy 165.727914 82.881409)
        (xy 165.717407 82.828592)
        (xy 165.712985 82.80636)
        (xy 165.668438 82.739691)
        (xy 165.601769 82.695144)
        (xy 165.575449 82.689908)
        (xy 165.52672 82.680215)
        (xy 165.526715 82.680215)
        (xy 165.523128 82.679501)
        (xy 164.913128 82.679501)
        (xy 164.909541 82.680215)
        (xy 164.909536 82.680215)
        (xy 164.860807 82.689908)
        (xy 164.834487 82.695144)
        (xy 164.767818 82.739691)
        (xy 164.723271 82.80636)
        (xy 164.718849 82.828592)
        (xy 164.708342 82.881409)
        (xy 164.708342 82.881414)
        (xy 164.707628 82.885001)
        (xy 164.707628 84.914999)
        (xy 164.708126 84.917504)
        (xy 164.695554 84.966562)
        (xy 164.654132 84.996246)
        (xy 164.634064 84.999)
        (xy 164.532192 84.999)
        (xy 164.484304 84.98157)
        (xy 164.458824 84.937437)
        (xy 164.458074 84.917786)
        (xy 164.458628 84.914999)
        (xy 164.458628 82.885001)
        (xy 164.457914 82.881414)
        (xy 164.457914 82.881409)
        (xy 164.447407 82.828592)
        (xy 164.442985 82.80636)
        (xy 164.398438 82.739691)
        (xy 164.331769 82.695144)
        (xy 164.305449 82.689908)
        (xy 164.25672 82.680215)
        (xy 164.256715 82.680215)
        (xy 164.253128 82.679501)
        (xy 163.643128 82.679501)
        (xy 163.639541 82.680215)
        (xy 163.639536 82.680215)
        (xy 163.590807 82.689908)
        (xy 163.564487 82.695144)
        (xy 163.497818 82.739691)
        (xy 163.453271 82.80636)
        (xy 163.448849 82.828592)
        (xy 163.438342 82.881409)
        (xy 163.438342 82.881414)
        (xy 163.437628 82.885001)
        (xy 163.437628 83.919315)
        (xy 163.420198 83.967203)
        (xy 163.415807 83.971995)
        (xy 162.885121 84.50268)
        (xy 162.838935 84.524217)
        (xy 162.832442 84.5245)
        (xy 156.018813 84.5245)
        (xy 155.970925 84.50707)
        (xy 155.966134 84.502679)
        (xy 155.600449 84.136994)
        (xy 155.578911 84.090808)
        (xy 155.578628 84.084315)
        (xy 155.578628 83.893661)
        (xy 155.596058 83.845773)
        (xy 155.607775 83.834556)
        (xy 155.677413 83.781121)
        (xy 155.681281 83.778153)
        (xy 155.777506 83.65275)
        (xy 155.837996 83.506715)
        (xy 155.858628 83.35)
        (xy 155.837996 83.193285)
        (xy 155.777506 83.04725)
        (xy 155.681281 82.921847)
        (xy 155.555878 82.825622)
        (xy 155.409843 82.765132)
        (xy 155.253128 82.7445)
        (xy 155.096413 82.765132)
        (xy 154.950378 82.825622)
        (xy 154.824975 82.921847)
        (xy 154.72875 83.04725)
        (xy 154.66826 83.193285)
        (xy 154.647628 83.35)
        (xy 154.66826 83.506715)
        (xy 154.72875 83.65275)
        (xy 154.824975 83.778153)
        (xy 154.828843 83.781121)
        (xy 154.898481 83.834556)
        (xy 154.925862 83.877536)
        (xy 154.927628 83.893661)
        (xy 154.927628 84.232788)
        (xy 154.927344 84.239281)
        (xy 154.923886 84.278805)
        (xy 154.925574 84.285104)
        (xy 154.925574 84.285106)
        (xy 154.934219 84.317368)
        (xy 154.935626 84.323713)
        (xy 154.94256 84.363038)
        (xy 154.945819 84.368682)
        (xy 154.947647 84.373705)
        (xy 154.949643 84.378525)
        (xy 154.951906 84.383378)
        (xy 154.953593 84.389675)
        (xy 154.957333 84.395016)
        (xy 154.976494 84.422382)
        (xy 154.979983 84.427857)
        (xy 154.99995 84.462441)
        (xy 155.030353 84.487952)
        (xy 155.035144 84.492343)
        (xy 155.414622 84.871821)
        (xy 155.43616 84.918007)
        (xy 155.42297 84.967231)
        (xy 155.381225 84.996461)
        (xy 155.361943 84.999)
        (xy 146.501798 84.999)
        (xy 146.485579 84.996638)
        (xy 146.485564 84.996733)
        (xy 146.48074 84.995963)
        (xy 146.476059 84.99457)
        (xy 146.471175 84.994436)
        (xy 146.467111 84.994325)
        (xy 146.420938 84.993058)
        (xy 146.41327 84.99245)
        (xy 146.409726 84.991983)
        (xy 146.400179 84.990085)
        (xy 146.34674 84.975766)
        (xy 146.330515 84.971418)
        (xy 146.312548 84.963976)
        (xy 146.251505 84.928733)
        (xy 146.236076 84.916893)
        (xy 146.186237 84.867054)
        (xy 146.174397 84.851625)
        (xy 146.139151 84.790577)
        (xy 146.131709 84.77261)
        (xy 146.123218 84.740921)
        (xy 146.113043 84.702948)
        (xy 146.111144 84.693399)
        (xy 146.110678 84.689858)
        (xy 146.11007 84.68219)
        (xy 146.108558 84.62707)
        (xy 146.107165 84.622389)
        (xy 146.106395 84.617565)
        (xy 146.10649 84.61755)
        (xy 146.104128 84.601331)
        (xy 146.104128 81.419753)
        (xy 156.448024 81.419753)
        (xy 156.461854 81.63076)
        (xy 156.462694 81.634069)
        (xy 156.462695 81.634073)
        (xy 156.485275 81.722981)
        (xy 156.513906 81.835714)
        (xy 156.602436 82.02775)
        (xy 156.724479 82.200437)
        (xy 156.726926 82.20282)
        (xy 156.726927 82.202822)
        (xy 156.873496 82.345604)
        (xy 156.8735 82.345607)
        (xy 156.875948 82.347992)
        (xy 157.051771 82.465473)
        (xy 157.0549 82.466817)
        (xy 157.054905 82.46682)
        (xy 157.141286 82.503932)
        (xy 157.246059 82.548946)
        (xy 157.249387 82.549699)
        (xy 157.24939 82.5497)
        (xy 157.354894 82.573573)
        (xy 157.452305 82.595615)
        (xy 157.455709 82.595749)
        (xy 157.455711 82.595749)
        (xy 157.660189 82.603782)
        (xy 157.66019 82.603782)
        (xy 157.663602 82.603916)
        (xy 157.66698 82.603426)
        (xy 157.666984 82.603426)
        (xy 157.869495 82.574063)
        (xy 157.869496 82.574063)
        (xy 157.872874 82.573573)
        (xy 157.945424 82.548946)
        (xy 158.069874 82.506701)
        (xy 158.073112 82.505602)
        (xy 158.25761 82.402278)
        (xy 158.42019 82.267062)
        (xy 158.555406 82.104482)
        (xy 158.65873 81.919984)
        (xy 158.726701 81.719746)
        (xy 158.757044 81.510474)
        (xy 158.758628 81.45)
        (xy 158.756163 81.423168)
        (xy 158.739592 81.242832)
        (xy 158.739592 81.242831)
        (xy 158.739279 81.239427)
        (xy 158.685809 81.049838)
        (xy 158.682806 81.039189)
        (xy 158.682806 81.039188)
        (xy 158.68188 81.035906)
        (xy 158.666533 81.004786)
        (xy 158.589866 80.849318)
        (xy 158.589863 80.849314)
        (xy 158.588354 80.846253)
        (xy 158.586228 80.843405)
        (xy 158.463881 80.679564)
        (xy 158.461832 80.67682)
        (xy 158.306552 80.53328)
        (xy 158.127714 80.420442)
        (xy 157.931308 80.342084)
        (xy 157.887123 80.333295)
        (xy 157.72726 80.301496)
        (xy 157.727258 80.301496)
        (xy 157.723911 80.30083)
        (xy 157.720505 80.300785)
        (xy 157.720501 80.300785)
        (xy 157.61819 80.299446)
        (xy 157.512469 80.298062)
        (xy 157.304063 80.333873)
        (xy 157.105672 80.407063)
        (xy 156.923942 80.515181)
        (xy 156.764958 80.654606)
        (xy 156.634044 80.82067)
        (xy 156.535585 81.007809)
        (xy 156.472878 81.209758)
        (xy 156.472477 81.213147)
        (xy 156.472476 81.213151)
        (xy 156.458483 81.331382)
        (xy 156.448024 81.419753)
        (xy 146.104128 81.419753)
        (xy 146.104128 79.964961)
        (xy 160.196729 79.964961)
        (xy 160.19788 79.969703)
        (xy 160.200026 79.978544)
        (xy 160.202128 79.996117)
        (xy 160.202128 82.903887)
        (xy 160.200026 82.92146)
        (xy 160.19673 82.935039)
        (xy 160.196846 82.939918)
        (xy 160.199385 83.047133)
        (xy 160.199247 83.053759)
        (xy 160.198812 83.060395)
        (xy 160.199754 83.065131)
        (xy 160.199769 83.065465)
        (xy 160.199827 83.065792)
        (xy 160.199941 83.070611)
        (xy 160.201811 83.07698)
        (xy 160.203388 83.083397)
        (xy 160.240773 83.271342)
        (xy 160.241563 83.276127)
        (xy 160.242529 83.283469)
        (xy 160.24379 83.286514)
        (xy 160.244433 83.289745)
        (xy 160.246592 83.294123)
        (xy 160.246592 83.294124)
        (xy 160.247701 83.296373)
        (xy 160.249713 83.300813)
        (xy 160.324834 83.482171)
        (xy 160.326549 83.486727)
        (xy 160.328926 83.493729)
        (xy 160.330757 83.496469)
        (xy 160.332018 83.499514)
        (xy 160.334987 83.503383)
        (xy 160.33499 83.503388)
        (xy 160.336518 83.505379)
        (xy 160.339357 83.50934)
        (xy 160.402452 83.603768)
        (xy 160.448424 83.672571)
        (xy 160.45099 83.676698)
        (xy 160.454682 83.683093)
        (xy 160.45701 83.685421)
        (xy 160.458842 83.688163)
        (xy 160.462511 83.691381)
        (xy 160.462515 83.691385)
        (xy 160.464416 83.693052)
        (xy 160.467975 83.696386)
        (xy 160.606756 83.835167)
        (xy 160.610074 83.838708)
        (xy 160.614964 83.844284)
        (xy 160.617703 83.846114)
        (xy 160.620034 83.848445)
        (xy 160.62646 83.852155)
        (xy 160.630577 83.854716)
        (xy 160.793787 83.96377)
        (xy 160.797749 83.966609)
        (xy 160.799732 83.968131)
        (xy 160.799737 83.968134)
        (xy 160.803614 83.971109)
        (xy 160.806657 83.972369)
        (xy 160.809398 83.974201)
        (xy 160.816416 83.976583)
        (xy 160.820958 83.978293)
        (xy 161.002306 84.05341)
        (xy 161.00675 84.055424)
        (xy 161.008998 84.056533)
        (xy 161.009002 84.056534)
        (xy 161.013381 84.058694)
        (xy 161.016614 84.059337)
        (xy 161.019658 84.060598)
        (xy 161.024495 84.061235)
        (xy 161.024496 84.061235)
        (xy 161.026996 84.061564)
        (xy 161.031806 84.062359)
        (xy 161.130706 84.082032)
        (xy 161.224327 84.100654)
        (xy 161.229057 84.101757)
        (xy 161.236205 84.103672)
        (xy 161.239499 84.103672)
        (xy 161.242732 84.104315)
        (xy 161.247601 84.103996)
        (xy 161.247602 84.103996)
        (xy 161.250117 84.103831)
        (xy 161.254989 84.103672)
        (xy 161.451265 84.103672)
        (xy 161.456137 84.103831)
        (xy 161.458652 84.103996)
        (xy 161.458653 84.103996)
        (xy 161.463522 84.104315)
        (xy 161.466755 84.103672)
        (xy 161.470049 84.103672)
        (xy 161.477197 84.101757)
        (xy 161.481921 84.100656)
        (xy 161.67446 84.062356)
        (xy 161.679239 84.061566)
        (xy 161.686596 84.060598)
        (xy 161.689641 84.059337)
        (xy 161.692872 84.058694)
        (xy 161.699504 84.055424)
        (xy 161.703931 84.053418)
        (xy 161.885298 83.978293)
        (xy 161.889854 83.976578)
        (xy 161.896856 83.974201)
        (xy 161.899596 83.97237)
        (xy 161.902641 83.971109)
        (xy 161.90651 83.96814)
        (xy 161.906515 83.968137)
        (xy 161.908506 83.966609)
        (xy 161.912471 83.963767)
        (xy 162.075679 83.854716)
        (xy 162.075706 83.854698)
        (xy 162.079825 83.852137)
        (xy 162.08622 83.848445)
        (xy 162.088548 83.846117)
        (xy 162.09129 83.844285)
        (xy 162.094508 83.840616)
        (xy 162.094512 83.840612)
        (xy 162.096179 83.838711)
        (xy 162.099513 83.835152)
        (xy 162.238294 83.696371)
        (xy 162.241836 83.693052)
        (xy 162.247411 83.688163)
        (xy 162.249241 83.685424)
        (xy 162.251572 83.683093)
        (xy 162.255282 83.676667)
        (xy 162.257843 83.67255)
        (xy 162.366897 83.50934)
        (xy 162.369736 83.505378)
        (xy 162.371258 83.503395)
        (xy 162.371262 83.503388)
        (xy 162.374236 83.499513)
        (xy 162.375496 83.49647)
        (xy 162.377328 83.493729)
        (xy 162.37971 83.486711)
        (xy 162.38142 83.482169)
        (xy 162.456537 83.300821)
        (xy 162.458551 83.296377)
        (xy 162.45966 83.294129)
        (xy 162.459662 83.294124)
        (xy 162.461821 83.289746)
        (xy 162.462464 83.286513)
        (xy 162.463725 83.283469)
        (xy 162.464691 83.276129)
        (xy 162.465486 83.271318)
        (xy 162.480046 83.198123)
        (xy 162.502861 83.083425)
        (xy 162.504444 83.07698)
        (xy 162.504938 83.075299)
        (xy 162.504938 83.075296)
        (xy 162.506314 83.07061)
        (xy 162.506428 83.065782)
        (xy 162.506486 83.065455)
        (xy 162.506501 83.065126)
        (xy 162.507442 83.060395)
        (xy 162.507008 83.053768)
        (xy 162.50687 83.047146)
        (xy 162.509408 82.939918)
        (xy 162.509524 82.935038)
        (xy 162.506229 82.921463)
        (xy 162.504127 82.90389)
        (xy 162.504127 79.996114)
        (xy 162.506229 79.978541)
        (xy 162.508374 79.969704)
        (xy 162.508374 79.969703)
        (xy 162.509525 79.964962)
        (xy 162.506871 79.852854)
        (xy 162.507009 79.846223)
        (xy 162.507443 79.839605)
        (xy 162.506502 79.834874)
        (xy 162.506487 79.834545)
        (xy 162.506429 79.834218)
        (xy 162.506315 79.82939)
        (xy 162.504444 79.823016)
        (xy 162.502862 79.816575)
        (xy 162.465485 79.628671)
        (xy 162.464692 79.623868)
        (xy 162.464363 79.621371)
        (xy 162.463726 79.616531)
        (xy 162.462465 79.613487)
        (xy 162.461822 79.610254)
        (xy 162.459662 79.605875)
        (xy 162.459661 79.605871)
        (xy 162.458552 79.603623)
        (xy 162.456538 79.599179)
        (xy 162.381421 79.417831)
        (xy 162.379711 79.413289)
        (xy 162.377329 79.406271)
        (xy 162.375497 79.40353)
        (xy 162.374237 79.400487)
        (xy 162.371262 79.39661)
        (xy 162.371259 79.396605)
        (xy 162.369737 79.394622)
        (xy 162.366898 79.39066)
        (xy 162.258661 79.228673)
        (xy 162.257843 79.227449)
        (xy 162.255283 79.223333)
        (xy 162.251573 79.216907)
        (xy 162.249242 79.214576)
        (xy 162.247412 79.211837)
        (xy 162.241836 79.206947)
        (xy 162.238295 79.203629)
        (xy 162.099513 79.064847)
        (xy 162.096179 79.061288)
        (xy 162.094512 79.059387)
        (xy 162.094508 79.059383)
        (xy 162.09129 79.055714)
        (xy 162.088548 79.053882)
        (xy 162.08622 79.051554)
        (xy 162.079825 79.047862)
        (xy 162.075706 79.045301)
        (xy 161.933837 78.950508)
        (xy 161.912471 78.936232)
        (xy 161.908506 78.93339)
        (xy 161.906515 78.931862)
        (xy 161.90651 78.931859)
        (xy 161.902641 78.92889)
        (xy 161.899596 78.927629)
        (xy 161.896856 78.925798)
        (xy 161.889854 78.923421)
        (xy 161.885298 78.921706)
        (xy 161.821215 78.895162)
        (xy 161.703931 78.846581)
        (xy 161.6995 78.844573)
        (xy 161.697251 78.843464)
        (xy 161.69725 78.843464)
        (xy 161.692872 78.841305)
        (xy 161.689641 78.840662)
        (xy 161.686596 78.839401)
        (xy 161.679239 78.838433)
        (xy 161.67446 78.837643)
        (xy 161.481921 78.799343)
        (xy 161.477197 78.798242)
        (xy 161.470049 78.796327)
        (xy 161.466755 78.796327)
        (xy 161.463522 78.795684)
        (xy 161.458653 78.796003)
        (xy 161.458652 78.796003)
        (xy 161.456137 78.796168)
        (xy 161.451265 78.796327)
        (xy 161.254989 78.796327)
        (xy 161.250117 78.796168)
        (xy 161.247602 78.796003)
        (xy 161.247601 78.796003)
        (xy 161.242732 78.795684)
        (xy 161.239499 78.796327)
        (xy 161.236205 78.796327)
        (xy 161.229057 78.798242)
        (xy 161.224327 78.799345)
        (xy 161.130706 78.817967)
        (xy 161.031806 78.83764)
        (xy 161.026996 78.838435)
        (xy 161.024496 78.838764)
        (xy 161.024495 78.838764)
        (xy 161.019658 78.839401)
        (xy 161.016614 78.840662)
        (xy 161.013381 78.841305)
        (xy 161.009002 78.843465)
        (xy 161.008998 78.843466)
        (xy 161.00675 78.844575)
        (xy 161.002315 78.846585)
        (xy 160.861681 78.904838)
        (xy 160.820958 78.921706)
        (xy 160.816416 78.923416)
        (xy 160.809398 78.925798)
        (xy 160.806657 78.92763)
        (xy 160.803614 78.92889)
        (xy 160.799737 78.931865)
        (xy 160.799732 78.931868)
        (xy 160.797749 78.93339)
        (xy 160.793787 78.936229)
        (xy 160.630577 79.045283)
        (xy 160.62646 79.047844)
        (xy 160.620034 79.051554)
        (xy 160.617703 79.053885)
        (xy 160.614964 79.055715)
        (xy 160.610077 79.061288)
        (xy 160.606756 79.064832)
        (xy 160.467974 79.203614)
        (xy 160.464415 79.206948)
        (xy 160.462514 79.208615)
        (xy 160.46251 79.208619)
        (xy 160.458841 79.211837)
        (xy 160.457009 79.214579)
        (xy 160.454681 79.216907)
        (xy 160.450989 79.223302)
        (xy 160.448428 79.227421)
        (xy 160.421891 79.267137)
        (xy 160.339359 79.390656)
        (xy 160.336517 79.394621)
        (xy 160.334989 79.396612)
        (xy 160.334986 79.396617)
        (xy 160.332017 79.400486)
        (xy 160.330756 79.403531)
        (xy 160.328925 79.406271)
        (xy 160.327355 79.410895)
        (xy 160.327355 79.410896)
        (xy 160.32655 79.413268)
        (xy 160.324833 79.417829)
        (xy 160.249712 79.599187)
        (xy 160.2477 79.603627)
        (xy 160.246594 79.605871)
        (xy 160.244432 79.610255)
        (xy 160.243789 79.613486)
        (xy 160.242528 79.616531)
        (xy 160.241562 79.623868)
        (xy 160.241562 79.623871)
        (xy 160.240772 79.628658)
        (xy 160.203387 79.816603)
        (xy 160.201811 79.823016)
        (xy 160.19994 79.829389)
        (xy 160.199826 79.834208)
        (xy 160.199768 79.834535)
        (xy 160.199753 79.834869)
        (xy 160.198811 79.839605)
        (xy 160.199131 79.844478)
        (xy 160.199246 79.846232)
        (xy 160.199384 79.852867)
        (xy 160.196729 79.964961)
        (xy 146.104128 79.964961)
        (xy 146.104128 78.298669)
        (xy 146.10649 78.28245)
        (xy 146.106395 78.282435)
        (xy 146.107165 78.277611)
        (xy 146.108558 78.27293)
        (xy 146.11007 78.21781)
        (xy 146.110678 78.210142)
        (xy 146.111144 78.206601)
        (xy 146.113043 78.197052)
        (xy 146.13171 78.127387)
        (xy 146.139151 78.109423)
        (xy 146.174397 78.048375)
        (xy 146.186237 78.032946)
        (xy 146.236076 77.983107)
        (xy 146.251505 77.971267)
        (xy 146.312548 77.936024)
        (xy 146.330515 77.928582)
        (xy 146.34674 77.924234)
        (xy 146.400179 77.909915)
        (xy 146.409726 77.908017)
        (xy 146.413271 77.90755)
        (xy 146.420938 77.906942)
        (xy 146.467111 77.905675)
        (xy 146.471175 77.905564)
        (xy 146.476059 77.90543)
        (xy 146.48074 77.904037)
        (xy 146.485564 77.903267)
        (xy 146.485579 77.903362)
        (xy 146.501798 77.901)
        (xy 160.161944 77.901)
      )
    )
  )
  (group "" (id 21dbcaec-9842-4eac-a43c-128eeaa89e19)
    (members
      3c6f6842-c08c-44c5-b2f2-75d5c8f7bcf1
      51244afd-3b30-4e34-8c80-a4abffd9f97a
      c4041918-ec57-41a2-8f2e-507dcced3f9d
      fd9236ce-ec87-4bd2-8288-db930dfe6177
    )
  )
)
